11259136 406224 3.69953e+06 30899.1 5.46758e-13 61.7333 0 1410216752.3356 300.0000 152.4000 
11259137 405013.0000 3700820.0000 10363.2000 2.6262 249.5060 0.0000 1410216752.3358 300.0000 152.4000 
11259138 407881.0000 3701690.0000 10972.8000 0.7854 254.6500 0.0000 1410216752.3389 300.0000 152.4000 
11259136 406288.0000 3699520.0000 30899.1000 0.0000 61.7333 0.0000 1410216753.3391 300.0000 152.4000 
11259137 404798.0000 3700950.0000 10363.2000 2.6262 249.5060 0.0000 1410216753.3393 300.0000 152.4000 
11259138 408064.0000 3701870.0000 10972.8000 0.7854 254.6500 0.0000 1410216753.3393 300.0000 152.4000 
11259136 406352.0000 3699520.0000 30899.1000 0.0000 61.7333 0.0000 1410216754.3395 300.0000 152.4000 
11259137 404581.0000 3701070.0000 10363.2000 2.6262 249.5060 0.0000 1410216754.3396 300.0000 152.4000 
11259138 408247.0000 3702040.0000 10972.8000 0.7854 254.6500 0.0000 1410216754.3397 300.0000 152.4000 
11259136 406416.0000 3699520.0000 30899.1000 0.0000 61.7333 0.0000 1410216755.3398 300.0000 152.4000 
11259137 404365.0000 3701190.0000 10363.2000 2.6262 249.5060 0.0000 1410216755.3400 300.0000 152.4000 
11259138 408430.0000 3702220.0000 10972.8000 0.7854 254.6500 0.0000 1410216755.3400 300.0000 152.4000 
11259136 406480.0000 3699520.0000 30899.1000 0.0000 61.7333 0.0000 1410216756.3402 300.0000 152.4000 
11259137 404149.0000 3701320.0000 10363.2000 2.6262 249.5060 0.0000 1410216756.3404 300.0000 152.4000 
11259138 408613.0000 3702400.0000 10972.8000 0.7854 254.6500 0.0000 1410216756.3405 300.0000 152.4000 
11259136 406543.0000 3699520.0000 30899.1000 0.0000 61.7333 0.0000 1410216757.3406 300.0000 152.4000 
11259137 403933.0000 3701440.0000 10363.2000 2.6262 249.5060 0.0000 1410216757.3408 300.0000 152.4000 
11259138 408796.0000 3702570.0000 10972.8000 0.7854 254.6500 0.0000 1410216757.3408 300.0000 152.4000 
11259136 406607.0000 3699520.0000 30899.1000 0.0000 61.7333 0.0000 1410216758.3410 300.0000 152.4000 
11259137 403716.0000 3701560.0000 10363.2000 2.6262 249.5060 0.0000 1410216758.3411 300.0000 152.4000 
11259138 408979.0000 3702750.0000 10972.8000 0.7854 254.6500 0.0000 1410216758.3412 300.0000 152.4000 
11259136 406671.0000 3699520.0000 30899.1000 0.0000 61.7333 0.0000 1410216759.3413 300.0000 152.4000 
11259137 403501.0000 3701690.0000 10363.2000 2.6262 249.5060 0.0000 1410216759.3415 300.0000 152.4000 
11259138 409162.0000 3702930.0000 10972.8000 0.7854 254.6500 0.0000 1410216759.3415 300.0000 152.4000 
11259136 406735.0000 3699520.0000 30899.1000 0.0000 61.7333 0.0000 1410216760.3420 300.0000 152.4000 
11259137 403284.0000 3701810.0000 10363.2000 2.6262 249.5060 0.0000 1410216760.3421 300.0000 152.4000 
11259138 409345.0000 3703100.0000 10972.8000 0.7854 254.6500 0.0000 1410216760.3422 300.0000 152.4000 
11259136 406799.0000 3699520.0000 30899.1000 0.0000 61.7333 0.0000 1410216761.3423 300.0000 152.4000 
11259137 403068.0000 3701930.0000 10363.2000 2.6262 249.5060 0.0000 1410216761.3425 300.0000 152.4000 
11259138 409529.0000 3703280.0000 10972.8000 0.7854 254.6500 0.0000 1410216761.3425 300.0000 152.4000 
11259136 406863.0000 3699520.0000 30899.1000 0.0000 61.7333 0.0000 1410216762.3427 300.0000 152.4000 
11259137 402852.0000 3702060.0000 10363.2000 2.6262 249.5060 0.0000 1410216762.3429 300.0000 152.4000 
11259138 409712.0000 3703460.0000 10972.8000 0.7854 254.6500 0.0000 1410216762.3429 300.0000 152.4000 
11259136 406926.0000 3699520.0000 30899.1000 0.0000 61.7333 0.0000 1410216763.3431 300.0000 152.4000 
11259137 402635.0000 3702180.0000 10363.2000 2.6262 249.5060 0.0000 1410216763.3432 300.0000 152.4000 
11259138 409895.0000 3703640.0000 10972.8000 0.7854 254.6500 0.0000 1410216763.3433 300.0000 152.4000 
11259136 406990.0000 3699520.0000 30899.1000 0.0000 61.7333 0.0000 1410216764.3435 300.0000 152.4000 
11259137 402420.0000 3702300.0000 10363.2000 2.6262 249.5060 0.0000 1410216764.3436 300.0000 152.4000 
11259138 410078.0000 3703810.0000 10972.8000 0.7854 254.6500 0.0000 1410216764.3437 300.0000 152.4000 
11259136 407054.0000 3699520.0000 30899.1000 0.0000 61.7333 0.0000 1410216765.3438 300.0000 152.4000 
11259137 402203.0000 3702430.0000 10363.2000 2.6262 249.5060 0.0000 1410216765.3440 300.0000 152.4000 
11259138 410261.0000 3703990.0000 10972.8000 0.7854 254.6500 0.0000 1410216765.3441 300.0000 152.4000 
11259136 407118.0000 3699520.0000 30899.1000 0.0000 61.7333 0.0000 1410216766.3442 300.0000 152.4000 
11259137 401988.0000 3702550.0000 10363.2000 2.6262 249.5060 0.0000 1410216766.3444 300.0000 152.4000 
11259138 410444.0000 3704170.0000 10972.8000 0.7854 254.6500 0.0000 1410216766.3444 300.0000 152.4000 
11259136 407182.0000 3699520.0000 30899.1000 0.0000 61.7333 0.0000 1410216767.3446 300.0000 152.4000 
11259137 401771.0000 3702670.0000 10363.2000 2.6262 249.5060 0.0000 1410216767.3447 300.0000 152.4000 
11259138 410628.0000 3704340.0000 10972.8000 0.7854 254.6500 0.0000 1410216767.3448 300.0000 152.4000 
11259136 407246.0000 3699520.0000 30899.1000 0.0000 61.7333 0.0000 1410216768.3451 300.0000 152.4000 
11259137 401555.0000 3702800.0000 10363.2000 2.6262 249.5060 0.0000 1410216768.3453 300.0000 152.4000 
11259138 410811.0000 3704520.0000 10972.8000 0.7854 254.6500 0.0000 1410216768.3453 300.0000 152.4000 
11259136 407309.0000 3699510.0000 30899.1000 0.0000 61.7333 0.0000 1410216769.3473 300.0000 152.4000 
11259137 401341.0000 3702920.0000 10363.2000 2.6262 249.5060 0.0000 1410216769.3474 300.0000 152.4000 
11259136 407373.0000 3699510.0000 30899.1000 0.0000 61.7333 0.0000 1410216770.3476 300.0000 152.4000 
11259137 401125.0000 3703050.0000 10363.2000 2.6262 249.5060 0.0000 1410216770.3477 300.0000 152.4000 
11259138 411177.0000 3704870.0000 10972.8000 0.7854 254.6500 0.0000 1410216770.3478 300.0000 152.4000 
11259136 407437.0000 3699510.0000 30899.1000 0.0000 61.7333 0.0000 1410216771.3479 300.0000 152.4000 
11259137 400909.0000 3703170.0000 10363.2000 2.6262 249.5060 0.0000 1410216771.3481 300.0000 152.4000 
11259138 411360.0000 3705050.0000 10972.8000 0.7854 254.6500 0.0000 1410216771.3481 300.0000 152.4000 
11259136 407501.0000 3699510.0000 30899.1000 0.0000 61.7333 0.0000 1410216772.3483 300.0000 152.4000 
11259137 400692.0000 3703290.0000 10363.2000 2.6262 249.5060 0.0000 1410216772.3485 300.0000 152.4000 
11259138 411543.0000 3705230.0000 10972.8000 0.7854 254.6500 0.0000 1410216772.3485 300.0000 152.4000 
11259136 407565.0000 3699510.0000 30899.1000 0.0000 61.7333 0.0000 1410216773.3487 300.0000 152.4000 
11259137 400477.0000 3703420.0000 10363.2000 2.6262 249.5060 0.0000 1410216773.3489 300.0000 152.4000 
11259138 411726.0000 3705400.0000 10972.8000 0.7854 254.6500 0.0000 1410216773.3489 300.0000 152.4000 
11259136 407629.0000 3699510.0000 30899.1000 0.0000 61.7333 0.0000 1410216774.3491 300.0000 152.4000 
11259137 400263.0000 3703540.0000 10363.2000 2.6262 249.5060 0.0000 1410216774.3493 300.0000 152.4000 
11259138 411909.0000 3705580.0000 10972.8000 0.7854 254.6500 0.0000 1410216774.3493 300.0000 152.4000 
11259136 407692.0000 3699510.0000 30899.1000 0.0000 61.7333 0.0000 1410216775.3495 300.0000 152.4000 
11259137 400046.0000 3703660.0000 10363.2000 2.6262 249.5060 0.0000 1410216775.3496 300.0000 152.4000 
11259138 412092.0000 3705760.0000 10972.8000 0.7854 254.6500 0.0000 1410216775.3497 300.0000 152.4000 
11259136 407756.0000 3699510.0000 30899.1000 0.0000 61.7333 0.0000 1410216776.3498 300.0000 152.4000 
11259137 399830.0000 3703790.0000 10363.2000 2.6262 249.5060 0.0000 1410216776.3500 300.0000 152.4000 
11259136 407820.0000 3699510.0000 30899.1000 0.0000 61.7333 0.0000 1410216777.3501 300.0000 152.4000 
11259137 399614.0000 3703910.0000 10363.2000 2.6262 249.5060 0.0000 1410216777.3503 300.0000 152.4000 
11259138 412458.0000 3706110.0000 10972.8000 0.7854 254.6500 0.0000 1410216777.3503 300.0000 152.4000 
11259136 407884.0000 3699510.0000 30899.1000 0.0000 61.7333 0.0000 1410216778.3505 300.0000 152.4000 
11259137 399398.0000 3704030.0000 10363.2000 2.6262 249.5060 0.0000 1410216778.3507 300.0000 152.4000 
11259138 412641.0000 3706290.0000 10972.8000 0.7854 254.6500 0.0000 1410216778.3508 300.0000 152.4000 
11259136 407948.0000 3699510.0000 30899.1000 0.0000 61.7333 0.0000 1410216779.3509 300.0000 152.4000 
11259137 399184.0000 3704160.0000 10363.2000 2.6262 249.5060 0.0000 1410216779.3512 300.0000 152.4000 
11259136 408012.0000 3699510.0000 30899.1000 0.0000 61.7333 0.0000 1410216780.3514 300.0000 152.4000 
11259137 398968.0000 3704280.0000 10363.2000 2.6262 249.5060 0.0000 1410216780.3515 300.0000 152.4000 
11259138 413007.0000 3706640.0000 10972.8000 0.7854 254.6500 0.0000 1410216780.3516 300.0000 152.4000 
11259136 408075.0000 3699510.0000 30899.1000 0.0000 61.7333 0.0000 1410216781.3518 300.0000 152.4000 
11259137 398752.0000 3704400.0000 10363.2000 2.6262 249.5060 0.0000 1410216781.3519 300.0000 152.4000 
11259138 413190.0000 3706820.0000 10972.8000 0.7854 254.6500 0.0000 1410216781.3520 300.0000 152.4000 
11259136 408139.0000 3699510.0000 30899.1000 0.0000 61.7333 0.0000 1410216782.3522 300.0000 152.4000 
11259137 398536.0000 3704530.0000 10363.2000 2.6262 249.5060 0.0000 1410216782.3524 300.0000 152.4000 
11259138 413373.0000 3706990.0000 10972.8000 0.7854 254.6500 0.0000 1410216782.3524 300.0000 152.4000 
11259136 408203.0000 3699510.0000 30899.1000 0.0000 61.7333 0.0000 1410216783.3526 300.0000 152.4000 
11259137 398320.0000 3704650.0000 10363.2000 2.6262 249.5060 0.0000 1410216783.3528 300.0000 152.4000 
11259138 413556.0000 3707170.0000 10972.8000 0.7854 254.6500 0.0000 1410216783.3528 300.0000 152.4000 
11259136 408267.0000 3699510.0000 30899.1000 0.0000 61.7333 0.0000 1410216784.3531 300.0000 152.4000 
11259137 398106.0000 3704780.0000 10363.2000 2.6262 249.5060 0.0000 1410216784.3532 300.0000 152.4000 
11259138 413739.0000 3707350.0000 10972.8000 0.7854 254.6500 0.0000 1410216784.3533 300.0000 152.4000 
11259136 408331.0000 3699510.0000 30899.1000 0.0000 61.7333 0.0000 1410216785.3534 300.0000 152.4000 
11259137 397889.0000 3704900.0000 10363.2000 2.6262 249.5060 0.0000 1410216785.3537 300.0000 152.4000 
11259138 413922.0000 3707520.0000 10972.8000 0.7854 254.6500 0.0000 1410216785.3537 300.0000 152.4000 
11259136 408395.0000 3699500.0000 30899.1000 0.0000 61.7333 0.0000 1410216786.3539 300.0000 152.4000 
11259137 397674.0000 3705020.0000 10363.2000 2.6262 249.5060 0.0000 1410216786.3541 300.0000 152.4000 
11259138 414105.0000 3707700.0000 10972.8000 0.7854 254.6500 0.0000 1410216786.3541 300.0000 152.4000 
11259136 408458.0000 3699500.0000 30899.1000 0.0000 61.7333 0.0000 1410216787.3543 300.0000 152.4000 
11259137 397458.0000 3705150.0000 10363.2000 2.6262 249.5060 0.0000 1410216787.3545 300.0000 152.4000 
11259138 414288.0000 3707880.0000 10972.8000 0.7854 254.6500 0.0000 1410216787.3545 300.0000 152.4000 
11259136 408522.0000 3699500.0000 30899.1000 0.0000 61.7333 0.0000 1410216788.3547 300.0000 152.4000 
11259137 397242.0000 3705270.0000 10363.2000 2.6262 249.5060 0.0000 1410216788.3549 300.0000 152.4000 
11259138 414471.0000 3708050.0000 10972.8000 0.7854 254.6500 0.0000 1410216788.3550 300.0000 152.4000 
11259136 408586.0000 3699500.0000 30899.1000 0.0000 61.7333 0.0000 1410216789.3552 300.0000 152.4000 
11259137 397028.0000 3705390.0000 10363.2000 2.6262 249.5060 0.0000 1410216789.3554 300.0000 152.4000 
11259138 414653.0000 3708230.0000 10972.8000 0.7854 254.6500 0.0000 1410216789.3554 300.0000 152.4000 
11259136 408650.0000 3699500.0000 30899.1000 0.0000 61.7333 0.0000 1410216790.3556 300.0000 152.4000 
11259138 414836.0000 3708410.0000 10972.8000 0.7854 254.6500 0.0000 1410216790.3558 300.0000 152.4000 
11259136 408714.0000 3699500.0000 30899.1000 0.0000 61.7333 0.0000 1410216791.3560 300.0000 152.4000 
11259137 396596.0000 3705640.0000 10363.2000 2.6262 249.5060 0.0000 1410216791.3562 300.0000 152.4000 
11259136 408778.0000 3699500.0000 30899.1000 0.0000 61.7333 0.0000 1410216792.3564 300.0000 152.4000 
11259137 396379.0000 3705760.0000 10363.2000 2.6262 249.5060 0.0000 1410216792.3567 300.0000 152.4000 
11259138 415202.0000 3708760.0000 10972.8000 0.7854 254.6500 0.0000 1410216792.3568 300.0000 152.4000 
11259136 408841.0000 3699500.0000 30899.1000 0.0000 61.7333 0.0000 1410216793.3570 300.0000 152.4000 
11259137 396164.0000 3705890.0000 10363.2000 2.6262 249.5060 0.0000 1410216793.3572 300.0000 152.4000 
11259138 415385.0000 3708940.0000 10972.8000 0.7854 254.6500 0.0000 1410216793.3572 300.0000 152.4000 
11259136 408905.0000 3699500.0000 30899.1000 0.0000 61.7333 0.0000 1410216794.3574 300.0000 152.4000 
11259137 395950.0000 3706010.0000 10363.2000 2.6262 249.5060 0.0000 1410216794.3576 300.0000 152.4000 
11259138 415568.0000 3709120.0000 10972.8000 0.7854 254.6500 0.0000 1410216794.3576 300.0000 152.4000 
11259136 408969.0000 3699500.0000 30899.1000 0.0000 61.7333 0.0000 1410216795.3578 300.0000 152.4000 
11259137 395733.0000 3706140.0000 10363.2000 2.6262 249.5060 0.0000 1410216795.3580 300.0000 152.4000 
11259138 415751.0000 3709290.0000 10972.8000 0.7854 254.6500 0.0000 1410216795.3580 300.0000 152.4000 
11259136 409033.0000 3699500.0000 30899.1000 0.0000 61.7333 0.0000 1410216796.3582 300.0000 152.4000 
11259137 395518.0000 3706260.0000 10363.2000 2.6262 249.5060 0.0000 1410216796.3583 300.0000 152.4000 
11259138 415934.0000 3709470.0000 10972.8000 0.7854 254.6500 0.0000 1410216796.3584 300.0000 152.4000 
11259136 409097.0000 3699500.0000 30899.1000 0.0000 61.7333 0.0000 1410216797.3586 300.0000 152.4000 
11259136 409161.0000 3699500.0000 30899.1000 0.0000 61.7333 0.0000 1410216798.3589 300.0000 152.4000 
11259137 395086.0000 3706510.0000 10363.2000 2.6262 249.5060 0.0000 1410216798.3590 300.0000 152.4000 
11259138 416300.0000 3709820.0000 10972.8000 0.7854 254.6500 0.0000 1410216798.3591 300.0000 152.4000 
11259136 409224.0000 3699500.0000 30899.1000 0.0000 61.7333 0.0000 1410216799.3593 300.0000 152.4000 
11259137 394872.0000 3706630.0000 10363.2000 2.6262 249.5060 0.0000 1410216799.3595 300.0000 152.4000 
11259138 416483.0000 3710000.0000 10972.8000 0.7854 254.6500 0.0000 1410216799.3595 300.0000 152.4000 
11259136 409288.0000 3699500.0000 30899.1000 0.0000 61.7333 0.0000 1410216800.3597 300.0000 152.4000 
11259137 394656.0000 3706750.0000 10363.2000 2.6262 249.5060 0.0000 1410216800.3598 300.0000 152.4000 
11259138 416666.0000 3710180.0000 10972.8000 0.7854 254.6500 0.0000 1410216800.3599 300.0000 152.4000 
11259136 409352.0000 3699500.0000 30899.1000 0.0000 61.7333 0.0000 1410216801.3600 300.0000 152.4000 
11259137 394440.0000 3706880.0000 10363.2000 2.6262 249.5060 0.0000 1410216801.3602 300.0000 152.4000 
11259138 416849.0000 3710350.0000 10972.8000 0.7854 254.6500 0.0000 1410216801.3603 300.0000 152.4000 
11259136 409416.0000 3699490.0000 30899.1000 0.0000 61.7333 0.0000 1410216802.3605 300.0000 152.4000 
11259137 394224.0000 3707000.0000 10363.2000 2.6262 249.5060 0.0000 1410216802.3607 300.0000 152.4000 
11259138 417032.0000 3710530.0000 10972.8000 0.7854 254.6500 0.0000 1410216802.3607 300.0000 152.4000 
11259136 409480.0000 3699490.0000 30899.1000 0.0000 61.7333 0.0000 1410216803.3609 300.0000 152.4000 
11259137 394008.0000 3707130.0000 10363.2000 2.6262 249.5060 0.0000 1410216803.3611 300.0000 152.4000 
11259138 417215.0000 3710710.0000 10972.8000 0.7854 254.6500 0.0000 1410216803.3611 300.0000 152.4000 
11259136 409544.0000 3699490.0000 30899.1000 0.0000 61.7333 0.0000 1410216804.3613 300.0000 152.4000 
11259137 393794.0000 3707250.0000 10363.2000 2.6262 249.5060 0.0000 1410216804.3615 300.0000 152.4000 
11259138 417397.0000 3710880.0000 10972.8000 0.7854 254.6500 0.0000 1410216804.3615 300.0000 152.4000 
11259136 409607.0000 3699490.0000 30899.1000 0.0000 61.7333 0.0000 1410216805.3617 300.0000 152.4000 
11259137 393578.0000 3707370.0000 10363.2000 2.6262 249.5060 0.0000 1410216805.3619 300.0000 152.4000 
11259138 417580.0000 3711060.0000 10972.8000 0.7854 254.6500 0.0000 1410216805.3619 300.0000 152.4000 
11259136 409735.0000 3699490.0000 30899.1000 0.0000 61.7333 0.0000 1410216806.3621 300.0000 152.4000 
11259137 393146.0000 3707620.0000 10363.2000 2.6262 249.5060 0.0000 1410216806.3622 300.0000 152.4000 
11259138 417945.0000 3711410.0000 10972.8000 0.7854 254.6500 0.0000 1410216806.3623 300.0000 152.4000 
11259136 409799.0000 3699490.0000 30899.1000 0.0000 61.7333 0.0000 1410216807.3624 300.0000 152.4000 
11259137 392931.0000 3707740.0000 10363.2000 2.6262 249.5060 0.0000 1410216807.3626 300.0000 152.4000 
11259138 418128.0000 3711590.0000 10972.8000 0.7854 254.6500 0.0000 1410216807.3627 300.0000 152.4000 
11259136 409863.0000 3699490.0000 30899.1000 0.0000 61.7333 0.0000 1410216808.3628 300.0000 152.4000 
11259137 392717.0000 3707870.0000 10363.2000 2.6262 249.5060 0.0000 1410216808.3630 300.0000 152.4000 
11259138 418311.0000 3711770.0000 10972.8000 0.7854 254.6500 0.0000 1410216808.3631 300.0000 152.4000 
11259136 409927.0000 3699490.0000 30899.1000 0.0000 61.7333 0.0000 1410216809.3632 300.0000 152.4000 
11259137 392500.0000 3707990.0000 10363.2000 2.6262 249.5060 0.0000 1410216809.3634 300.0000 152.4000 
11259138 418494.0000 3711950.0000 10972.8000 0.7854 254.6500 0.0000 1410216809.3635 300.0000 152.4000 
11259136 409990.0000 3699490.0000 30899.1000 0.0000 61.7333 0.0000 1410216810.3636 300.0000 152.4000 
11259137 392285.0000 3708120.0000 10363.2000 2.6262 249.5060 0.0000 1410216810.3638 300.0000 152.4000 
11259138 418677.0000 3712120.0000 10972.8000 0.7854 254.6500 0.0000 1410216810.3638 300.0000 152.4000 
11259136 410054.0000 3699490.0000 30899.1000 0.0000 61.7333 0.0000 1410216811.3640 300.0000 152.4000 
11259137 392069.0000 3708240.0000 10363.2000 2.6262 249.5060 0.0000 1410216811.3642 300.0000 152.4000 
11259138 418860.0000 3712300.0000 10972.8000 0.7854 254.6500 0.0000 1410216811.3642 300.0000 152.4000 
11259136 410118.0000 3699490.0000 30899.1000 0.0000 61.7333 0.0000 1410216812.3644 300.0000 152.4000 
11259137 391853.0000 3708360.0000 10363.2000 2.6262 249.5060 0.0000 1410216812.3646 300.0000 152.4000 
11259138 419042.0000 3712480.0000 10972.8000 0.7854 254.6500 0.0000 1410216812.3647 300.0000 152.4000 
11259136 410182.0000 3699490.0000 30899.1000 0.0000 61.7333 0.0000 1410216813.3648 300.0000 152.4000 
11259137 391639.0000 3708490.0000 10363.2000 2.6262 249.5060 0.0000 1410216813.3650 300.0000 152.4000 
11259138 419225.0000 3712650.0000 10972.8000 0.7854 254.6500 0.0000 1410216813.3651 300.0000 152.4000 
11259136 410246.0000 3699490.0000 30899.1000 0.0000 61.7333 0.0000 1410216814.3653 300.0000 152.4000 
11259137 391423.0000 3708610.0000 10363.2000 2.6262 249.5060 0.0000 1410216814.3654 300.0000 152.4000 
11259138 419408.0000 3712830.0000 10972.8000 0.7854 254.6500 0.0000 1410216814.3655 300.0000 152.4000 
11259136 410310.0000 3699490.0000 30899.1000 0.0000 61.7333 0.0000 1410216815.3656 300.0000 152.4000 
11259137 391207.0000 3708730.0000 10363.2000 2.6262 249.5060 0.0000 1410216815.3658 300.0000 152.4000 
11259138 419591.0000 3713010.0000 10972.8000 0.7854 254.6500 0.0000 1410216815.3659 300.0000 152.4000 
11259136 410373.0000 3699490.0000 30899.1000 0.0000 61.7333 0.0000 1410216816.3661 300.0000 152.4000 
11259137 390991.0000 3708860.0000 10363.2000 2.6262 249.5060 0.0000 1410216816.3662 300.0000 152.4000 
11259138 419774.0000 3713180.0000 10972.8000 0.7854 254.6500 0.0000 1410216816.3663 300.0000 152.4000 
11259136 410437.0000 3699490.0000 30899.1000 0.0000 61.7333 0.0000 1410216817.3665 300.0000 152.4000 
11259137 390776.0000 3708980.0000 10363.2000 2.6262 249.5060 0.0000 1410216817.3666 300.0000 152.4000 
11259138 419956.0000 3713360.0000 10972.8000 0.7854 254.6500 0.0000 1410216817.3667 300.0000 152.4000 
11259136 410501.0000 3699480.0000 30899.1000 0.0000 61.7333 0.0000 1410216818.3669 300.0000 152.4000 
11259137 390562.0000 3709110.0000 10363.2000 2.6262 249.5060 0.0000 1410216818.3670 300.0000 152.4000 
11259138 420139.0000 3713540.0000 10972.8000 0.7854 254.6500 0.0000 1410216818.3671 300.0000 152.4000 
11259136 410565.0000 3699480.0000 30899.1000 0.0000 61.7333 0.0000 1410216819.3672 300.0000 152.4000 
11259137 390346.0000 3709230.0000 10363.2000 2.6262 249.5060 0.0000 1410216819.3674 300.0000 152.4000 
11259138 420322.0000 3713710.0000 10972.8000 0.7854 254.6500 0.0000 1410216819.3675 300.0000 152.4000 
11259136 410629.0000 3699480.0000 30899.1000 0.0000 61.7333 0.0000 1410216820.3676 300.0000 152.4000 
11259137 390130.0000 3709350.0000 10363.2000 2.6262 249.5060 0.0000 1410216820.3678 300.0000 152.4000 
11259138 420504.0000 3713890.0000 10972.8000 0.7854 254.6500 0.0000 1410216820.3679 300.0000 152.4000 
11259136 410693.0000 3699480.0000 30899.1000 0.0000 61.7333 0.0000 1410216821.3681 300.0000 152.4000 
11259137 389914.0000 3709480.0000 10363.2000 2.6262 249.5060 0.0000 1410216821.3682 300.0000 152.4000 
11259138 420687.0000 3714070.0000 10972.8000 0.7854 254.6500 0.0000 1410216821.3683 300.0000 152.4000 
11259136 410756.0000 3699480.0000 30899.1000 0.0000 61.7333 0.0000 1410216822.3684 300.0000 152.4000 
11259137 389699.0000 3709600.0000 10363.2000 2.6262 249.5060 0.0000 1410216822.3686 300.0000 152.4000 
11259138 420870.0000 3714250.0000 10972.8000 0.7854 254.6500 0.0000 1410216822.3686 300.0000 152.4000 
11259136 410820.0000 3699480.0000 30899.1000 0.0000 61.7333 0.0000 1410216823.3688 300.0000 152.4000 
11259137 389485.0000 3709720.0000 10363.2000 2.6262 249.5060 0.0000 1410216823.3690 300.0000 152.4000 
11259138 421052.0000 3714420.0000 10972.8000 0.7854 254.6500 0.0000 1410216823.3690 300.0000 152.4000 
11259136 410884.0000 3699480.0000 30899.1000 0.0000 61.7333 0.0000 1410216824.3693 300.0000 152.4000 
11259137 389268.0000 3709850.0000 10363.2000 2.6262 249.5060 0.0000 1410216824.3696 300.0000 152.4000 
11259138 421235.0000 3714600.0000 10972.8000 0.7854 254.6500 0.0000 1410216824.3696 300.0000 152.4000 
11259136 410948.0000 3699480.0000 30899.1000 0.0000 61.7333 0.0000 1410216825.3698 300.0000 152.4000 
11259137 389053.0000 3709970.0000 10363.2000 2.6262 249.5060 0.0000 1410216825.3699 300.0000 152.4000 
11259138 421418.0000 3714780.0000 10972.8000 0.7854 254.6500 0.0000 1410216825.3700 300.0000 152.4000 
11259136 411012.0000 3699480.0000 30899.1000 0.0000 61.7333 0.0000 1410216826.3702 300.0000 152.4000 
11259137 388837.0000 3710100.0000 10363.2000 2.6262 249.5060 0.0000 1410216826.3703 300.0000 152.4000 
11259138 421601.0000 3714950.0000 10972.8000 0.7854 254.6500 0.0000 1410216826.3704 300.0000 152.4000 
11259136 411076.0000 3699480.0000 30899.1000 0.0000 61.7333 0.0000 1410216827.3705 300.0000 152.4000 
11259137 388622.0000 3710220.0000 10363.2000 2.6262 249.5060 0.0000 1410216827.3707 300.0000 152.4000 
11259138 421783.0000 3715130.0000 10972.8000 0.7854 254.6500 0.0000 1410216827.3707 300.0000 152.4000 
11259136 411139.0000 3699480.0000 30899.1000 0.0000 61.7333 0.0000 1410216828.3709 300.0000 152.4000 
11259137 388408.0000 3710340.0000 10363.2000 2.6262 249.5060 0.0000 1410216828.3711 300.0000 152.4000 
11259138 421966.0000 3715310.0000 10972.8000 0.7854 254.6500 0.0000 1410216828.3711 300.0000 152.4000 
11259136 411203.0000 3699480.0000 30899.1000 0.0000 61.7333 0.0000 1410216829.3713 300.0000 152.4000 
11259137 388191.0000 3710470.0000 10363.2000 2.6262 249.5060 0.0000 1410216829.3714 300.0000 152.4000 
11259138 422149.0000 3715480.0000 10972.8000 0.7854 254.6500 0.0000 1410216829.3715 300.0000 152.4000 
11259136 411267.0000 3699480.0000 30899.1000 0.0000 61.7333 0.0000 1410216830.3717 300.0000 152.4000 
11259138 422331.0000 3715660.0000 10972.8000 0.7854 254.6500 0.0000 1410216830.3718 300.0000 152.4000 
11259136 411331.0000 3699480.0000 30899.1000 0.0000 61.7333 0.0000 1410216831.3726 300.0000 152.4000 
11259137 387760.0000 3710720.0000 10363.2000 2.6262 249.5060 0.0000 1410216831.3727 300.0000 152.4000 
11259138 422514.0000 3715840.0000 10972.8000 0.7854 254.6500 0.0000 1410216831.3728 300.0000 152.4000 
11259136 411395.0000 3699480.0000 30899.1000 0.0000 61.7333 0.0000 1410216832.3730 300.0000 152.4000 
11259137 387545.0000 3710840.0000 10363.2000 2.6262 249.5060 0.0000 1410216832.3732 300.0000 152.4000 
11259138 422697.0000 3716020.0000 10972.8000 0.7854 254.6500 0.0000 1410216832.3732 300.0000 152.4000 
11259136 411459.0000 3699480.0000 30899.1000 0.0000 61.7333 0.0000 1410216833.3738 300.0000 152.4000 
11259137 387331.0000 3710960.0000 10363.2000 2.6262 249.5060 0.0000 1410216833.3740 300.0000 152.4000 
11259138 422880.0000 3716190.0000 10972.8000 0.7854 254.6500 0.0000 1410216833.3740 300.0000 152.4000 
11259136 411522.0000 3699480.0000 30899.1000 0.0000 61.7333 0.0000 1410216834.3742 300.0000 152.4000 
11259137 387115.0000 3711090.0000 10363.2000 2.6262 249.5060 0.0000 1410216834.3744 300.0000 152.4000 
11259138 423062.0000 3716370.0000 10972.8000 0.7854 254.6500 0.0000 1410216834.3745 300.0000 152.4000 
11259136 411586.0000 3699470.0000 30899.1000 0.0000 61.7333 0.0000 1410216835.3746 300.0000 152.4000 
11259137 386899.0000 3711210.0000 10363.2000 2.6262 249.5060 0.0000 1410216835.3748 300.0000 152.4000 
11259136 411650.0000 3699470.0000 30899.1000 0.0000 61.7333 0.0000 1410216836.3750 300.0000 152.4000 
11259137 386683.0000 3711330.0000 10363.2000 2.6262 249.5060 0.0000 1410216836.3752 300.0000 152.4000 
11259138 423428.0000 3716720.0000 10972.8000 0.7854 254.6500 0.0000 1410216836.3752 300.0000 152.4000 
11259136 411714.0000 3699470.0000 30899.1000 0.0000 61.7333 0.0000 1410216837.3754 300.0000 152.4000 
11259137 386468.0000 3711460.0000 10363.2000 2.6262 249.5060 0.0000 1410216837.3756 300.0000 152.4000 
11259138 423610.0000 3716900.0000 10972.8000 0.7854 254.6500 0.0000 1410216837.3756 300.0000 152.4000 
11259136 411778.0000 3699470.0000 30899.1000 0.0000 61.7333 0.0000 1410216838.3758 300.0000 152.4000 
11259137 386254.0000 3711580.0000 10363.2000 2.6262 249.5060 0.0000 1410216838.3759 300.0000 152.4000 
11259138 423792.0000 3717080.0000 10972.8000 0.7854 254.6500 0.0000 1410216838.3760 300.0000 152.4000 
11259136 411842.0000 3699470.0000 30899.1000 0.0000 61.7333 0.0000 1410216839.3761 300.0000 152.4000 
11259137 386038.0000 3711710.0000 10363.2000 2.6262 249.5060 0.0000 1410216839.3763 300.0000 152.4000 
11259138 423975.0000 3717250.0000 10972.8000 0.7854 254.6500 0.0000 1410216839.3764 300.0000 152.4000 
11259136 411905.0000 3699470.0000 30899.1000 0.0000 61.7333 0.0000 1410216840.3773 300.0000 152.4000 
11259137 385822.0000 3711830.0000 10363.2000 2.6262 249.5060 0.0000 1410216840.3775 300.0000 152.4000 
11259138 424157.0000 3717430.0000 10972.8000 0.7854 254.6500 0.0000 1410216840.3775 300.0000 152.4000 
11259136 411969.0000 3699470.0000 30899.1000 0.0000 61.7333 0.0000 1410216841.3777 300.0000 152.4000 
11259137 385606.0000 3711950.0000 10363.2000 2.6262 249.5060 0.0000 1410216841.3779 300.0000 152.4000 
11259138 424340.0000 3717610.0000 10972.8000 0.7854 254.6500 0.0000 1410216841.3779 300.0000 152.4000 
11259136 412033.0000 3699470.0000 30899.1000 0.0000 61.7333 0.0000 1410216842.3781 300.0000 152.4000 
11259137 385391.0000 3712080.0000 10363.2000 2.6262 249.5060 0.0000 1410216842.3782 300.0000 152.4000 
11259138 424523.0000 3717790.0000 10972.8000 0.7854 254.6500 0.0000 1410216842.3783 300.0000 152.4000 
11259136 412097.0000 3699470.0000 30899.1000 0.0000 61.7333 0.0000 1410216843.3785 300.0000 152.4000 
11259137 385177.0000 3712200.0000 10363.2000 2.6262 249.5060 0.0000 1410216843.3787 300.0000 152.4000 
11259136 412161.0000 3699470.0000 30899.1000 0.0000 61.7333 0.0000 1410216844.3788 300.0000 152.4000 
11259137 384961.0000 3712330.0000 10363.2000 2.6262 249.5060 0.0000 1410216844.3790 300.0000 152.4000 
11259136 412225.0000 3699470.0000 30899.1000 0.0000 61.7333 0.0000 1410216845.3811 300.0000 152.4000 
11259137 384746.0000 3712450.0000 10363.2000 2.6262 249.5060 0.0000 1410216845.3813 300.0000 152.4000 
11259136 412288.0000 3699470.0000 30899.1000 0.0000 61.7333 0.0000 1410216846.3815 300.0000 152.4000 
11259137 384530.0000 3712570.0000 10363.2000 2.6262 249.5060 0.0000 1410216846.3817 300.0000 152.4000 
11259136 412352.0000 3699470.0000 30899.1000 0.0000 61.7333 0.0000 1410216847.3819 300.0000 152.4000 
11259137 384315.0000 3712700.0000 10363.2000 2.6262 249.5060 0.0000 1410216847.3820 300.0000 152.4000 
11259136 412416.0000 3699470.0000 30899.1000 0.0000 61.7333 0.0000 1410216848.3822 300.0000 152.4000 
11259137 384101.0000 3712820.0000 10363.2000 2.6262 249.5060 0.0000 1410216848.3824 300.0000 152.4000 
11259138 425618.0000 3718850.0000 10972.8000 0.7854 254.6500 0.0000 1410216848.3824 300.0000 152.4000 
11259136 412480.0000 3699470.0000 30899.1000 0.0000 61.7333 0.0000 1410216849.3826 300.0000 152.4000 
11259137 383885.0000 3712950.0000 10363.2000 2.6262 249.5060 0.0000 1410216849.3828 300.0000 152.4000 
11259138 425801.0000 3719020.0000 10972.8000 0.7854 254.6500 0.0000 1410216849.3829 300.0000 152.4000 
11259136 412544.0000 3699470.0000 30899.1000 0.0000 61.7333 0.0000 1410216850.3830 300.0000 152.4000 
11259137 383669.0000 3713070.0000 10363.2000 2.6262 249.5060 0.0000 1410216850.3833 300.0000 152.4000 
11259138 425983.0000 3719200.0000 10972.8000 0.7854 254.6500 0.0000 1410216850.3833 300.0000 152.4000 
11259136 412608.0000 3699470.0000 30899.1000 0.0000 61.7333 0.0000 1410216851.3835 300.0000 152.4000 
11259137 383453.0000 3713190.0000 10363.2000 2.6262 249.5060 0.0000 1410216851.3836 300.0000 152.4000 
11259138 426166.0000 3719380.0000 10972.8000 0.7854 254.6500 0.0000 1410216851.3837 300.0000 152.4000 
11259136 412671.0000 3699460.0000 30899.1000 0.0000 61.7333 0.0000 1410216852.3849 300.0000 152.4000 
11259137 383238.0000 3713320.0000 10363.2000 2.6262 249.5060 0.0000 1410216852.3851 300.0000 152.4000 
11259138 426348.0000 3719560.0000 10972.8000 0.7854 254.6500 0.0000 1410216852.3852 300.0000 152.4000 
11259136 412735.0000 3699460.0000 30899.1000 0.0000 61.7333 0.0000 1410216853.3853 300.0000 152.4000 
11259137 383024.0000 3713440.0000 10363.2000 2.6262 249.5060 0.0000 1410216853.3855 300.0000 152.4000 
11259138 426530.0000 3719730.0000 10972.8000 0.7854 254.6500 0.0000 1410216853.3855 300.0000 152.4000 
11259136 412799.0000 3699460.0000 30899.1000 0.0000 61.7333 0.0000 1410216854.3857 300.0000 152.4000 
11259137 382808.0000 3713570.0000 10363.2000 2.6262 249.5060 0.0000 1410216854.3859 300.0000 152.4000 
11259138 426713.0000 3719910.0000 10972.8000 0.7854 254.6500 0.0000 1410216854.3859 300.0000 152.4000 
11259136 412863.0000 3699460.0000 30899.1000 0.0000 61.7333 0.0000 1410216855.3861 300.0000 152.4000 
11259137 382593.0000 3713690.0000 10363.2000 2.6262 249.5060 0.0000 1410216855.3863 300.0000 152.4000 
11259138 426896.0000 3720090.0000 10972.8000 0.7854 254.6500 0.0000 1410216855.3863 300.0000 152.4000 
11259136 412927.0000 3699460.0000 30899.1000 0.0000 61.7333 0.0000 1410216856.3865 300.0000 152.4000 
11259137 382377.0000 3713810.0000 10363.2000 2.6262 249.5060 0.0000 1410216856.3867 300.0000 152.4000 
11259138 427078.0000 3720260.0000 10972.8000 0.7854 254.6500 0.0000 1410216856.3867 300.0000 152.4000 
11259136 412991.0000 3699460.0000 30899.1000 0.0000 61.7333 0.0000 1410216857.3869 300.0000 152.4000 
11259137 382162.0000 3713940.0000 10363.2000 2.6262 249.5060 0.0000 1410216857.3871 300.0000 152.4000 
11259138 427261.0000 3720440.0000 10972.8000 0.7854 254.6500 0.0000 1410216857.3871 300.0000 152.4000 
11259136 413054.0000 3699460.0000 30899.1000 0.0000 61.7333 0.0000 1410216858.3883 300.0000 152.4000 
11259137 381948.0000 3714060.0000 10363.2000 2.6262 249.5060 0.0000 1410216858.3884 300.0000 152.4000 
11259138 427443.0000 3720620.0000 10972.8000 0.7854 254.6500 0.0000 1410216858.3885 300.0000 152.4000 
11259136 413118.0000 3699460.0000 30899.1000 0.0000 61.7333 0.0000 1410216859.3887 300.0000 152.4000 
11259137 381732.0000 3714190.0000 10363.2000 2.6262 249.5060 0.0000 1410216859.3888 300.0000 152.4000 
11259138 427626.0000 3720790.0000 10972.8000 0.7854 254.6500 0.0000 1410216859.3889 300.0000 152.4000 
11259136 413182.0000 3699460.0000 30899.1000 0.0000 61.7333 0.0000 1410216860.3891 300.0000 152.4000 
11259137 381517.0000 3714310.0000 10363.2000 2.6262 249.5060 0.0000 1410216860.3893 300.0000 152.4000 
11259138 427808.0000 3720970.0000 10972.8000 0.7854 254.6500 0.0000 1410216860.3893 300.0000 152.4000 
11259136 413246.0000 3699460.0000 30899.1000 0.0000 61.7333 0.0000 1410216861.3895 300.0000 152.4000 
11259137 381301.0000 3714430.0000 10363.2000 2.6262 249.5060 0.0000 1410216861.3897 300.0000 152.4000 
11259138 427991.0000 3721150.0000 10972.8000 0.7854 254.6500 0.0000 1410216861.3898 300.0000 152.4000 
11259136 413310.0000 3699460.0000 30899.1000 0.0000 61.7333 0.0000 1410216862.3899 300.0000 152.4000 
11259137 381086.0000 3714560.0000 10363.2000 2.6262 249.5060 0.0000 1410216862.3901 300.0000 152.4000 
11259138 428173.0000 3721330.0000 10972.8000 0.7854 254.6500 0.0000 1410216862.3902 300.0000 152.4000 
11259136 413437.0000 3699460.0000 30899.1000 0.0000 61.7333 0.0000 1410216863.3903 300.0000 152.4000 
11259137 380656.0000 3714810.0000 10363.2000 2.6262 249.5060 0.0000 1410216863.3905 300.0000 152.4000 
11259138 428538.0000 3721680.0000 10972.8000 0.7854 254.6500 0.0000 1410216863.3906 300.0000 152.4000 
11259136 413501.0000 3699460.0000 30899.1000 0.0000 61.7333 0.0000 1410216864.3907 300.0000 152.4000 
11259137 380441.0000 3714930.0000 10363.2000 2.6262 249.5060 0.0000 1410216864.3909 300.0000 152.4000 
11259138 428721.0000 3721860.0000 10972.8000 0.7854 254.6500 0.0000 1410216864.3910 300.0000 152.4000 
11259136 413565.0000 3699460.0000 30899.1000 0.0000 61.7333 0.0000 1410216865.3911 300.0000 152.4000 
11259137 380225.0000 3715050.0000 10363.2000 2.6262 249.5060 0.0000 1410216865.3913 300.0000 152.4000 
11259138 428903.0000 3722030.0000 10972.8000 0.7854 254.6500 0.0000 1410216865.3913 300.0000 152.4000 
11259136 413629.0000 3699460.0000 30899.1000 0.0000 61.7333 0.0000 1410216866.3915 300.0000 152.4000 
11259137 380010.0000 3715180.0000 10363.2000 2.6262 249.5060 0.0000 1410216866.3916 300.0000 152.4000 
11259138 429085.0000 3722210.0000 10972.8000 0.7854 254.6500 0.0000 1410216866.3917 300.0000 152.4000 
11259136 413693.0000 3699460.0000 30899.1000 0.0000 61.7333 0.0000 1410216867.3918 300.0000 152.4000 
11259137 379796.0000 3715300.0000 10363.2000 2.6262 249.5060 0.0000 1410216867.3920 300.0000 152.4000 
11259138 429268.0000 3722390.0000 10972.8000 0.7854 254.6500 0.0000 1410216867.3921 300.0000 152.4000 
11259136 413757.0000 3699460.0000 30899.1000 0.0000 61.7333 0.0000 1410216868.3922 300.0000 152.4000 
11259137 379580.0000 3715430.0000 10363.2000 2.6262 249.5060 0.0000 1410216868.3924 300.0000 152.4000 
11259138 429450.0000 3722570.0000 10972.8000 0.7854 254.6500 0.0000 1410216868.3925 300.0000 152.4000 
11259136 413820.0000 3699450.0000 30899.1000 0.0000 61.7333 0.0000 1410216869.3927 300.0000 152.4000 
11259137 379365.0000 3715550.0000 10363.2000 2.6262 249.5060 0.0000 1410216869.3928 300.0000 152.4000 
11259138 429632.0000 3722740.0000 10972.8000 0.7854 254.6500 0.0000 1410216869.3929 300.0000 152.4000 
11259136 413884.0000 3699450.0000 30899.1000 0.0000 61.7333 0.0000 1410216870.3931 300.0000 152.4000 
11259137 379149.0000 3715670.0000 10363.2000 2.6262 249.5060 0.0000 1410216870.3932 300.0000 152.4000 
11259138 429815.0000 3722920.0000 10972.8000 0.7854 254.6500 0.0000 1410216870.3933 300.0000 152.4000 
11259136 413948.0000 3699450.0000 30899.1000 0.0000 61.7333 0.0000 1410216871.3935 300.0000 152.4000 
11259137 378934.0000 3715800.0000 10363.2000 2.6262 249.5060 0.0000 1410216871.3936 300.0000 152.4000 
11259138 429997.0000 3723100.0000 10972.8000 0.7854 254.6500 0.0000 1410216871.3937 300.0000 152.4000 
11259136 414012.0000 3699450.0000 30899.1000 0.0000 61.7333 0.0000 1410216872.3939 300.0000 152.4000 
11259137 378720.0000 3715920.0000 10363.2000 2.6262 249.5060 0.0000 1410216872.3940 300.0000 152.4000 
11259138 430179.0000 3723270.0000 10972.8000 0.7854 254.6500 0.0000 1410216872.3941 300.0000 152.4000 
11259136 414076.0000 3699450.0000 30899.1000 0.0000 61.7333 0.0000 1410216873.3942 300.0000 152.4000 
11259137 378504.0000 3716050.0000 10363.2000 2.6262 249.5060 0.0000 1410216873.3944 300.0000 152.4000 
11259138 430362.0000 3723450.0000 10972.8000 0.7854 254.6500 0.0000 1410216873.3944 300.0000 152.4000 
11259136 414140.0000 3699450.0000 30899.1000 0.0000 61.7333 0.0000 1410216874.3946 300.0000 152.4000 
11259137 378289.0000 3716170.0000 10363.2000 2.6262 249.5060 0.0000 1410216874.3948 300.0000 152.4000 
11259138 430544.0000 3723630.0000 10972.8000 0.7854 254.6500 0.0000 1410216874.3948 300.0000 152.4000 
11259136 414203.0000 3699450.0000 30899.1000 0.0000 61.7333 0.0000 1410216875.3950 300.0000 152.4000 
11259137 378073.0000 3716290.0000 10363.2000 2.6262 249.5060 0.0000 1410216875.3952 300.0000 152.4000 
11259138 430727.0000 3723810.0000 10972.8000 0.7854 254.6500 0.0000 1410216875.3952 300.0000 152.4000 
11259136 414267.0000 3699450.0000 30899.1000 0.0000 61.7333 0.0000 1410216876.3954 300.0000 152.4000 
11259137 377858.0000 3716420.0000 10363.2000 2.6262 249.5060 0.0000 1410216876.3956 300.0000 152.4000 
11259138 430909.0000 3723980.0000 10972.8000 0.7854 254.6500 0.0000 1410216876.3956 300.0000 152.4000 
11259136 414331.0000 3699450.0000 30899.1000 0.0000 61.7333 0.0000 1410216877.3958 300.0000 152.4000 
11259137 377645.0000 3716540.0000 10363.2000 2.6262 249.5060 0.0000 1410216877.3960 300.0000 152.4000 
11259138 431091.0000 3724160.0000 10972.8000 0.7854 254.6500 0.0000 1410216877.3960 300.0000 152.4000 
11259136 414395.0000 3699450.0000 30899.1000 0.0000 61.7333 0.0000 1410216878.3962 300.0000 152.4000 
11259137 377429.0000 3716670.0000 10363.2000 2.6262 249.5060 0.0000 1410216878.3964 300.0000 152.4000 
11259138 431274.0000 3724340.0000 10972.8000 0.7854 254.6500 0.0000 1410216878.3964 300.0000 152.4000 
11259136 414459.0000 3699450.0000 30899.1000 0.0000 61.7333 0.0000 1410216879.3966 300.0000 152.4000 
11259137 377214.0000 3716790.0000 10363.2000 2.6262 249.5060 0.0000 1410216879.3967 300.0000 152.4000 
11259138 431456.0000 3724510.0000 10972.8000 0.7854 254.6500 0.0000 1410216879.3968 300.0000 152.4000 
11259136 414523.0000 3699450.0000 30899.1000 0.0000 61.7333 0.0000 1410216880.3969 300.0000 152.4000 
11259137 376998.0000 3716910.0000 10363.2000 2.6262 249.5060 0.0000 1410216880.3972 300.0000 152.4000 
11259138 431639.0000 3724690.0000 10972.8000 0.7854 254.6500 0.0000 1410216880.3972 300.0000 152.4000 
11259136 414586.0000 3699450.0000 30899.1000 0.0000 61.7333 0.0000 1410216881.3974 300.0000 152.4000 
11259137 376783.0000 3717040.0000 10363.2000 2.6262 249.5060 0.0000 1410216881.3976 300.0000 152.4000 
11259138 431821.0000 3724870.0000 10972.8000 0.7854 254.6500 0.0000 1410216881.3976 300.0000 152.4000 
11259136 414650.0000 3699450.0000 30899.1000 0.0000 61.7333 0.0000 1410216882.3978 300.0000 152.4000 
11259137 376569.0000 3717160.0000 10363.2000 2.6262 249.5060 0.0000 1410216882.3980 300.0000 152.4000 
11259138 432003.0000 3725050.0000 10972.8000 0.7854 254.6500 0.0000 1410216882.3980 300.0000 152.4000 
11259136 414714.0000 3699450.0000 30899.1000 0.0000 61.7333 0.0000 1410216883.3982 300.0000 152.4000 
11259137 376353.0000 3717290.0000 10363.2000 2.6262 249.5060 0.0000 1410216883.3983 300.0000 152.4000 
11259138 432185.0000 3725220.0000 10972.8000 0.7854 254.6500 0.0000 1410216883.3984 300.0000 152.4000 
11259136 414778.0000 3699450.0000 30899.1000 0.0000 61.7333 0.0000 1410216884.3985 300.0000 152.4000 
11259138 432367.0000 3725400.0000 10972.8000 0.7854 254.6500 0.0000 1410216884.3987 300.0000 152.4000 
11259136 414842.0000 3699450.0000 30899.1000 0.0000 61.7333 0.0000 1410216885.3989 300.0000 152.4000 
11259137 375922.0000 3717540.0000 10363.2000 2.6262 249.5060 0.0000 1410216885.3990 300.0000 152.4000 
11259138 432550.0000 3725580.0000 10972.8000 0.7854 254.6500 0.0000 1410216885.3991 300.0000 152.4000 
11259136 414906.0000 3699450.0000 30899.1000 0.0000 61.7333 0.0000 1410216886.3993 300.0000 152.4000 
11259137 375707.0000 3717660.0000 10363.2000 2.6262 249.5060 0.0000 1410216886.3995 300.0000 152.4000 
11259138 432732.0000 3725750.0000 10972.8000 0.7854 254.6500 0.0000 1410216886.3995 300.0000 152.4000 
11259136 414969.0000 3699440.0000 30899.1000 0.0000 61.7333 0.0000 1410216887.4012 300.0000 152.4000 
11259137 375494.0000 3717780.0000 10363.2000 2.6262 249.5060 0.0000 1410216887.4013 300.0000 152.4000 
11259138 432914.0000 3725930.0000 10972.8000 0.7854 254.6500 0.0000 1410216887.4014 300.0000 152.4000 
11259136 415033.0000 3699440.0000 30899.1000 0.0000 61.7333 0.0000 1410216888.4020 300.0000 152.4000 
11259137 375278.0000 3717910.0000 10363.2000 2.6262 249.5060 0.0000 1410216888.4022 300.0000 152.4000 
11259138 433096.0000 3726110.0000 10972.8000 0.7854 254.6500 0.0000 1410216888.4022 300.0000 152.4000 
11259136 415097.0000 3699440.0000 30899.1000 0.0000 61.7333 0.0000 1410216889.4024 300.0000 152.4000 
11259137 375063.0000 3718030.0000 10363.2000 2.6262 249.5060 0.0000 1410216889.4025 300.0000 152.4000 
11259138 433279.0000 3726290.0000 10972.8000 0.7854 254.6500 0.0000 1410216889.4026 300.0000 152.4000 
11259136 415161.0000 3699440.0000 30899.1000 0.0000 61.7333 0.0000 1410216890.4028 300.0000 152.4000 
11259137 374847.0000 3718160.0000 10363.2000 2.6262 249.5060 0.0000 1410216890.4029 300.0000 152.4000 
11259138 433461.0000 3726460.0000 10972.8000 0.7854 254.6500 0.0000 1410216890.4030 300.0000 152.4000 
11259136 415225.0000 3699440.0000 30899.1000 0.0000 61.7333 0.0000 1410216891.4031 300.0000 152.4000 
11259137 374632.0000 3718280.0000 10363.2000 2.6262 249.5060 0.0000 1410216891.4033 300.0000 152.4000 
11259138 433643.0000 3726640.0000 10972.8000 0.7854 254.6500 0.0000 1410216891.4034 300.0000 152.4000 
11259136 415289.0000 3699440.0000 30899.1000 0.0000 61.7333 0.0000 1410216892.4035 300.0000 152.4000 
11259137 374418.0000 3718400.0000 10363.2000 2.6262 249.5060 0.0000 1410216892.4037 300.0000 152.4000 
11259138 433826.0000 3726820.0000 10972.8000 0.7854 254.6500 0.0000 1410216892.4038 300.0000 152.4000 
11259136 415352.0000 3699440.0000 30899.1000 0.0000 61.7333 0.0000 1410216893.4039 300.0000 152.4000 
11259137 374203.0000 3718530.0000 10363.2000 2.6262 249.5060 0.0000 1410216893.4041 300.0000 152.4000 
11259138 434008.0000 3726990.0000 10972.8000 0.7854 254.6500 0.0000 1410216893.4042 300.0000 152.4000 
11259136 415416.0000 3699440.0000 30899.1000 0.0000 61.7333 0.0000 1410216894.4045 300.0000 152.4000 
11259137 373988.0000 3718650.0000 10363.2000 2.6262 249.5060 0.0000 1410216894.4046 300.0000 152.4000 
11259138 434190.0000 3727170.0000 10972.8000 0.7854 254.6500 0.0000 1410216894.4047 300.0000 152.4000 
11259136 415480.0000 3699440.0000 30899.1000 0.0000 61.7333 0.0000 1410216895.4048 300.0000 152.4000 
11259137 373772.0000 3718780.0000 10363.2000 2.6262 249.5060 0.0000 1410216895.4050 300.0000 152.4000 
11259138 434372.0000 3727350.0000 10972.8000 0.7854 254.6500 0.0000 1410216895.4051 300.0000 152.4000 
11259136 415544.0000 3699440.0000 30899.1000 0.0000 61.7333 0.0000 1410216896.4052 300.0000 152.4000 
11259137 373557.0000 3718900.0000 10363.2000 2.6262 249.5060 0.0000 1410216896.4054 300.0000 152.4000 
11259138 434555.0000 3727530.0000 10972.8000 0.7854 254.6500 0.0000 1410216896.4055 300.0000 152.4000 
11259136 415608.0000 3699440.0000 30899.1000 0.0000 61.7333 0.0000 1410216897.4056 300.0000 152.4000 
11259137 373343.0000 3719030.0000 10363.2000 2.6262 249.5060 0.0000 1410216897.4058 300.0000 152.4000 
11259138 434737.0000 3727700.0000 10972.8000 0.7854 254.6500 0.0000 1410216897.4058 300.0000 152.4000 
11259136 415672.0000 3699440.0000 30899.1000 0.0000 61.7333 0.0000 1410216898.4063 300.0000 152.4000 
11259137 373127.0000 3719150.0000 10363.2000 2.6262 249.5060 0.0000 1410216898.4064 300.0000 152.4000 
11259138 434919.0000 3727880.0000 10972.8000 0.7854 254.6500 0.0000 1410216898.4065 300.0000 152.4000 
11259136 415735.0000 3699440.0000 30899.1000 0.0000 61.7333 0.0000 1410216899.4067 300.0000 152.4000 
11259137 372912.0000 3719270.0000 10363.2000 2.6262 249.5060 0.0000 1410216899.4069 300.0000 152.4000 
11259138 435101.0000 3728060.0000 10972.8000 0.7854 254.6500 0.0000 1410216899.4070 300.0000 152.4000 
11259136 415799.0000 3699440.0000 30899.1000 0.0000 61.7333 0.0000 1410216900.4071 300.0000 152.4000 
11259137 372697.0000 3719400.0000 10363.2000 2.6262 249.5060 0.0000 1410216900.4073 300.0000 152.4000 
11259138 435283.0000 3728230.0000 10972.8000 0.7854 254.6500 0.0000 1410216900.4073 300.0000 152.4000 
11259136 415863.0000 3699440.0000 30899.1000 0.0000 61.7333 0.0000 1410216901.4075 300.0000 152.4000 
11259137 372482.0000 3719520.0000 10363.2000 2.6262 249.5060 0.0000 1410216901.4076 300.0000 152.4000 
11259138 435465.0000 3728410.0000 10972.8000 0.7854 254.6500 0.0000 1410216901.4077 300.0000 152.4000 
11259136 415927.0000 3699440.0000 30899.1000 0.0000 61.7333 0.0000 1410216902.4079 300.0000 152.4000 
11259137 372268.0000 3719650.0000 10363.2000 2.6262 249.5060 0.0000 1410216902.4082 300.0000 152.4000 
11259138 435647.0000 3728590.0000 10972.8000 0.7854 254.6500 0.0000 1410216902.4083 300.0000 152.4000 
11259136 415991.0000 3699440.0000 30899.1000 0.0000 61.7333 0.0000 1410216903.4085 300.0000 152.4000 
11259137 372052.0000 3719770.0000 10363.2000 2.6262 249.5060 0.0000 1410216903.4086 300.0000 152.4000 
11259138 435830.0000 3728770.0000 10972.8000 0.7854 254.6500 0.0000 1410216903.4087 300.0000 152.4000 
11259136 416055.0000 3699440.0000 30899.1000 0.0000 61.7333 0.0000 1410216904.4089 300.0000 152.4000 
11259137 371837.0000 3719900.0000 10363.2000 2.6262 249.5060 0.0000 1410216904.4091 300.0000 152.4000 
11259138 436012.0000 3728940.0000 10972.8000 0.7854 254.6500 0.0000 1410216904.4091 300.0000 152.4000 
11259136 416118.0000 3699430.0000 30899.1000 0.0000 61.7333 0.0000 1410216905.4098 300.0000 152.4000 
11259137 371622.0000 3720020.0000 10363.2000 2.6262 249.5060 0.0000 1410216905.4099 300.0000 152.4000 
11259138 436194.0000 3729120.0000 10972.8000 0.7854 254.6500 0.0000 1410216905.4100 300.0000 152.4000 
11259136 416182.0000 3699430.0000 30899.1000 0.0000 61.7333 0.0000 1410216906.4101 300.0000 152.4000 
11259137 371407.0000 3720140.0000 10363.2000 2.6262 249.5060 0.0000 1410216906.4103 300.0000 152.4000 
11259138 436376.0000 3729300.0000 10972.8000 0.7854 254.6500 0.0000 1410216906.4103 300.0000 152.4000 
11259136 416246.0000 3699430.0000 30899.1000 0.0000 61.7333 0.0000 1410216907.4105 300.0000 152.4000 
11259137 371193.0000 3720270.0000 10363.2000 2.6262 249.5060 0.0000 1410216907.4106 300.0000 152.4000 
11259138 436558.0000 3729480.0000 10972.8000 0.7854 254.6500 0.0000 1410216907.4107 300.0000 152.4000 
11259136 416310.0000 3699430.0000 30899.1000 0.0000 61.7333 0.0000 1410216908.4108 300.0000 152.4000 
11259137 370978.0000 3720390.0000 10363.2000 2.6262 249.5060 0.0000 1410216908.4110 300.0000 152.4000 
11259138 436741.0000 3729650.0000 10972.8000 0.7854 254.6500 0.0000 1410216908.4110 300.0000 152.4000 
11259136 416374.0000 3699430.0000 30899.1000 0.0000 61.7333 0.0000 1410216909.4112 300.0000 152.4000 
11259137 370763.0000 3720520.0000 10363.2000 2.6262 249.5060 0.0000 1410216909.4114 300.0000 152.4000 
11259138 436923.0000 3729830.0000 10972.8000 0.7854 254.6500 0.0000 1410216909.4115 300.0000 152.4000 
11259136 416438.0000 3699430.0000 30899.1000 0.0000 61.7333 0.0000 1410216910.4116 300.0000 152.4000 
11259137 370547.0000 3720640.0000 10363.2000 2.6262 249.5060 0.0000 1410216910.4118 300.0000 152.4000 
11259138 437105.0000 3730010.0000 10972.8000 0.7854 254.6500 0.0000 1410216910.4119 300.0000 152.4000 
11259136 416501.0000 3699430.0000 30899.1000 0.0000 61.7333 0.0000 1410216911.4122 300.0000 152.4000 
11259137 370332.0000 3720760.0000 10363.2000 2.6262 249.5060 0.0000 1410216911.4124 300.0000 152.4000 
11259138 437287.0000 3730180.0000 10972.8000 0.7854 254.6500 0.0000 1410216911.4125 300.0000 152.4000 
11259136 416565.0000 3699430.0000 30899.1000 0.0000 61.7333 0.0000 1410216912.4127 300.0000 152.4000 
11259137 370119.0000 3720890.0000 10363.2000 2.6262 249.5060 0.0000 1410216912.4128 300.0000 152.4000 
11259138 437469.0000 3730360.0000 10972.8000 0.7854 254.6500 0.0000 1410216912.4129 300.0000 152.4000 
11259136 416629.0000 3699430.0000 30899.1000 0.0000 61.7333 0.0000 1410216913.4130 300.0000 152.4000 
11259137 369903.0000 3721010.0000 10363.2000 2.6262 249.5060 0.0000 1410216913.4132 300.0000 152.4000 
11259138 437651.0000 3730540.0000 10972.8000 0.7854 254.6500 0.0000 1410216913.4133 300.0000 152.4000 
11259136 416693.0000 3699430.0000 30899.1000 0.0000 61.7333 0.0000 1410216914.4134 300.0000 152.4000 
11259137 369688.0000 3721140.0000 10363.2000 2.6262 249.5060 0.0000 1410216914.4136 300.0000 152.4000 
11259138 437833.0000 3730720.0000 10972.8000 0.7854 254.6500 0.0000 1410216914.4136 300.0000 152.4000 
11259136 416757.0000 3699430.0000 30899.1000 0.0000 61.7333 0.0000 1410216915.4138 300.0000 152.4000 
11259137 369472.0000 3721260.0000 10363.2000 2.6262 249.5060 0.0000 1410216915.4140 300.0000 152.4000 
11259138 438015.0000 3730890.0000 10972.8000 0.7854 254.6500 0.0000 1410216915.4140 300.0000 152.4000 
11259136 416821.0000 3699430.0000 30899.1000 0.0000 61.7333 0.0000 1410216916.4142 300.0000 152.4000 
11259137 369257.0000 3721390.0000 10363.2000 2.6262 249.5060 0.0000 1410216916.4144 300.0000 152.4000 
11259138 438197.0000 3731070.0000 10972.8000 0.7854 254.6500 0.0000 1410216916.4144 300.0000 152.4000 
11259136 416884.0000 3699430.0000 30899.1000 0.0000 61.7333 0.0000 1410216917.4146 300.0000 152.4000 
11259137 369044.0000 3721510.0000 10363.2000 2.6262 249.5060 0.0000 1410216917.4148 300.0000 152.4000 
11259138 438379.0000 3731250.0000 10972.8000 0.7854 254.6500 0.0000 1410216917.4148 300.0000 152.4000 
11259136 416948.0000 3699430.0000 30899.1000 0.0000 61.7333 0.0000 1410216918.4150 300.0000 152.4000 
11259137 368828.0000 3721630.0000 10363.2000 2.6262 249.5060 0.0000 1410216918.4152 300.0000 152.4000 
11259138 438561.0000 3731430.0000 10972.8000 0.7854 254.6500 0.0000 1410216918.4152 300.0000 152.4000 
11259136 417012.0000 3699430.0000 30899.1000 0.0000 61.7333 0.0000 1410216919.4154 300.0000 152.4000 
11259137 368613.0000 3721760.0000 10363.2000 2.6262 249.5060 0.0000 1410216919.4156 300.0000 152.4000 
11259138 438743.0000 3731600.0000 10972.8000 0.7854 254.6500 0.0000 1410216919.4157 300.0000 152.4000 
