2:
10734770:(150.757,134.03,201.722)
10942331:(588.071,8.94995,588.139)

10734770:(1217.17,31.29,1217.57)
10934723:(269.42,133.54,300.699)

10734770:(495.846,55.37,498.928)
10942331:(1567.6,22.69,1567.77)

10734770:(255.546,1.31,255.549)
10942331:(218.226,3.25,218.25)

10734770:(49.8277,10.43,50.9077)
10942331:(101.688,89.4,135.399)

10934723:(12.8151,5.13,13.8038)
10942331:(101.01,144.14,176.01)

10934723:(500.748,173.64,529.999)
10942331:(1840.1,43.16,1840.6)

10734770:(505.041,54.18,507.939)
10942331:(1698.21,8.92999,1698.23)

10934723:(105.636,75.83,130.035)
10942331:(453.163,27.71,454.009)

10734770:(624.509,24.76,624.999)
10942331:(2211.74,34.44,2212.01)

10734770:(58.2248,18.71,61.1571) 
10934723:(783.051,105.52,790.129)

10934723:(36.7657,54.45,65.7002)
10942331:(45.1719,115.31,123.842)

10734770:(421.897,44.19,424.205)
10934723:(122.948,62.95,138.126)

10734770:(428.43,4.62994,428.455)
10934723:(786.601,103.21,793.343)

10934723:(34.5789,68.66,76.8758)
10942331:(1384.76,7.88995,1384.79)

10734770:(1538.67,81,1540.8)
10942331:(1153.87,32.4225,1154.33)

10934723:(120.564,103.8,159.092)
10942331:(27.486,60.08,66.0688)

10734770:(1027.28,176.18,1042.28)
10942331:(1099.64,113.72,1105.5)

10734770:(11.2192,62.42,63.4202)
10942331:(102.602,64.6,121.245)

10734770:(677.174,41.49,678.444)
10942331:(467.364,3.85004,467.38)

10734770:(59.2734,6.73004,59.6542)
10942331:(1453.51,28.16,1453.78)

1:
10934723:(225,102.906,247.416)
10942331:(1169.84,18.395,1169.98)
10942331:(112.563,80.23,138.229)
10942331:(681.833,90.835,687.857)
10934723:(15.6075,60.3262,62.3125)
10934723:(804.776,116.83,813.212)
10734770:(69.2893,165.19,179.133)
10934723:(143.395,76.67,162.605)
10934723:(78.6888,97.5099,125.3)
10734770:(648.343,35.16,649.296)
10734770:(645.492,23.5,645.919)
10934723:(590.177,145.57,607.865)
10734770:(1171.23,99.676,1175.47)
10934723:(139.058,108.58,176.428)
10934723:(296.927,119.3,319.997)
10934723:(292.19,129.52,319.61)
10934723:(375.459,110.28,391.319)
10942331:(1139.82,1.87,1139.83)
10734770:(45.5935,85.35,96.7646)
10942331:(98.2526,35.46,104.456)
10734770:(842.336,13.3,842.441)

3:
10734770:(1203.47,87.51,1206.65)
10934723:(643.706,131.15,656.93)
10942331:(866.461,6.50995,866.486)

10734770:(1480.99,129.52,1486.64)
10934723:(715.256,108.54,723.444)
10942331:(2160.36,15.67,2160.42)

10734770:(1087.55,20.55,1087.74)
10934723:(130.97,102.63,166.391)
10942331:(1464.49,51.03,1465.38)

10734770:(1038.36,41.63,1039.19)
10934723:(299.742,126.8,325.459)
10942331:(1040.4,19.2,1040.57)

10734770:(66.1288,81.93,105.288)
10934723:(29.0774,26.64,39.4358)
10942331:(1613.51,25.95,1613.72)

10734770:(390.279,193.04,435.411)
10934723:(693.235,123.43,704.138)
10942331:(2563.2,47.03,2563.64)

10734770:(114.177,3.79004,114.24)
10934723:(399.145,68.53,404.985)
10942331:(1820.12,12.31,1820.16)

10734770:(1477.53,82.98,1479.86)
10934723:(14.9369,94.0262,95.2053)
10942331:(1188.22,30.62,1188.62)

10734770:(1109.88,187.19,1125.55)
10934723:(784.962,118.82,793.904)
10942331:(2758.13,9,2758.15)

10734770:(1319.27,227.83,1338.79)
10934723:(744.058,110.59,752.231)
10942331:(1422.35,13.25,1422.41)

10734770:(811.341,12.31,811.434)
10934723:(675.542,141.89,690.282)
10942331:(1272.83,12.1575,1272.89)

10734770:(1288.68,104.55,1292.91)
10934723:(73.6308,68.4,100.499)
10942331:(1264.87,219.13,1283.71)

10734770:(1240.97,37.65,1241.54)
10934723:(574.369,137.93,590.698)
10942331:(1904.11,7.5,1904.13)

10734770:(723.464,210.42,753.443)
10934723:(45.7687,83.6299,95.3349)
10942331:(758.554,29.8751,759.142)

10734770:(1310.47,8.15997,1310.5)
10934723:(44.8757,74.03,86.5694)
10942331:(1231.97,130.93,1238.9)

10734770:(1033.34,107.62,1038.93)
10934723:(114.003,69.55,133.544)
10942331:(2251.68,59.61,2252.47)

10734770:(861.765,234.13,893.004)
10934723:(85.3026,85.63,120.868)
10942331:(1321.36,31.48,1321.73)

10734770:(1730.49,27.73,1730.71)
10934723:(108.61,88.45,140.069)
10942331:(2964.55,33.55,2964.74)

10734770:(1890.29,182.98,1899.13)
10934723:(741.573,137.94,754.293)
10942331:(3177.81,38.53,3178.04)

10734770:(1305.1,16.12,1305.2)
10934723:(579.056,145.61,597.083)
10942331:(814.055,29.9,814.604)

10734770:(1234.23,87.19,1237.3)
10934723:(45.3982,1.3537,45.4184)
10942331:(1681.36,13.57,1681.41)

10734770:(1405.72,44.62,1406.43)
10934723:(20.8917,37.18,42.6476)
10942331:(774.613,6.22998,774.638)
