10942331 368663 3.755e+06 4914.9 136.406 184.171 9.42848 228.0000 640.0800 152.4000
10942331 368592.9608 3755071.2004 4918.7100 136.4060 184.1710 9.2659 229.0000 640.0800 152.4000
10942331 368522.9216 3755142.4009 4922.5200 136.4062 184.1711 9.1034 230.0000 640.0800 152.4000
10942331 368408.7837 3755253.5644 4930.1400 136.4062 184.6856 9.1034 231.0000 640.0800 152.4000
10942331 368184.0362 3755475.4239 4945.3800 136.4062 184.6856 9.1034 232.0000 640.0800 152.4000
10942331 368106.7172 3755551.4944 4950.1425 136.4062 184.7499 9.0628 233.0000 640.0800 152.4000
10942331 368029.3981 3755627.5649 4954.9050 136.4062 184.8142 9.0221 234.0000 640.0800 152.4000
10942331 367874.7600 3755779.7059 4964.4300 136.4062 184.9428 8.9408 235.0000 640.0800 152.4000
10942331 367720.1220 3755931.8470 4973.9550 136.4062 185.0714 8.8595 236.0000 640.0800 152.4000
10942331 367565.4839 3756083.9880 4983.4800 136.4062 185.2000 8.7782 237.0000 640.0800 152.4000
10942331 367420.7736 3756226.4776 4991.1000 136.4062 185.2000 8.7782 238.0000 640.0800 152.4000
10942331 367293.4594 3756351.8022 4998.7200 136.4062 185.7144 8.1280 239.0000 640.0800 152.4000
10942331 367245.8278 3756395.6410 5001.2600 136.7578 185.8430 7.7216 240.0000 640.0800 152.4000
10942331 367198.1963 3756439.4798 5003.8000 137.1094 185.9717 7.3152 241.0000 640.0800 152.4000
10942331 367150.5647 3756483.3186 5006.3400 137.4609 186.1003 6.9088 242.0000 640.0800 152.4000
10942331 367102.9332 3756527.1574 5008.8800 137.8125 186.2289 6.5024 243.0000 640.0800 152.4000
10942331 366912.4069 3756702.5126 5019.0400 137.8125 186.2289 6.5024 244.0000 640.0800 152.4000
10942331 366721.8807 3756877.8678 5029.2000 137.8125 186.2289 6.5024 245.0000 640.0800 152.4000
10942331 366531.3545 3757053.2230 5039.3600 137.8125 186.2289 6.5024 246.0000 640.0800 152.4000
10942331 366340.8282 3757228.5783 5049.5200 137.8125 186.2289 6.5024 247.0000 640.0800 152.4000
10942331 366150.3020 3757403.9335 5059.6800 137.8125 186.2289 6.5024 248.0000 640.0800 152.4000
10942331 365959.7758 3757579.2887 5069.8400 137.8125 186.2289 6.5024 249.0000 640.0800 152.4000
10942331 365769.2495 3757754.6439 5080.0000 137.8125 186.2289 6.5024 250.0000 640.0800 152.4000
10942331 365578.7233 3757929.9991 5090.1600 137.8125 186.2289 6.5024 251.0000 640.0800 152.4000
10942331 365429.9740 3758053.2679 5098.6267 138.2812 186.4004 6.6830 252.0000 640.0800 152.4000
10942331 365281.2247 3758176.5366 5107.0933 138.7500 186.5719 6.8636 253.0000 640.0800 152.4000
10942331 365132.4754 3758299.8054 5115.5600 139.2187 186.7433 7.0443 254.0000 640.0800 152.4000
10942331 364983.7261 3758423.0742 5124.0267 139.6875 186.9148 7.2249 255.0000 640.0800 152.4000
10942331 364834.9767 3758546.3429 5132.4933 140.1562 187.0863 7.4055 256.0000 640.0800 152.4000
10942331 364686.2274 3758669.6117 5140.9600 140.6250 187.2578 7.5861 257.0000 640.0800 152.4000
10942331 364537.4781 3758792.8805 5149.4267 141.0937 187.4292 7.7668 258.0000 640.0800 152.4000
10942331 364388.7288 3758916.1492 5157.8933 141.5625 187.6007 7.9474 259.0000 640.0800 152.4000
10942331 364239.9795 3759039.4180 5166.3600 142.0312 187.7722 8.1280 260.0000 640.0800 152.4000
10942331 364201.6500 3759070.8540 5166.3600 142.0312 187.7722 8.1280 261.0000 640.0800 152.4000
10942331 364163.3205 3759102.2899 5166.3600 142.0312 187.7722 8.1280 262.0000 640.0800 152.4000
10942331 363978.6445 3759253.0319 5179.6950 142.0312 187.6436 8.8595 263.0000 640.0800 152.4000
10942331 363793.9686 3759403.7739 5193.0300 142.0312 187.5150 9.5910 264.0000 640.0800 152.4000
10942331 363609.2927 3759554.5159 5206.3650 142.0312 187.3864 10.3226 265.0000 640.0800 152.4000
10942331 363424.6167 3759705.2579 5219.7000 142.0312 187.2578 11.0541 266.0000 640.0800 152.4000
10942331 363320.4190 3759788.8440 5227.3200 142.0312 187.2578 11.5418 267.0000 640.0800 152.4000
10942331 363216.2212 3759872.4302 5234.9400 142.0312 187.2578 12.0294 268.0000 640.0800 152.4000
10942331 363039.4034 3760016.0968 5248.2750 142.0312 187.0006 11.7856 269.0000 640.0800 152.4000
10942331 362862.5856 3760159.7634 5261.6100 142.0312 186.7434 11.5418 270.0000 640.0800 152.4000
10942331 362685.7677 3760303.4301 5274.9450 142.0312 186.4861 11.2979 271.0000 640.0800 152.4000
10942331 362508.9499 3760447.0967 5288.2800 142.0312 186.2289 11.0541 272.0000 640.0800 152.4000
10942331 362436.4757 3760505.2692 5295.9000 142.0312 186.2289 11.0541 273.0000 640.0800 152.4000
10942331 362364.0014 3760563.4417 5303.5200 142.0312 186.2289 11.0541 274.0000 640.0800 152.4000
10942331 362226.7049 3760672.4848 5311.1400 142.0312 186.2289 10.7290 275.0000 640.0800 152.4000
10942331 361978.0270 3760878.3526 5326.3800 142.0312 186.2289 10.7290 276.0000 640.0800 152.4000
10942331 361826.7483 3760994.7987 5334.0000 142.0312 186.7433 10.0787 277.0000 640.0800 152.4000
10942331 361683.9617 3761113.2389 5341.6200 142.0312 186.7433 9.7536 278.0000 640.0800 152.4000
10942331 361546.7552 3761227.3687 5349.2400 142.0312 186.7433 9.7536 279.0000 640.0800 152.4000
10942331 361408.1363 3761341.0982 5356.8600 142.0312 186.7433 9.1034 280.0000 640.0800 152.4000
10942331 361262.1595 3761457.4777 5364.4800 142.0312 186.7433 9.1034 281.0000 640.0800 152.4000
10942331 361116.1826 3761573.8572 5372.1000 142.0312 186.7433 9.1034 282.0000 640.0800 152.4000
10942331 360979.9768 3761683.1165 5379.7200 142.0312 186.7433 9.1034 283.0000 640.0800 152.4000
10942331 360843.7711 3761792.3758 5387.3400 142.0312 186.7433 9.1034 284.0000 640.0800 152.4000
10942331 360694.0379 3761915.8732 5397.5000 142.0312 186.7433 9.1034 285.0000 640.0800 152.4000
10942331 360544.3046 3762039.3707 5407.6600 142.0312 186.7433 9.1034 286.0000 640.0800 152.4000
10942331 360394.5714 3762162.8681 5417.8200 142.0312 186.7433 9.1034 287.0000 640.0800 152.4000
10942331 360245.7063 3762284.0749 5424.4875 142.0312 186.7433 9.1034 288.0000 640.0800 152.4000
10942331 360096.8412 3762405.2816 5431.1550 142.0312 186.7433 9.1034 289.0000 640.0800 152.4000
10942331 359947.9761 3762526.4884 5437.8225 142.0312 186.7433 9.1034 290.0000 640.0800 152.4000
10942331 359799.1111 3762647.6952 5444.4900 142.0312 186.7433 9.1034 291.0000 640.0800 152.4000
10942331 359650.2460 3762768.9019 5451.1575 142.0312 186.7433 9.1034 292.0000 640.0800 152.4000
10942331 359501.3809 3762890.1087 5457.8250 142.0312 186.7433 9.1034 293.0000 640.0800 152.4000
10942331 359352.5158 3763011.3154 5464.4925 142.0312 186.7433 9.1034 294.0000 640.0800 152.4000
10942331 359203.6507 3763132.5222 5471.1600 142.0312 186.7433 9.1034 295.0000 640.0800 152.4000
10942331 359043.4263 3763258.8813 5478.7800 142.0312 186.7433 9.1034 296.0000 640.0800 152.4000
10942331 358898.0747 3763377.6206 5482.5900 142.0312 186.7433 9.1034 297.0000 640.0800 152.4000
10942331 358752.7231 3763496.3598 5486.4000 142.0312 186.7433 9.1034 298.0000 640.0800 152.4000
10942331 358607.3714 3763615.0991 5490.2100 142.0312 186.7433 9.1034 299.0000 640.0800 152.4000
10942331 358462.0198 3763733.8384 5494.0200 142.0312 186.7433 9.1034 300.0000 640.0800 152.4000
10942331 358316.1348 3763851.5351 5501.6400 142.0312 188.0294 7.3152 301.0000 640.0800 152.4000
10942331 358170.2498 3763969.2319 5509.2600 142.0312 189.3156 5.5270 302.0000 640.0800 152.4000
10942331 358078.1740 3764044.0806 5513.0700 142.0312 189.5728 5.6896 303.0000 640.0800 152.4000
10942331 357986.0981 3764118.9293 5516.8800 142.0312 189.8300 5.8521 304.0000 640.0800 152.4000
10942331 357894.0223 3764193.7780 5520.6900 142.0312 190.0872 6.0147 305.0000 640.0800 152.4000
10942331 357801.9464 3764268.6267 5524.5000 142.0312 190.3444 6.1773 306.0000 640.0800 152.4000
10942331 357433.6431 3764568.0215 5539.7400 142.0312 190.3444 6.1773 307.0000 640.0800 152.4000
10942331 357289.9132 3764686.7607 5543.5500 142.0312 190.3444 6.5024 308.0000 640.0800 152.4000
10942331 357146.1834 3764805.4999 5547.3600 142.0312 190.3444 6.8275 309.0000 640.0800 152.4000
10942331 357069.6024 3764867.3756 5551.1700 142.0312 190.8589 6.9901 310.0000 640.0800 152.4000
10942331 356993.0213 3764929.2513 5554.9800 142.0312 191.3733 7.1526 311.0000 640.0800 152.4000
10942331 356837.0727 3765054.6018 5562.6000 142.0312 191.3733 7.1526 312.0000 640.0800 152.4000
10942331 356681.1242 3765179.9522 5570.2200 142.0312 191.3733 7.1526 313.0000 640.0800 152.4000
10942331 356525.1756 3765305.3027 5577.8400 142.0312 191.3733 7.1526 314.0000 640.0800 152.4000
10942331 356378.3316 3765426.4303 5585.4600 142.0312 191.3733 7.1526 315.0000 640.0800 152.4000
10942331 356257.2356 3765526.0125 5585.4600 142.0312 191.8878 6.8275 316.0000 640.0800 152.4000
10942331 355994.7956 3765736.9149 5600.7000 142.0312 191.8878 6.8275 317.0000 640.0800 152.4000
10942331 355824.5327 3765876.7474 5608.3200 142.0312 192.0593 6.9359 318.0000 640.0800 152.4000
10942331 355654.2699 3766016.5799 5615.9400 142.0312 192.2307 7.0442 319.0000 640.0800 152.4000
10942331 355484.0070 3766156.4124 5623.5600 142.0312 192.4022 7.1526 320.0000 640.0800 152.4000
10942331 355339.2703 3766275.4096 5631.1800 142.0312 192.4022 7.1526 321.0000 640.0800 152.4000
10942331 355182.6334 3766399.2461 5638.8000 142.0312 192.9167 7.4778 322.0000 640.0800 152.4000
10942331 355107.1704 3766463.4491 5642.6100 142.0312 192.9167 7.4778 323.0000 640.0800 152.4000
10942331 355031.7073 3766527.6521 5646.4200 142.0312 192.9167 7.4778 324.0000 640.0800 152.4000
10942331 354870.8910 3766654.0970 5654.0400 142.0312 192.9167 7.4778 325.0000 640.0800 152.4000
10942331 354783.1956 3766724.4142 5654.0400 142.0312 192.9167 7.4778 326.0000 640.0800 152.4000
10942331 354630.1668 3766852.8596 5661.6600 142.0312 192.9167 7.4778 327.0000 640.0800 152.4000
10942331 354464.5658 3766987.8514 5669.2800 142.0312 193.0882 7.4778 328.0000 640.0800 152.4000
10942331 354298.9648 3767122.8431 5676.9000 142.0312 193.2596 7.4778 329.0000 640.0800 152.4000
10942331 354133.3638 3767257.8349 5684.5200 142.0312 193.4311 7.4778 330.0000 640.0800 152.4000
10942331 353910.6563 3767435.1828 5692.1400 142.0312 193.4311 7.4778 331.0000 640.0800 152.4000
10942331 353757.6509 3767563.6432 5699.7600 142.0312 193.4311 7.8029 332.0000 640.0800 152.4000
10942331 353622.6672 3767672.7861 5707.3800 142.0312 193.4311 7.4778 333.0000 640.0800 152.4000
10942331 353388.2223 3767864.2925 5722.6200 142.0312 193.4311 7.4778 334.0000 640.0800 152.4000
10942331 353305.4463 3767932.4326 5722.6200 142.0312 193.4311 7.8029 335.0000 640.0800 152.4000
10942331 353102.2998 3768097.2266 5737.8600 142.0312 193.4311 7.8029 336.0000 640.0800 152.4000
10942331 352943.7211 3768228.3269 5745.4800 142.0312 193.4311 8.1280 337.0000 640.0800 152.4000
10942331 352801.1212 3768344.7944 5753.1000 142.0312 193.4311 8.4531 338.0000 640.0800 152.4000
10942331 352644.6097 3768472.2727 5760.7200 142.0312 193.6884 8.6156 339.0000 640.0800 152.4000
10942331 352488.0982 3768599.7510 5768.3400 142.0312 193.9456 8.7782 340.0000 640.0800 152.4000
10942331 352339.2439 3768720.9783 5775.9600 142.0312 193.9456 8.7782 341.0000 640.0800 152.4000
10942331 352177.1650 3768852.1473 5783.5800 142.0312 193.9456 8.4531 342.0000 640.0800 152.4000
10942331 352101.7054 3768914.0493 5787.3900 142.0312 193.9456 8.1280 343.0000 640.0800 152.4000
10942331 352026.2457 3768975.9512 5791.2000 142.0312 193.9456 7.8029 344.0000 640.0800 152.4000
10942331 351881.6286 3769097.1200 5798.8200 142.0312 193.9456 7.1526 345.0000 640.0800 152.4000
10942331 351672.2336 3769264.5843 5806.4400 142.0312 193.9456 6.5024 346.0000 640.0800 152.4000
10942331 351583.8818 3769334.9441 5806.4400 142.0312 194.4600 5.8522 347.0000 640.0800 152.4000
10942331 351363.4565 3769516.9760 5814.0600 142.0312 194.4600 5.5270 348.0000 640.0800 152.4000
10942331 351245.9108 3769611.7070 5817.8700 142.0312 194.7172 5.5270 349.0000 640.0800 152.4000
10942331 351128.3652 3769706.4381 5821.6800 142.0312 194.9744 5.5270 350.0000 640.0800 152.4000
10942331 350884.3162 3769907.8960 5829.3000 142.0312 195.4889 5.8522 351.0000 640.0800 152.4000
10942331 350737.6154 3770029.1168 5836.9200 142.0312 195.4889 6.5024 352.0000 640.0800 152.4000
10942331 350598.5168 3770140.9107 5844.5400 142.0312 195.4889 6.8275 353.0000 640.0800 152.4000
10942331 350461.5674 3770254.7885 5852.1600 142.0312 195.4889 6.8275 354.0000 640.0800 152.4000
10942331 350307.2124 3770381.2156 5859.7800 142.0312 195.4889 6.8275 355.0000 640.0800 152.4000
10942331 350143.0708 3770512.0323 5867.4000 142.0312 195.4889 6.8275 356.0000 640.0800 152.4000
10942331 350011.7316 3770623.7124 5867.4000 142.0312 196.0033 6.5024 357.0000 640.0800 152.4000
10942331 349775.2461 3770810.6946 5875.0200 142.0312 196.0033 6.5024 358.0000 640.0800 152.4000
10942331 349622.3512 3770939.2264 5882.6400 142.0312 196.0033 6.1773 359.0000 640.0800 152.4000
10942331 349532.6624 3771012.1673 5890.2600 142.0312 196.0033 6.1773 360.0000 640.0800 152.4000
10942331 349362.2530 3771146.0607 5890.2600 142.0312 196.5178 6.1773 361.0000 640.0800 152.4000
10942331 349204.4744 3771276.7936 5897.8800 142.0312 196.5178 6.1773 362.0000 640.0800 152.4000
10942331 349038.4138 3771417.8174 5905.5000 142.0312 196.5178 6.1773 363.0000 640.0800 152.4000
10942331 348811.0047 3771597.4872 5913.1200 142.0312 196.5178 6.1773 364.0000 640.0800 152.4000
10942331 348656.6868 3771723.5200 5920.7400 142.0312 197.0322 5.5270 365.0000 640.0800 152.4000
10942331 348569.1249 3771796.4368 5920.7400 142.0312 197.5467 5.2019 366.0000 640.0800 152.4000
10942331 348343.8459 3771976.0847 5928.3600 142.0312 198.0611 4.8768 367.0000 640.0800 152.4000
10942331 348260.8077 3772045.3355 5932.1700 142.0312 198.0611 4.8768 368.0000 640.0800 152.4000
10942331 348177.7695 3772114.5864 5935.9800 142.0312 198.0611 4.8768 369.0000 640.0800 152.4000
10942331 348021.4382 3772245.7408 5935.9800 142.0312 198.0611 4.5517 370.0000 640.0800 152.4000
10942331 347931.7332 3772316.1597 5943.6000 142.0312 198.0611 4.5517 371.0000 640.0800 152.4000
10942331 347755.9222 3772461.5968 5943.6000 142.0312 198.5756 4.8768 372.0000 640.0800 152.4000
10942331 347595.3786 3772592.8269 5951.2200 142.0312 198.5756 5.5270 373.0000 640.0800 152.4000
10942331 347443.1296 3772714.1933 5958.8400 142.0312 199.0900 6.1773 374.0000 640.0800 152.4000
10942331 347272.8145 3772850.2421 5966.4600 142.0312 199.0900 6.5024 375.0000 640.0800 152.4000
10942331 347119.9522 3772976.7020 5966.4600 142.0312 199.0900 6.5024 376.0000 640.0800 152.4000
10942331 346952.4965 3773114.8265 5974.0800 142.0312 199.0900 6.8275 377.0000 640.0800 152.4000
10942331 346786.3436 3773246.1627 5981.7000 142.0312 199.0900 6.8275 378.0000 640.0800 152.4000
10942331 346651.5623 3773357.9499 5989.3200 142.0312 199.0900 7.1526 379.0000 640.0800 152.4000
10942331 346494.5688 3773489.1427 5996.9400 142.0312 199.0900 7.4778 380.0000 640.0800 152.4000
10942331 346334.7226 3773617.8460 6004.5600 142.0312 199.0900 7.8029 381.0000 640.0800 152.4000
10942331 346248.5626 3773688.2246 6012.1800 142.0312 199.0900 8.1280 382.0000 640.0800 152.4000
10942331 346088.7645 3773819.4706 6019.8000 142.0312 199.0900 8.4531 383.0000 640.0800 152.4000
10942331 345942.1442 3773938.2327 6027.4200 142.0312 199.0900 8.1280 384.0000 640.0800 152.4000
10942331 345650.9568 3774171.4992 6035.0400 142.0312 199.6044 8.1280 385.0000 640.0800 152.4000
10942331 345493.9490 3774300.1715 6042.6600 142.0312 199.6044 7.4778 386.0000 640.0800 152.4000
10942331 345349.3857 3774414.6784 6050.2800 142.0312 199.6044 7.1526 387.0000 640.0800 152.4000
10942331 345206.9722 3774531.2682 6057.9000 142.0312 199.6044 6.8275 388.0000 640.0800 152.4000
10942331 345138.9688 3774591.6271 6057.9000 142.0312 199.6044 6.8275 389.0000 640.0800 152.4000
10942331 344904.0859 3774778.7162 6073.1400 142.0312 200.1189 7.1526 390.0000 640.0800 152.4000
10942331 344675.5117 3774963.5919 6080.7600 142.0312 200.1189 7.1526 391.0000 640.0800 152.4000
10942331 344495.5841 3775109.5865 6088.3800 142.0312 200.1189 7.1526 392.0000 640.0800 152.4000
10942331 344419.8895 3775172.6170 6088.3800 142.0312 200.1189 7.4778 393.0000 640.0800 152.4000
10942331 344185.1122 3775364.3787 6103.6200 142.0312 200.1189 7.8029 394.0000 640.0800 152.4000
10942331 344105.2031 3775427.6936 6107.4300 142.0312 200.1189 7.9655 395.0000 640.0800 152.4000
10942331 344025.2940 3775491.0085 6111.2400 142.0312 200.1189 8.1280 396.0000 640.0800 152.4000
10942331 343874.5448 3775612.4131 6118.8600 142.0312 200.1189 8.1280 397.0000 640.0800 152.4000
10942331 343728.0221 3775733.7502 6126.4800 142.0312 200.1189 8.4531 398.0000 640.0800 152.4000
10942331 343571.6928 3775857.7915 6134.1000 142.0312 200.1189 8.4531 399.0000 640.0800 152.4000
10942331 343362.6713 3776030.1058 6141.7200 142.0312 200.1189 8.4531 400.0000 640.0800 152.4000
10942331 343204.3602 3776161.3805 6149.3400 142.0312 200.1189 8.1280 401.0000 640.0800 152.4000
10942331 343050.1137 3776282.8577 6156.9600 142.0312 200.1189 8.1280 402.0000 640.0800 152.4000
10942331 342903.6542 3776406.7468 6164.5800 142.0312 200.1189 7.8029 403.0000 640.0800 152.4000
10942331 342816.1377 3776477.1823 6172.2000 142.0312 200.6333 7.1526 404.0000 640.0800 152.4000
10942331 342561.9269 3776681.5843 6179.8200 142.0312 200.6333 6.8275 405.0000 640.0800 152.4000
10942331 342400.1549 3776815.0475 6187.4400 142.0312 200.6333 6.8275 406.0000 640.0800 152.4000
10942331 342317.4511 3776878.2138 6187.4400 142.0312 200.6333 5.8522 407.0000 640.0800 152.4000
10942331 342097.3441 3777058.3614 6195.0600 142.0312 201.1478 5.8522 408.0000 640.0800 152.4000
10942331 341862.7032 3777252.7231 6202.6800 142.0312 201.1478 5.5270 409.0000 640.0800 152.4000
10942331 341730.4226 3777359.6821 6208.3950 142.0312 201.1478 5.6896 410.0000 640.0800 152.4000
10942331 341598.1419 3777466.6410 6214.1100 142.0312 201.1478 5.8521 411.0000 640.0800 152.4000
10942331 341465.8612 3777573.6000 6219.8250 142.0312 201.1478 6.0147 412.0000 640.0800 152.4000
10942331 341333.5806 3777680.5590 6225.5400 142.0312 201.1478 6.1773 413.0000 640.0800 152.4000
10942331 341216.2150 3777774.1541 6229.3500 142.0312 201.4050 6.3399 414.0000 640.0800 152.4000
10942331 341098.8495 3777867.7493 6233.1600 142.0312 201.6622 6.5024 415.0000 640.0800 152.4000
10942331 340853.1133 3778069.5197 6240.7800 142.0312 201.6622 6.5024 416.0000 640.0800 152.4000
10942331 340680.2561 3778210.3983 6248.4000 142.0312 201.6622 6.6649 417.0000 640.0800 152.4000
10942331 340507.3988 3778351.2769 6256.0200 142.0312 201.6622 6.8275 418.0000 640.0800 152.4000
10942331 340300.5199 3778518.9745 6263.6400 142.0312 201.6622 6.8275 419.0000 640.0800 152.4000
10942331 340206.7534 3778592.0817 6271.2600 142.0312 201.6622 7.1526 420.0000 640.0800 152.4000
10942331 339963.1225 3778791.3028 6278.8800 142.0312 201.6622 6.8275 421.0000 640.0800 152.4000
10942331 339808.3000 3778915.3869 6286.5000 142.0312 202.1767 6.8275 422.0000 640.0800 152.4000
10942331 339729.5450 3778981.0502 6290.3100 142.0312 202.4339 6.6649 423.0000 640.0800 152.4000
10942331 339650.7901 3779046.7135 6294.1200 142.0312 202.6911 6.5024 424.0000 640.0800 152.4000
10942331 339476.5229 3779185.5228 6301.7400 142.0312 202.6911 6.5024 425.0000 640.0800 152.4000
10942331 339326.5511 3779304.4548 6301.7400 142.0312 202.6911 6.5024 426.0000 640.0800 152.4000
10942331 339151.0094 3779450.4863 6309.3600 142.0312 202.6911 6.8275 427.0000 640.0800 152.4000
10942331 339067.0663 3779520.8989 6316.9800 142.0312 202.6911 6.8275 428.0000 640.0800 152.4000
10942331 338846.3761 3779700.7194 6324.6000 142.0312 202.9484 6.6649 429.0000 640.0800 152.4000
10942331 338625.6859 3779880.5400 6332.2200 142.0312 203.2056 6.5024 430.0000 640.0800 152.4000
10942331 338537.4935 3779948.9148 6339.8400 142.0312 203.2056 6.5024 431.0000 640.0800 152.4000
10942331 338258.5519 3780177.5664 6347.4600 142.0312 203.2056 6.8275 432.0000 640.0800 152.4000
10942331 338134.6854 3780278.2978 6355.0800 142.0312 202.9484 8.1280 433.0000 640.0800 152.4000
10942331 338010.8188 3780379.0293 6362.7000 142.0312 202.6911 9.4285 434.0000 640.0800 152.4000
10942331 337844.9609 3780513.0720 6370.3200 142.0312 202.6911 9.7536 435.0000 640.0800 152.4000
10942331 337765.8812 3780578.7590 6377.9400 142.0312 202.6911 9.7536 436.0000 640.0800 152.4000
10942331 337686.8015 3780644.4459 6385.5600 142.0312 202.6911 9.7536 437.0000 640.0800 152.4000
10942331 337288.5574 3780969.9804 6400.8000 142.0312 202.6911 9.7536 438.0000 640.0800 152.4000
10942331 337205.9916 3781036.9335 6405.8800 142.0312 202.4339 9.4827 439.0000 640.0800 152.4000
10942331 337123.4258 3781103.8866 6410.9600 142.0312 202.1767 9.2117 440.0000 640.0800 152.4000
10942331 336958.2941 3781237.7927 6421.1200 142.0312 202.1767 8.9950 441.0000 640.0800 152.4000
10942331 336793.1625 3781371.6989 6431.2800 142.0312 202.1767 8.7782 442.0000 640.0800 152.4000
10942331 336641.1932 3781493.2515 6438.9000 142.0312 202.1767 8.7782 443.0000 640.0800 152.4000
10942331 336512.1877 3781600.0194 6446.5200 142.0312 202.1767 8.7782 444.0000 640.0800 152.4000
10942331 336381.7859 3781707.2367 6454.1400 142.0312 202.1767 8.7782 445.0000 640.0800 152.4000
10942331 336102.2375 3781935.5458 6469.3800 142.0312 202.1767 8.7782 446.0000 640.0800 152.4000
10942331 335983.7906 3782031.6663 6473.1900 142.0312 202.3053 8.3718 447.0000 640.0800 152.4000
10942331 335865.3436 3782127.7867 6477.0000 142.0312 202.4339 7.9655 448.0000 640.0800 152.4000
10942331 335628.4497 3782320.0277 6484.6200 142.0312 202.6911 7.8029 449.0000 640.0800 152.4000
10942331 335460.5499 3782454.1522 6492.2400 142.0312 202.6911 7.4778 450.0000 640.0800 152.4000
10942331 335298.9323 3782585.2076 6499.8600 142.0312 202.6911 7.4778 451.0000 640.0800 152.4000
10942331 335133.1517 3782719.3014 6507.4800 142.0312 202.6911 7.4778 452.0000 640.0800 152.4000
10942331 335047.1585 3782789.7899 6511.2900 142.0312 202.6911 7.6403 453.0000 640.0800 152.4000
10942331 334961.1653 3782860.2783 6515.1000 142.0312 202.6911 7.8029 454.0000 640.0800 152.4000
10942331 334797.4965 3782993.9183 6522.7200 142.0312 202.6911 7.8029 455.0000 640.0800 152.4000
10942331 334655.3050 3783108.5634 6530.3400 142.0312 202.6911 7.8029 456.0000 640.0800 152.4000
10942331 334497.1887 3783237.4564 6537.9600 142.0312 202.6911 7.1526 457.0000 640.0800 152.4000
10942331 334346.9384 3783359.8685 6545.5800 142.0312 202.6911 7.2610 458.0000 640.0800 152.4000
10942331 334196.6882 3783482.2806 6553.2000 142.0312 202.6911 7.3694 459.0000 640.0800 152.4000
10942331 334046.4379 3783604.6927 6560.8200 142.0312 202.6911 7.4778 460.0000 640.0800 152.4000
10942331 333808.6092 3783799.3314 6568.4400 142.0312 202.1767 8.7782 461.0000 640.0800 152.4000
10942331 333626.0009 3783947.0159 6578.6000 142.0312 202.1767 9.1033 462.0000 640.0800 152.4000
10942331 333443.3927 3784094.7003 6588.7600 142.0312 202.1767 9.4285 463.0000 640.0800 152.4000
10942331 333260.7844 3784242.3848 6598.9200 142.0312 202.1767 9.7536 464.0000 640.0800 152.4000
10942331 333110.3128 3784363.9736 6614.1600 142.0312 201.6622 10.4038 465.0000 640.0800 152.4000
10942331 332948.8132 3784498.0337 6621.7800 142.0312 201.6622 10.4038 466.0000 640.0800 152.4000
10942331 332794.1310 3784619.7029 6629.4000 142.0312 201.6622 10.0787 467.0000 640.0800 152.4000
10942331 332632.6327 3784753.3457 6637.0200 142.0312 201.6622 10.0787 468.0000 640.0800 152.4000
10942331 332471.7840 3784883.5960 6648.4500 142.0312 201.6622 9.9162 469.0000 640.0800 152.4000
10942331 332310.9352 3785013.8463 6659.8800 142.0312 201.6622 9.7536 470.0000 640.0800 152.4000
10942331 332159.0820 3785135.4764 6667.5000 142.0312 201.6622 9.4285 471.0000 640.0800 152.4000
10942331 331985.1202 3785279.0878 6675.1200 142.0312 201.6622 9.1034 472.0000 640.0800 152.4000
10942331 331913.0647 3785339.8364 6678.9300 142.0312 201.6622 8.9408 473.0000 640.0800 152.4000
10942331 331841.0092 3785400.5851 6682.7400 142.0312 201.6622 8.7782 474.0000 640.0800 152.4000
10942331 331684.9975 3785524.8388 6690.3600 142.0312 201.6622 8.6156 475.0000 640.0800 152.4000
10942331 331528.9857 3785649.0924 6697.9800 142.0312 201.6622 8.4531 476.0000 640.0800 152.4000
10942331 331388.9829 3785763.7525 6705.6000 142.0312 201.6622 8.7782 477.0000 640.0800 152.4000
10942331 331070.8616 3786023.8124 6720.8400 142.0312 201.6622 8.7782 478.0000 640.0800 152.4000
10942331 330983.2170 3786096.9107 6724.6500 142.0312 201.6622 8.6156 479.0000 640.0800 152.4000
10942331 330895.5725 3786170.0091 6728.4600 142.0312 201.6622 8.4531 480.0000 640.0800 152.4000
10942331 330599.5926 3786408.5278 6743.7000 142.0312 201.1478 8.4531 481.0000 640.0800 152.4000
10942331 330458.9475 3786525.3308 6751.3200 142.0312 201.6622 8.1280 482.0000 640.0800 152.4000
10942331 330298.8368 3786654.3376 6758.9400 142.0312 201.6622 8.1280 483.0000 640.0800 152.4000
10942331 330131.0896 3786788.5640 6766.5600 142.0312 201.6622 7.1526 484.0000 640.0800 152.4000
10942331 329991.1590 3786905.3618 6774.1800 142.0312 201.6622 6.8275 485.0000 640.0800 152.4000
10942331 329821.3885 3787043.8630 6774.1800 142.0312 201.6622 6.1773 486.0000 640.0800 152.4000
10942331 329698.7416 3787143.7442 6779.8950 142.0312 201.6622 6.0960 487.0000 640.0800 152.4000
10942331 329576.0948 3787243.6253 6785.6100 142.0312 201.6622 6.0147 488.0000 640.0800 152.4000
10942331 329453.4480 3787343.5065 6791.3250 142.0312 201.6622 5.9335 489.0000 640.0800 152.4000
10942331 329330.8011 3787443.3877 6797.0400 142.0312 201.6622 5.8522 490.0000 640.0800 152.4000
10942331 329165.2289 3787579.7096 6797.0400 142.0312 201.6622 5.8522 491.0000 640.0800 152.4000
10942331 328987.7585 3787718.7908 6804.6600 142.0312 201.6622 5.5270 492.0000 640.0800 152.4000
10942331 328823.5942 3787854.6705 6812.2800 142.0312 201.6622 5.5270 493.0000 640.0800 152.4000
10942331 328681.5020 3787966.8740 6812.2800 142.0312 202.1767 4.8768 494.0000 640.0800 152.4000
10942331 328508.3096 3788108.4262 6819.9000 142.0312 202.1767 4.2266 495.0000 640.0800 152.4000
10942331 328347.5710 3788238.5407 6823.7100 142.0312 202.6911 3.7389 496.0000 640.0800 152.4000
10942331 328186.8324 3788368.6552 6827.5200 142.0312 203.2056 3.2512 497.0000 640.0800 152.4000
10942331 328015.0605 3788510.1915 6827.5200 142.0312 203.2056 2.9261 498.0000 640.0800 152.4000
10942331 327855.7196 3788639.2301 6827.5200 142.0312 203.2056 2.9261 499.0000 640.0800 152.4000
10942331 327672.0873 3788785.2230 6835.1400 142.0312 203.2056 2.6010 500.0000 640.0800 152.4000
10942331 327510.7407 3788919.3834 6835.1400 142.0312 203.7200 2.6010 501.0000 640.0800 152.4000
10942331 327356.9893 3789045.7893 6842.7600 142.0312 203.7200 2.6010 502.0000 640.0800 152.4000
10942331 327187.2619 3789182.2296 6845.3000 142.0312 203.8915 2.8177 503.0000 640.0800 152.4000
10942331 327017.5346 3789318.6698 6847.8400 142.0312 204.0629 3.0345 504.0000 640.0800 152.4000
10942331 326847.8072 3789455.1101 6850.3800 142.0312 204.2344 3.2512 505.0000 640.0800 152.4000
10942331 326691.5479 3789584.1165 6852.9200 142.0312 204.2344 3.3596 506.0000 640.0800 152.4000
10942331 326535.2885 3789713.1228 6855.4600 142.0312 204.2344 3.4679 507.0000 640.0800 152.4000
10942331 326379.0292 3789842.1292 6858.0000 142.0312 204.2344 3.5763 508.0000 640.0800 152.4000
10942331 326213.5246 3789977.4509 6865.6200 142.0312 204.7489 4.3891 509.0000 640.0800 152.4000
10942331 326048.0200 3790112.7726 6873.2400 142.0312 205.2633 5.2019 510.0000 640.0800 152.4000
10942331 325880.3476 3790244.5421 6873.2400 142.0312 205.2633 5.2019 511.0000 640.0800 152.4000
10942331 325786.8612 3790320.3449 6877.0500 142.0312 205.2633 5.5271 512.0000 640.0800 152.4000
10942331 325693.3747 3790396.1478 6880.8600 142.0312 205.2633 5.8522 513.0000 640.0800 152.4000
10942331 325506.4019 3790547.7534 6888.4800 142.0312 205.2633 5.8522 514.0000 640.0800 152.4000
10942331 325319.4291 3790699.3591 6896.1000 142.0312 205.2633 5.8522 515.0000 640.0800 152.4000
10942331 325132.4562 3790850.9647 6903.7200 142.0312 205.2633 5.8522 516.0000 640.0800 152.4000
10942331 325014.5960 3790947.8614 6907.5300 142.0312 205.5206 5.8522 517.0000 640.0800 152.4000
10942331 324896.7358 3791044.7582 6911.3400 142.0312 205.7778 5.8522 518.0000 640.0800 152.4000
10942331 324661.0154 3791238.5516 6918.9600 142.0312 205.7778 5.8522 519.0000 640.0800 152.4000
10942331 324495.8219 3791372.5092 6923.5320 142.0312 205.7778 5.8522 520.0000 640.0800 152.4000
10942331 324330.6284 3791506.4667 6928.1040 142.0312 205.7778 5.8522 521.0000 640.0800 152.4000
10942331 324165.4349 3791640.4243 6932.6760 142.0312 205.7778 5.8522 522.0000 640.0800 152.4000
10942331 324000.2414 3791774.3818 6937.2480 142.0312 205.7778 5.8522 523.0000 640.0800 152.4000
10942331 323835.0479 3791908.3394 6941.8200 142.0312 205.7778 5.8522 524.0000 640.0800 152.4000
10942331 323683.2930 3792032.6623 6943.7250 142.0312 206.0350 5.2020 525.0000 640.0800 152.4000
10942331 323531.5380 3792156.9852 6945.6300 142.0312 206.2923 4.5517 526.0000 640.0800 152.4000
10942331 323379.7830 3792281.3080 6947.5350 142.0312 206.5495 3.9014 527.0000 640.0800 152.4000
10942331 323228.0281 3792405.6309 6949.4400 142.0312 206.8067 3.2512 528.0000 640.0800 152.4000
10942331 323068.0681 3792532.2316 6957.0600 142.0312 206.8067 3.2512 529.0000 640.0800 152.4000
10942331 322946.9572 3792631.5464 6958.9650 142.0312 207.3211 3.2512 530.0000 640.0800 152.4000
10942331 322825.8463 3792730.8611 6960.8700 142.0312 207.8356 3.2512 531.0000 640.0800 152.4000
10942331 322583.6245 3792929.4906 6964.6800 142.0312 207.8356 3.2512 532.0000 640.0800 152.4000
10942331 322427.0757 3793056.8509 6970.2680 142.0312 207.8956 3.2458 533.0000 640.0800 152.4000
10942331 322270.5269 3793184.2111 6975.8560 142.0312 207.9556 3.2404 534.0000 640.0800 152.4000
10942331 322113.9781 3793311.5714 6981.4440 142.0312 208.0157 3.2349 535.0000 640.0800 152.4000
10942331 321957.4294 3793438.9317 6987.0320 142.0312 208.0757 3.2295 536.0000 640.0800 152.4000
10942331 321800.8806 3793566.2919 6992.6200 142.0312 208.1357 3.2241 537.0000 640.0800 152.4000
10942331 321644.3318 3793693.6522 6998.2080 142.0312 208.1957 3.2187 538.0000 640.0800 152.4000
10942331 321487.7830 3793821.0125 7003.7960 142.0312 208.2557 3.2133 539.0000 640.0800 152.4000
10942331 321331.2342 3793948.3727 7009.3840 142.0312 208.3157 3.2079 540.0000 640.0800 152.4000
10942331 321174.6854 3794075.7330 7014.9720 142.0312 208.3758 3.2024 541.0000 640.0800 152.4000
10942331 321018.1367 3794203.0933 7020.5600 142.0312 208.4358 3.1970 542.0000 640.0800 152.4000
10942331 320861.5879 3794330.4535 7026.1480 142.0312 208.4958 3.1916 543.0000 640.0800 152.4000
10942331 320705.0391 3794457.8138 7031.7360 142.0312 208.5558 3.1862 544.0000 640.0800 152.4000
10942331 320548.4903 3794585.1741 7037.3240 142.0312 208.6158 3.1808 545.0000 640.0800 152.4000
10942331 320391.9415 3794712.5343 7042.9120 142.0312 208.6759 3.1753 546.0000 640.0800 152.4000
10942331 320235.3927 3794839.8946 7048.5000 142.0312 208.7359 3.1699 547.0000 640.0800 152.4000
10942331 320078.8440 3794967.2549 7054.0880 142.0312 208.7959 3.1645 548.0000 640.0800 152.4000
10942331 319922.2952 3795094.6151 7059.6760 142.0312 208.8559 3.1591 549.0000 640.0800 152.4000
10942331 319765.7464 3795221.9754 7065.2640 142.0312 208.9159 3.1537 550.0000 640.0800 152.4000
10942331 319609.1976 3795349.3357 7070.8520 142.0312 208.9759 3.1483 551.0000 640.0800 152.4000
10942331 319452.6488 3795476.6959 7076.4400 142.0312 209.0360 3.1428 552.0000 640.0800 152.4000
10942331 319296.1001 3795604.0562 7082.0280 142.0312 209.0960 3.1374 553.0000 640.0800 152.4000
10942331 319139.5513 3795731.4165 7087.6160 142.0312 209.1560 3.1320 554.0000 640.0800 152.4000
10942331 318983.0025 3795858.7767 7093.2040 142.0312 209.2160 3.1266 555.0000 640.0800 152.4000
10942331 318826.4537 3795986.1370 7098.7920 142.0312 209.2760 3.1212 556.0000 640.0800 152.4000
10942331 318669.9049 3796113.4973 7104.3800 142.0312 209.3361 3.1157 557.0000 640.0800 152.4000
10942331 318513.3561 3796240.8575 7109.9680 142.0312 209.3961 3.1103 558.0000 640.0800 152.4000
10942331 318356.8074 3796368.2178 7115.5560 142.0312 209.4561 3.1049 559.0000 640.0800 152.4000
10942331 318200.2586 3796495.5781 7121.1440 142.0312 209.5161 3.0995 560.0000 640.0800 152.4000
10942331 318043.7098 3796622.9383 7126.7320 142.0312 209.5761 3.0941 561.0000 640.0800 152.4000
10942331 317887.1610 3796750.2986 7132.3200 142.0312 209.6361 3.0886 562.0000 640.0800 152.4000
10942331 317730.6122 3796877.6589 7137.9080 142.0312 209.6962 3.0832 563.0000 640.0800 152.4000
10942331 317574.0634 3797005.0191 7143.4960 142.0312 209.7562 3.0778 564.0000 640.0800 152.4000
10942331 317417.5146 3797132.3794 7149.0840 142.0312 209.8162 3.0724 565.0000 640.0800 152.4000
10942331 317260.9659 3797259.7397 7154.6720 142.0312 209.8762 3.0670 566.0000 640.0800 152.4000
10942331 317104.4171 3797387.0999 7160.2600 142.0312 209.9362 3.0616 567.0000 640.0800 152.4000
10942331 316947.8683 3797514.4602 7165.8480 142.0312 209.9963 3.0561 568.0000 640.0800 152.4000
10942331 316791.3195 3797641.8205 7171.4360 142.0312 210.0563 3.0507 569.0000 640.0800 152.4000
10942331 316634.7707 3797769.1807 7177.0240 142.0312 210.1163 3.0453 570.0000 640.0800 152.4000
10942331 316478.2219 3797896.5410 7182.6120 142.0312 210.1763 3.0399 571.0000 640.0800 152.4000
10942331 316321.6732 3798023.9013 7188.2000 142.0312 210.2363 3.0345 572.0000 640.0800 152.4000
10942331 316165.1244 3798151.2615 7193.7880 142.0312 210.2964 3.0290 573.0000 640.0800 152.4000
10942331 316008.5756 3798278.6218 7199.3760 142.0312 210.3564 3.0236 574.0000 640.0800 152.4000
10942331 315852.0268 3798405.9821 7204.9640 142.0312 210.4164 3.0182 575.0000 640.0800 152.4000
10942331 315695.4780 3798533.3423 7210.5520 142.0312 210.4764 3.0128 576.0000 640.0800 152.4000
10942331 315538.9292 3798660.7026 7216.1400 142.0312 210.5364 3.0074 577.0000 640.0800 152.4000
10942331 315382.3805 3798788.0629 7221.7280 142.0312 210.5964 3.0020 578.0000 640.0800 152.4000
10942331 315225.8317 3798915.4231 7227.3160 142.0312 210.6565 2.9965 579.0000 640.0800 152.4000
10942331 315069.2829 3799042.7834 7232.9040 142.0312 210.7165 2.9911 580.0000 640.0800 152.4000
10942331 314912.7341 3799170.1437 7238.4920 142.0312 210.7765 2.9857 581.0000 640.0800 152.4000
10942331 314756.1853 3799297.5039 7244.0800 142.0312 210.8365 2.9803 582.0000 640.0800 152.4000
10942331 314599.6365 3799424.8642 7249.6680 142.0312 210.8965 2.9749 583.0000 640.0800 152.4000
10942331 314443.0878 3799552.2245 7255.2560 142.0312 210.9566 2.9694 584.0000 640.0800 152.4000
10942331 314286.5390 3799679.5847 7260.8440 142.0312 211.0166 2.9640 585.0000 640.0800 152.4000
10942331 314129.9902 3799806.9450 7266.4320 142.0312 211.0766 2.9586 586.0000 640.0800 152.4000
10942331 313973.4414 3799934.3053 7272.0200 142.0312 211.1366 2.9532 587.0000 640.0800 152.4000
10942331 313816.8926 3800061.6655 7277.6080 142.0312 211.1966 2.9478 588.0000 640.0800 152.4000
10942331 313660.3439 3800189.0258 7283.1960 142.0312 211.2566 2.9424 589.0000 640.0800 152.4000
10942331 313503.7951 3800316.3861 7288.7840 142.0312 211.3167 2.9369 590.0000 640.0800 152.4000
10942331 313347.2463 3800443.7463 7294.3720 142.0312 211.3767 2.9315 591.0000 640.0800 152.4000
10942331 313190.6975 3800571.1066 7299.9600 142.0312 211.4367 2.9261 592.0000 640.0800 152.4000
10942331 312996.0688 3800729.0062 7302.5000 142.0312 211.6939 2.6010 593.0000 640.0800 152.4000
10942331 312801.4401 3800886.9059 7305.0400 142.0312 211.9511 2.2758 594.0000 640.0800 152.4000
10942331 312412.1826 3801202.7051 7310.1200 142.0312 211.9511 2.2758 595.0000 640.0800 152.4000
10942331 312022.9252 3801518.5044 7315.2000 142.0312 211.9511 2.2758 596.0000 640.0800 152.4000
10942331 311855.8395 3801654.1777 7315.2000 142.0312 212.2451 2.0436 597.0000 640.0800 152.4000
10942331 311688.7539 3801789.8510 7315.2000 142.0312 212.5390 1.8113 598.0000 640.0800 152.4000
10942331 311521.6682 3801925.5243 7315.2000 142.0312 212.8330 1.5791 599.0000 640.0800 152.4000
10942331 311354.5826 3802061.1977 7315.2000 142.0312 213.1270 1.3469 600.0000 640.0800 152.4000
10942331 311187.4969 3802196.8710 7315.2000 142.0312 213.4210 1.1147 601.0000 640.0800 152.4000
10942331 311020.4113 3802332.5443 7315.2000 142.0312 213.7149 0.8824 602.0000 640.0800 152.4000
10942331 310853.3256 3802468.2176 7315.2000 142.0312 214.0089 0.6502 603.0000 640.0800 152.4000
10942331 310747.8819 3802554.4440 7315.2000 142.0312 214.3519 0.5418 604.0000 640.0800 152.4000
10942331 310642.4383 3802640.6705 7315.2000 142.0312 214.6948 0.4335 605.0000 640.0800 152.4000
10942331 310536.9946 3802726.8969 7315.2000 142.0312 215.0378 0.3251 606.0000 640.0800 152.4000
10942331 310363.4986 3802861.6316 7315.2000 142.0312 215.5522 0.3251 607.0000 640.0800 152.4000
10942331 310175.6997 3803017.8240 7315.2000 142.0312 215.5522 0.3251 608.0000 640.0800 152.4000
10942331 310014.0846 3803149.3615 7315.2000 142.0312 215.5522 0.3251 609.0000 640.0800 152.4000
10942331 309878.4796 3803258.9322 7315.2000 142.0312 215.7237 0.3251 610.0000 640.0800 152.4000
10942331 309742.8746 3803368.5029 7315.2000 142.0312 215.8952 0.3251 611.0000 640.0800 152.4000
10942331 309607.2695 3803478.0737 7315.2000 142.0312 216.0667 0.3251 612.0000 640.0800 152.4000
10942331 309200.4545 3803806.7858 7315.2000 142.0312 216.0667 0.3251 613.0000 640.0800 152.4000
