10942331 368663 3.755e+06 4914.9 136.406 184.171 9.42848 228.0000 640.0800 152.4000
10942331 368616.8502 3754821.7049 4924.3285 136.4060 184.1710 9.4285 229.0000 640.0800 152.4000
10942331 368522.9216 3755142.4009 4922.5200 136.4062 184.1711 9.1034 230.0000 640.0800 152.4000
10942331 368408.7837 3755253.5644 4930.1400 136.4062 184.6856 9.1034 231.0000 640.0800 152.4000
10942331 368184.0362 3755475.4239 4945.3800 136.4062 184.6856 9.1034 232.0000 640.0800 152.4000
10942331 368184.0362 3755475.4239 4945.3800 136.4062 184.6856 9.1034 233.0000 640.0800 152.4000
10942331 368137.7932 3755296.6213 4954.4834 136.4062 184.6856 9.1034 234.0000 640.0800 152.4000
10942331 368091.5503 3755117.8188 4963.5868 136.4062 184.6856 9.1034 235.0000 640.0800 152.4000
10942331 368045.3073 3754939.0162 4972.6902 136.4062 184.6856 9.1034 236.0000 640.0800 152.4000
10942331 367565.4839 3756083.9880 4983.4800 136.4062 185.2000 8.7782 237.0000 640.0800 152.4000
10942331 367420.7736 3756226.4776 4991.1000 136.4062 185.2000 8.7782 238.0000 640.0800 152.4000
10942331 367293.4594 3756351.8022 4998.7200 136.4062 185.7144 8.1280 239.0000 640.0800 152.4000
10942331 367246.9588 3756172.0036 5006.8480 136.4062 185.7144 8.1280 240.0000 640.0800 152.4000
10942331 367200.4583 3755992.2050 5014.9760 136.4062 185.7144 8.1280 241.0000 640.0800 152.4000
10942331 367293.4594 3756351.8022 4998.7200 137.8125 186.2289 6.5024 242.0000 640.0800 152.4000
10942331 367463.6865 3756276.2777 5005.2224 137.8125 186.2289 6.5024 243.0000 640.0800 152.4000
10942331 367633.9135 3756200.7532 5011.7248 137.8125 186.2289 6.5024 244.0000 640.0800 152.4000
10942331 367804.1406 3756125.2287 5018.2272 137.8125 186.2289 6.5024 245.0000 640.0800 152.4000
10942331 367974.3677 3756049.7042 5024.7296 137.8125 186.2289 6.5024 246.0000 640.0800 152.4000
10942331 368144.5947 3755974.1797 5031.2320 137.8125 186.2289 6.5024 247.0000 640.0800 152.4000
10942331 368314.8218 3755898.6552 5037.7344 137.8125 186.2289 6.5024 248.0000 640.0800 152.4000
10942331 368485.0488 3755823.1307 5044.2368 137.8125 186.2289 6.5024 249.0000 640.0800 152.4000
10942331 368655.2759 3755747.6062 5050.7392 137.8125 186.2289 6.5024 250.0000 640.0800 152.4000
10942331 365578.7233 3757929.9991 5090.1600 137.8125 186.2289 6.5024 251.0000 640.0800 152.4000
10942331 365748.9504 3757854.4746 5096.6624 137.8125 186.2289 6.5024 252.0000 640.0800 152.4000
10942331 365919.1774 3757778.9501 5103.1648 137.8125 186.2289 6.5024 253.0000 640.0800 152.4000
10942331 366089.4045 3757703.4256 5109.6672 137.8125 186.2289 6.5024 254.0000 640.0800 152.4000
10942331 366259.6316 3757627.9011 5116.1696 137.8125 186.2289 6.5024 255.0000 640.0800 152.4000
10942331 366429.8586 3757552.3766 5122.6720 137.8125 186.2289 6.5024 256.0000 640.0800 152.4000
10942331 366600.0857 3757476.8521 5129.1744 137.8125 186.2289 6.5024 257.0000 640.0800 152.4000
10942331 366770.3127 3757401.3276 5135.6768 137.8125 186.2289 6.5024 258.0000 640.0800 152.4000
10942331 365578.7233 3757929.9991 5090.1600 142.0312 187.7722 8.1280 259.0000 640.0800 152.4000
10942331 364239.9795 3759039.4180 5166.3600 142.0312 187.7722 8.1280 260.0000 640.0800 152.4000
10942331 364091.5869 3758924.3613 5174.4880 142.0312 187.7722 8.1280 261.0000 640.0800 152.4000
10942331 364163.3205 3759102.2899 5166.3600 142.0312 187.7722 8.1280 262.0000 640.0800 152.4000
10942331 364014.9279 3758987.2332 5174.4880 142.0312 187.7722 8.1280 263.0000 640.0800 152.4000
10942331 364163.3205 3759102.2899 5166.3600 142.0312 187.2578 10.4038 264.0000 640.0800 152.4000
10942331 364163.3205 3759102.2899 5166.3600 142.0312 187.2578 11.0541 265.0000 640.0800 152.4000
10942331 363424.6167 3759705.2579 5219.7000 142.0312 187.2578 11.0541 266.0000 640.0800 152.4000
10942331 363424.6167 3759705.2579 5219.7000 142.0312 187.2578 12.0294 267.0000 640.0800 152.4000
10942331 363216.2212 3759872.4302 5234.9400 142.0312 187.2578 12.0294 268.0000 640.0800 152.4000
10942331 363216.2212 3759872.4302 5234.9400 142.0312 186.7433 12.0294 269.0000 640.0800 152.4000
10942331 363216.2212 3759872.4302 5234.9400 142.0312 186.2289 11.7043 270.0000 640.0800 152.4000
10942331 363216.2212 3759872.4302 5234.9400 142.0312 186.2289 11.3792 271.0000 640.0800 152.4000
10942331 362508.9499 3760447.0967 5288.2800 142.0312 186.2289 11.0541 272.0000 640.0800 152.4000
10942331 362361.7769 3760332.9857 5299.3341 142.0312 186.2289 11.0541 273.0000 640.0800 152.4000
10942331 362364.0014 3760563.4417 5303.5200 142.0312 186.2289 11.0541 274.0000 640.0800 152.4000
10942331 362226.7049 3760672.4848 5311.1400 142.0312 186.2289 10.7290 275.0000 640.0800 152.4000
10942331 361978.0270 3760878.3526 5326.3800 142.0312 186.2289 10.7290 276.0000 640.0800 152.4000
10942331 361826.7483 3760994.7987 5334.0000 142.0312 186.7433 10.0787 277.0000 640.0800 152.4000
10942331 361683.9617 3761113.2389 5341.6200 142.0312 186.7433 9.7536 278.0000 640.0800 152.4000
10942331 361546.7552 3761227.3687 5349.2400 142.0312 186.7433 9.7536 279.0000 640.0800 152.4000
10942331 361408.1363 3761341.0982 5356.8600 142.0312 186.7433 9.1034 280.0000 640.0800 152.4000
10942331 361260.5568 3761226.6720 5365.9634 142.0312 186.7433 9.1034 281.0000 640.0800 152.4000
10942331 361116.1826 3761573.8572 5372.1000 142.0312 186.7433 9.1034 282.0000 640.0800 152.4000
10942331 360968.6031 3761459.4310 5381.2034 142.0312 186.7433 9.1034 283.0000 640.0800 152.4000
10942331 360843.7711 3761792.3758 5387.3400 142.0312 186.7433 9.1034 284.0000 640.0800 152.4000
10942331 360696.1916 3761677.9496 5396.4434 142.0312 186.7433 9.1034 285.0000 640.0800 152.4000
10942331 360548.6121 3761563.5234 5405.5468 142.0312 186.7433 9.1034 286.0000 640.0800 152.4000
10942331 360394.5714 3762162.8681 5417.8200 142.0312 186.7433 9.1034 287.0000 640.0800 152.4000
10942331 360246.9919 3762048.4419 5426.9234 142.0312 186.7433 9.1034 288.0000 640.0800 152.4000
10942331 360099.4124 3761934.0157 5436.0268 142.0312 186.7433 9.1034 289.0000 640.0800 152.4000
10942331 359951.8329 3761819.5895 5445.1302 142.0312 186.7433 9.1034 290.0000 640.0800 152.4000
10942331 359804.2535 3761705.1633 5454.2336 142.0312 186.7433 9.1034 291.0000 640.0800 152.4000
10942331 359656.6740 3761590.7371 5463.3370 142.0312 186.7433 9.1034 292.0000 640.0800 152.4000
10942331 359509.0945 3761476.3109 5472.4404 142.0312 186.7433 9.1034 293.0000 640.0800 152.4000
10942331 359361.5150 3761361.8847 5481.5438 142.0312 186.7433 9.1034 294.0000 640.0800 152.4000
10942331 359203.6507 3763132.5222 5471.1600 142.0312 186.7433 9.1034 295.0000 640.0800 152.4000
10942331 359043.4263 3763258.8813 5478.7800 142.0312 186.7433 9.1034 296.0000 640.0800 152.4000
10942331 358895.8468 3763144.4551 5487.8834 142.0312 186.7433 9.1034 297.0000 640.0800 152.4000
10942331 358748.2673 3763030.0289 5496.9868 142.0312 186.7433 9.1034 298.0000 640.0800 152.4000
10942331 358600.6878 3762915.6027 5506.0902 142.0312 186.7433 9.1034 299.0000 640.0800 152.4000
10942331 358462.0198 3763733.8384 5494.0200 142.0312 186.7433 9.1034 300.0000 640.0800 152.4000
10942331 358462.0198 3763733.8384 5494.0200 142.0312 189.3156 5.5270 301.0000 640.0800 152.4000
10942331 358170.2498 3763969.2319 5509.2600 142.0312 189.3156 5.5270 302.0000 640.0800 152.4000
10942331 358170.2498 3763969.2319 5509.2600 142.0312 189.8300 5.8522 303.0000 640.0800 152.4000
10942331 358020.2310 3763852.9143 5515.1122 142.0312 189.8300 5.8522 304.0000 640.0800 152.4000
10942331 358170.2498 3763969.2319 5509.2600 142.0312 190.3444 6.1773 305.0000 640.0800 152.4000
10942331 358019.8244 3763852.5991 5515.4373 142.0312 190.3444 6.1773 306.0000 640.0800 152.4000
10942331 357433.6431 3764568.0215 5539.7400 142.0312 190.3444 6.1773 307.0000 640.0800 152.4000
10942331 357433.6431 3764568.0215 5539.7400 142.0312 190.3444 6.8275 308.0000 640.0800 152.4000
10942331 357146.1834 3764805.4999 5547.3600 142.0312 190.3444 6.8275 309.0000 640.0800 152.4000
10942331 356995.7580 3764688.8671 5554.1875 142.0312 190.3444 6.8275 310.0000 640.0800 152.4000
10942331 356993.0213 3764929.2513 5554.9800 142.0312 191.3733 7.1526 311.0000 640.0800 152.4000
10942331 356841.7828 3764811.9881 5562.1326 142.0312 191.3733 7.1526 312.0000 640.0800 152.4000
10942331 356690.5443 3764694.7249 5569.2852 142.0312 191.3733 7.1526 313.0000 640.0800 152.4000
10942331 356525.1756 3765305.3027 5577.8400 142.0312 191.3733 7.1526 314.0000 640.0800 152.4000
10942331 356378.3316 3765426.4303 5585.4600 142.0312 191.3733 7.1526 315.0000 640.0800 152.4000
10942331 356257.2356 3765526.0125 5585.4600 142.0312 191.8878 6.8275 316.0000 640.0800 152.4000
10942331 355994.7956 3765736.9149 5600.7000 142.0312 191.8878 6.8275 317.0000 640.0800 152.4000
10942331 355994.7956 3765736.9149 5600.7000 142.0312 191.8878 7.1526 318.0000 640.0800 152.4000
10942331 355994.7956 3765736.9149 5600.7000 142.0312 191.8878 7.1526 319.0000 640.0800 152.4000
10942331 355484.0070 3766156.4124 5623.5600 142.0312 192.4022 7.1526 320.0000 640.0800 152.4000
10942331 355339.2703 3766275.4096 5631.1800 142.0312 192.4022 7.1526 321.0000 640.0800 152.4000
10942331 355182.6334 3766399.2461 5638.8000 142.0312 192.9167 7.4778 322.0000 640.0800 152.4000
10942331 355030.1752 3766281.0372 5646.2778 142.0312 192.9167 7.4778 323.0000 640.0800 152.4000
10942331 355031.7073 3766527.6521 5646.4200 142.0312 192.9167 7.4778 324.0000 640.0800 152.4000
10942331 354870.8910 3766654.0970 5654.0400 142.0312 192.9167 7.4778 325.0000 640.0800 152.4000
10942331 354783.1956 3766724.4142 5654.0400 142.0312 192.9167 7.4778 326.0000 640.0800 152.4000
10942331 354630.1668 3766852.8596 5661.6600 142.0312 192.9167 7.4778 327.0000 640.0800 152.4000
10942331 354477.7086 3766734.6507 5669.1378 142.0312 192.9167 7.4778 328.0000 640.0800 152.4000
10942331 354325.2504 3766616.4417 5676.6156 142.0312 192.9167 7.4778 329.0000 640.0800 152.4000
10942331 354133.3638 3767257.8349 5684.5200 142.0312 193.4311 7.4778 330.0000 640.0800 152.4000
10942331 353910.6563 3767435.1828 5692.1400 142.0312 193.4311 7.4778 331.0000 640.0800 152.4000
10942331 353757.6509 3767563.6432 5699.7600 142.0312 193.4311 7.8029 332.0000 640.0800 152.4000
10942331 353622.6672 3767672.7861 5707.3800 142.0312 193.4311 7.4778 333.0000 640.0800 152.4000
10942331 353388.2223 3767864.2925 5722.6200 142.0312 193.4311 7.4778 334.0000 640.0800 152.4000
10942331 353305.4463 3767932.4326 5722.6200 142.0312 193.4311 7.8029 335.0000 640.0800 152.4000
10942331 353102.2998 3768097.2266 5737.8600 142.0312 193.4311 7.8029 336.0000 640.0800 152.4000
10942331 352943.7211 3768228.3269 5745.4800 142.0312 193.4311 8.1280 337.0000 640.0800 152.4000
10942331 352801.1212 3768344.7944 5753.1000 142.0312 193.4311 8.4531 338.0000 640.0800 152.4000
10942331 352648.2565 3768226.2703 5761.5531 142.0312 193.4311 8.4531 339.0000 640.0800 152.4000
10942331 352488.0982 3768599.7510 5768.3400 142.0312 193.9456 8.7782 340.0000 640.0800 152.4000
10942331 352339.2439 3768720.9783 5775.9600 142.0312 193.9456 8.7782 341.0000 640.0800 152.4000
10942331 352177.1650 3768852.1473 5783.5800 142.0312 193.9456 8.4531 342.0000 640.0800 152.4000
10942331 352023.8937 3768733.3079 5792.0331 142.0312 193.9456 8.4531 343.0000 640.0800 152.4000
10942331 352026.2457 3768975.9512 5791.2000 142.0312 193.9456 7.8029 344.0000 640.0800 152.4000
10942331 351881.6286 3769097.1200 5798.8200 142.0312 193.9456 7.1526 345.0000 640.0800 152.4000
10942331 351672.2336 3769264.5843 5806.4400 142.0312 193.9456 6.5024 346.0000 640.0800 152.4000
10942331 351583.8818 3769334.9441 5806.4400 142.0312 194.4600 5.8522 347.0000 640.0800 152.4000
10942331 351363.4565 3769516.9760 5814.0600 142.0312 194.4600 5.5270 348.0000 640.0800 152.4000
10942331 351209.7787 3769397.8214 5819.5870 142.0312 194.4600 5.5270 349.0000 640.0800 152.4000
10942331 351128.3652 3769706.4381 5821.6800 142.0312 194.9744 5.5270 350.0000 640.0800 152.4000
10942331 350884.3162 3769907.8960 5829.3000 142.0312 195.4889 5.8522 351.0000 640.0800 152.4000
10942331 350737.6154 3770029.1168 5836.9200 142.0312 195.4889 6.5024 352.0000 640.0800 152.4000
10942331 350598.5168 3770140.9107 5844.5400 142.0312 195.4889 6.8275 353.0000 640.0800 152.4000
10942331 350461.5674 3770254.7885 5852.1600 142.0312 195.4889 6.8275 354.0000 640.0800 152.4000
10942331 350307.2124 3770381.2156 5859.7800 142.0312 195.4889 6.8275 355.0000 640.0800 152.4000
10942331 350143.0708 3770512.0323 5867.4000 142.0312 195.4889 6.8275 356.0000 640.0800 152.4000
10942331 350011.7316 3770623.7124 5867.4000 142.0312 196.0033 6.5024 357.0000 640.0800 152.4000
10942331 349775.2461 3770810.6946 5875.0200 142.0312 196.0033 6.5024 358.0000 640.0800 152.4000
10942331 349622.3512 3770939.2264 5882.6400 142.0312 196.0033 6.1773 359.0000 640.0800 152.4000
10942331 349532.6624 3771012.1673 5890.2600 142.0312 196.0033 6.1773 360.0000 640.0800 152.4000
10942331 349362.2530 3771146.0607 5890.2600 142.0312 196.5178 6.1773 361.0000 640.0800 152.4000
10942331 349204.4744 3771276.7936 5897.8800 142.0312 196.5178 6.1773 362.0000 640.0800 152.4000
10942331 349038.4138 3771417.8174 5905.5000 142.0312 196.5178 6.1773 363.0000 640.0800 152.4000
10942331 348811.0047 3771597.4872 5913.1200 142.0312 196.5178 6.1773 364.0000 640.0800 152.4000
10942331 348656.6868 3771723.5200 5920.7400 142.0312 197.0322 5.5270 365.0000 640.0800 152.4000
10942331 348569.1249 3771796.4368 5920.7400 142.0312 197.5467 5.2019 366.0000 640.0800 152.4000
10942331 348343.8459 3771976.0847 5928.3600 142.0312 198.0611 4.8768 367.0000 640.0800 152.4000
10942331 348187.3222 3771854.7236 5933.2368 142.0312 198.0611 4.8768 368.0000 640.0800 152.4000
10942331 348177.7695 3772114.5864 5935.9800 142.0312 198.0611 4.8768 369.0000 640.0800 152.4000
10942331 348021.4382 3772245.7408 5935.9800 142.0312 198.0611 4.5517 370.0000 640.0800 152.4000
10942331 347931.7332 3772316.1597 5943.6000 142.0312 198.0611 4.5517 371.0000 640.0800 152.4000
10942331 347755.9222 3772461.5968 5943.6000 142.0312 198.5756 4.8768 372.0000 640.0800 152.4000
10942331 347595.3786 3772592.8269 5951.2200 142.0312 198.5756 5.5270 373.0000 640.0800 152.4000
10942331 347443.1296 3772714.1933 5958.8400 142.0312 199.0900 6.1773 374.0000 640.0800 152.4000
10942331 347272.8145 3772850.2421 5966.4600 142.0312 199.0900 6.5024 375.0000 640.0800 152.4000
10942331 347119.9522 3772976.7020 5966.4600 142.0312 199.0900 6.5024 376.0000 640.0800 152.4000
10942331 346952.4965 3773114.8265 5974.0800 142.0312 199.0900 6.8275 377.0000 640.0800 152.4000
10942331 346786.3436 3773246.1627 5981.7000 142.0312 199.0900 6.8275 378.0000 640.0800 152.4000
10942331 346651.5623 3773357.9499 5989.3200 142.0312 199.0900 7.1526 379.0000 640.0800 152.4000
10942331 346494.5688 3773489.1427 5996.9400 142.0312 199.0900 7.4778 380.0000 640.0800 152.4000
10942331 346334.7226 3773617.8460 6004.5600 142.0312 199.0900 7.8029 381.0000 640.0800 152.4000
10942331 346248.5626 3773688.2246 6012.1800 142.0312 199.0900 8.1280 382.0000 640.0800 152.4000
10942331 346088.7645 3773819.4706 6019.8000 142.0312 199.0900 8.4531 383.0000 640.0800 152.4000
10942331 345942.1442 3773938.2327 6027.4200 142.0312 199.0900 8.1280 384.0000 640.0800 152.4000
10942331 345650.9568 3774171.4992 6035.0400 142.0312 199.6044 8.1280 385.0000 640.0800 152.4000
10942331 345493.9490 3774300.1715 6042.6600 142.0312 199.6044 7.4778 386.0000 640.0800 152.4000
10942331 345349.3857 3774414.6784 6050.2800 142.0312 199.6044 7.1526 387.0000 640.0800 152.4000
10942331 345206.9722 3774531.2682 6057.9000 142.0312 199.6044 6.8275 388.0000 640.0800 152.4000
10942331 345138.9688 3774591.6271 6057.9000 142.0312 199.6044 6.8275 389.0000 640.0800 152.4000
10942331 344904.0859 3774778.7162 6073.1400 142.0312 200.1189 7.1526 390.0000 640.0800 152.4000
10942331 344675.5117 3774963.5919 6080.7600 142.0312 200.1189 7.1526 391.0000 640.0800 152.4000
10942331 344495.5841 3775109.5865 6088.3800 142.0312 200.1189 7.1526 392.0000 640.0800 152.4000
10942331 344419.8895 3775172.6170 6088.3800 142.0312 200.1189 7.4778 393.0000 640.0800 152.4000
10942331 344185.1122 3775364.3787 6103.6200 142.0312 200.1189 7.8029 394.0000 640.0800 152.4000
10942331 344026.9622 3775241.7567 6111.4229 142.0312 200.1189 7.8029 395.0000 640.0800 152.4000
10942331 344025.2940 3775491.0085 6111.2400 142.0312 200.1189 8.1280 396.0000 640.0800 152.4000
10942331 343874.5448 3775612.4131 6118.8600 142.0312 200.1189 8.1280 397.0000 640.0800 152.4000
10942331 343728.0221 3775733.7502 6126.4800 142.0312 200.1189 8.4531 398.0000 640.0800 152.4000
10942331 343571.6928 3775857.7915 6134.1000 142.0312 200.1189 8.4531 399.0000 640.0800 152.4000
10942331 343362.6713 3776030.1058 6141.7200 142.0312 200.1189 8.4531 400.0000 640.0800 152.4000
10942331 343204.3602 3776161.3805 6149.3400 142.0312 200.1189 8.1280 401.0000 640.0800 152.4000
10942331 343050.1137 3776282.8577 6156.9600 142.0312 200.1189 8.1280 402.0000 640.0800 152.4000
10942331 342903.6542 3776406.7468 6164.5800 142.0312 200.1189 7.8029 403.0000 640.0800 152.4000
10942331 342816.1377 3776477.1823 6172.2000 142.0312 200.6333 7.1526 404.0000 640.0800 152.4000
10942331 342561.9269 3776681.5843 6179.8200 142.0312 200.6333 6.8275 405.0000 640.0800 152.4000
10942331 342400.1549 3776815.0475 6187.4400 142.0312 200.6333 6.8275 406.0000 640.0800 152.4000
10942331 342317.4511 3776878.2138 6187.4400 142.0312 200.6333 5.8522 407.0000 640.0800 152.4000
10942331 342097.3441 3777058.3614 6195.0600 142.0312 201.1478 5.8522 408.0000 640.0800 152.4000
10942331 341862.7032 3777252.7231 6202.6800 142.0312 201.1478 5.5270 409.0000 640.0800 152.4000
10942331 341703.7401 3777129.4706 6208.2070 142.0312 201.1478 5.5270 410.0000 640.0800 152.4000
10942331 341544.7771 3777006.2181 6213.7340 142.0312 201.1478 5.5270 411.0000 640.0800 152.4000
10942331 341385.8140 3776882.9656 6219.2610 142.0312 201.1478 5.5270 412.0000 640.0800 152.4000
10942331 341333.5806 3777680.5590 6225.5400 142.0312 201.1478 6.1773 413.0000 640.0800 152.4000
10942331 341174.6175 3777557.3065 6231.7173 142.0312 201.1478 6.1773 414.0000 640.0800 152.4000
10942331 341098.8495 3777867.7493 6233.1600 142.0312 201.6622 6.5024 415.0000 640.0800 152.4000
10942331 340853.1133 3778069.5197 6240.7800 142.0312 201.6622 6.5024 416.0000 640.0800 152.4000
10942331 340693.7437 3777945.9520 6247.2824 142.0312 201.6622 6.5024 417.0000 640.0800 152.4000
10942331 340507.3988 3778351.2769 6256.0200 142.0312 201.6622 6.8275 418.0000 640.0800 152.4000
10942331 340300.5199 3778518.9745 6263.6400 142.0312 201.6622 6.8275 419.0000 640.0800 152.4000
10942331 340206.7534 3778592.0817 6271.2600 142.0312 201.6622 7.1526 420.0000 640.0800 152.4000
10942331 339963.1225 3778791.3028 6278.8800 142.0312 201.6622 6.8275 421.0000 640.0800 152.4000
10942331 339808.3000 3778915.3869 6286.5000 142.0312 202.1767 6.8275 422.0000 640.0800 152.4000
10942331 339648.5238 3778791.5039 6293.3275 142.0312 202.1767 6.8275 423.0000 640.0800 152.4000
10942331 339650.7901 3779046.7135 6294.1200 142.0312 202.6911 6.5024 424.0000 640.0800 152.4000
10942331 339476.5229 3779185.5228 6301.7400 142.0312 202.6911 6.5024 425.0000 640.0800 152.4000
10942331 339326.5511 3779304.4548 6301.7400 142.0312 202.6911 6.5024 426.0000 640.0800 152.4000
10942331 339151.0094 3779450.4863 6309.3600 142.0312 202.6911 6.8275 427.0000 640.0800 152.4000
10942331 339067.0663 3779520.8989 6316.9800 142.0312 202.6911 6.8275 428.0000 640.0800 152.4000
10942331 338906.8836 3779396.7007 6323.8075 142.0312 202.6911 6.8275 429.0000 640.0800 152.4000
10942331 338625.6859 3779880.5400 6332.2200 142.0312 203.2056 6.5024 430.0000 640.0800 152.4000
10942331 338537.4935 3779948.9148 6339.8400 142.0312 203.2056 6.5024 431.0000 640.0800 152.4000
10942331 338258.5519 3780177.5664 6347.4600 142.0312 203.2056 6.8275 432.0000 640.0800 152.4000
10942331 338097.9626 3780053.0530 6354.2875 142.0312 203.2056 6.8275 433.0000 640.0800 152.4000
10942331 338010.8188 3780379.0293 6362.7000 142.0312 202.6911 9.4285 434.0000 640.0800 152.4000
10942331 337844.9609 3780513.0720 6370.3200 142.0312 202.6911 9.7536 435.0000 640.0800 152.4000
10942331 337684.7782 3780388.8738 6380.0736 142.0312 202.6911 9.7536 436.0000 640.0800 152.4000
10942331 337686.8015 3780644.4459 6385.5600 142.0312 202.6911 9.7536 437.0000 640.0800 152.4000
10942331 337288.5574 3780969.9804 6400.8000 142.0312 202.6911 9.7536 438.0000 640.0800 152.4000
10942331 337288.5574 3780969.9804 6400.8000 142.0312 202.1767 9.4285 439.0000 640.0800 152.4000
10942331 337128.7812 3780846.0974 6410.2285 142.0312 202.1767 9.4285 440.0000 640.0800 152.4000
10942331 336969.0050 3780722.2145 6419.6570 142.0312 202.1767 9.4285 441.0000 640.0800 152.4000
10942331 336793.1625 3781371.6989 6431.2800 142.0312 202.1767 8.7782 442.0000 640.0800 152.4000
10942331 336641.1932 3781493.2515 6438.9000 142.0312 202.1767 8.7782 443.0000 640.0800 152.4000
10942331 336512.1877 3781600.0194 6446.5200 142.0312 202.1767 8.7782 444.0000 640.0800 152.4000
10942331 336381.7859 3781707.2367 6454.1400 142.0312 202.1767 8.7782 445.0000 640.0800 152.4000
10942331 336102.2375 3781935.5458 6469.3800 142.0312 202.1767 8.7782 446.0000 640.0800 152.4000
10942331 336102.2375 3781935.5458 6469.3800 142.0312 202.1767 8.1280 447.0000 640.0800 152.4000
10942331 335942.4613 3781811.6628 6477.5080 142.0312 202.1767 8.1280 448.0000 640.0800 152.4000
10942331 335628.4497 3782320.0277 6484.6200 142.0312 202.6911 7.8029 449.0000 640.0800 152.4000
10942331 335460.5499 3782454.1522 6492.2400 142.0312 202.6911 7.4778 450.0000 640.0800 152.4000
10942331 335298.9323 3782585.2076 6499.8600 142.0312 202.6911 7.4778 451.0000 640.0800 152.4000
10942331 335133.1517 3782719.3014 6507.4800 142.0312 202.6911 7.4778 452.0000 640.0800 152.4000
10942331 334972.9690 3782595.1032 6514.9578 142.0312 202.6911 7.4778 453.0000 640.0800 152.4000
10942331 334961.1653 3782860.2783 6515.1000 142.0312 202.6911 7.8029 454.0000 640.0800 152.4000
10942331 334797.4965 3782993.9183 6522.7200 142.0312 202.6911 7.8029 455.0000 640.0800 152.4000
10942331 334655.3050 3783108.5634 6530.3400 142.0312 202.6911 7.8029 456.0000 640.0800 152.4000
10942331 334497.1887 3783237.4564 6537.9600 142.0312 202.6911 7.1526 457.0000 640.0800 152.4000
10942331 334497.1887 3783237.4564 6537.9600 142.0312 202.6911 7.1526 458.0000 640.0800 152.4000
10942331 334497.1887 3783237.4564 6537.9600 142.0312 202.6911 6.8275 459.0000 640.0800 152.4000
10942331 334046.4379 3783604.6927 6560.8200 142.0312 202.6911 7.4778 460.0000 640.0800 152.4000
10942331 333808.6092 3783799.3314 6568.4400 142.0312 202.1767 8.7782 461.0000 640.0800 152.4000
10942331 333648.8330 3783675.4484 6577.2182 142.0312 202.1767 8.7782 462.0000 640.0800 152.4000
10942331 333808.6092 3783799.3314 6568.4400 142.0312 202.1767 9.7536 463.0000 640.0800 152.4000
10942331 333260.7844 3784242.3848 6598.9200 142.0312 202.1767 9.7536 464.0000 640.0800 152.4000
10942331 333110.3128 3784363.9736 6614.1600 142.0312 201.6622 10.4038 465.0000 640.0800 152.4000
10942331 332948.8132 3784498.0337 6621.7800 142.0312 201.6622 10.4038 466.0000 640.0800 152.4000
10942331 332794.1310 3784619.7029 6629.4000 142.0312 201.6622 10.0787 467.0000 640.0800 152.4000
10942331 332632.6327 3784753.3457 6637.0200 142.0312 201.6622 10.0787 468.0000 640.0800 152.4000
10942331 332632.6327 3784753.3457 6637.0200 142.0312 201.6622 9.7536 469.0000 640.0800 152.4000
10942331 332310.9352 3785013.8463 6659.8800 142.0312 201.6622 9.7536 470.0000 640.0800 152.4000
10942331 332159.0820 3785135.4764 6667.5000 142.0312 201.6622 9.4285 471.0000 640.0800 152.4000
10942331 331985.1202 3785279.0878 6675.1200 142.0312 201.6622 9.1034 472.0000 640.0800 152.4000
10942331 331825.7506 3785155.5201 6684.2234 142.0312 201.6622 9.1034 473.0000 640.0800 152.4000
10942331 331841.0092 3785400.5851 6682.7400 142.0312 201.6622 8.7782 474.0000 640.0800 152.4000
10942331 331841.0092 3785400.5851 6682.7400 142.0312 201.6622 8.7782 475.0000 640.0800 152.4000
10942331 331528.9857 3785649.0924 6697.9800 142.0312 201.6622 8.4531 476.0000 640.0800 152.4000
10942331 331388.9829 3785763.7525 6705.6000 142.0312 201.6622 8.7782 477.0000 640.0800 152.4000
10942331 331070.8616 3786023.8124 6720.8400 142.0312 201.6622 8.7782 478.0000 640.0800 152.4000
10942331 331070.8616 3786023.8124 6720.8400 142.0312 201.6622 8.7782 479.0000 640.0800 152.4000
10942331 330895.5725 3786170.0091 6728.4600 142.0312 201.6622 8.4531 480.0000 640.0800 152.4000
10942331 330599.5926 3786408.5278 6743.7000 142.0312 201.1478 8.4531 481.0000 640.0800 152.4000
10942331 330458.9475 3786525.3308 6751.3200 142.0312 201.6622 8.1280 482.0000 640.0800 152.4000
10942331 330298.8368 3786654.3376 6758.9400 142.0312 201.6622 8.1280 483.0000 640.0800 152.4000
10942331 330131.0896 3786788.5640 6766.5600 142.0312 201.6622 7.1526 484.0000 640.0800 152.4000
10942331 329991.1590 3786905.3618 6774.1800 142.0312 201.6622 6.8275 485.0000 640.0800 152.4000
10942331 329821.3885 3787043.8630 6774.1800 142.0312 201.6622 6.1773 486.0000 640.0800 152.4000
10942331 329662.0189 3786920.2953 6780.3573 142.0312 201.6622 6.1773 487.0000 640.0800 152.4000
10942331 329821.3885 3787043.8630 6774.1800 142.0312 201.6622 6.1773 488.0000 640.0800 152.4000
10942331 329821.3885 3787043.8630 6774.1800 142.0312 201.6622 5.8522 489.0000 640.0800 152.4000
10942331 329330.8011 3787443.3877 6797.0400 142.0312 201.6622 5.8522 490.0000 640.0800 152.4000
10942331 329165.2289 3787579.7096 6797.0400 142.0312 201.6622 5.8522 491.0000 640.0800 152.4000
10942331 328987.7585 3787718.7908 6804.6600 142.0312 201.6622 5.5270 492.0000 640.0800 152.4000
10942331 328823.5942 3787854.6705 6812.2800 142.0312 201.6622 5.5270 493.0000 640.0800 152.4000
10942331 328681.5020 3787966.8740 6812.2800 142.0312 202.1767 4.8768 494.0000 640.0800 152.4000
10942331 328508.3096 3788108.4262 6819.9000 142.0312 202.1767 4.2266 495.0000 640.0800 152.4000
10942331 328508.3096 3788108.4262 6819.9000 142.0312 202.6911 3.9014 496.0000 640.0800 152.4000
10942331 328186.8324 3788368.6552 6827.5200 142.0312 203.2056 3.2512 497.0000 640.0800 152.4000
10942331 328015.0605 3788510.1915 6827.5200 142.0312 203.2056 2.9261 498.0000 640.0800 152.4000
10942331 327855.7196 3788639.2301 6827.5200 142.0312 203.2056 2.9261 499.0000 640.0800 152.4000
10942331 327672.0873 3788785.2230 6835.1400 142.0312 203.2056 2.6010 500.0000 640.0800 152.4000
10942331 327510.7407 3788919.3834 6835.1400 142.0312 203.7200 2.6010 501.0000 640.0800 152.4000
10942331 327356.9893 3789045.7893 6842.7600 142.0312 203.7200 2.6010 502.0000 640.0800 152.4000
10942331 327195.9935 3788920.9607 6845.3610 142.0312 203.7200 2.6010 503.0000 640.0800 152.4000
10942331 327034.9976 3788796.1321 6847.9620 142.0312 203.7200 2.6010 504.0000 640.0800 152.4000
10942331 326847.8072 3789455.1101 6850.3800 142.0312 204.2344 3.2512 505.0000 640.0800 152.4000
10942331 326686.4048 3789329.9663 6853.6312 142.0312 204.2344 3.2512 506.0000 640.0800 152.4000
10942331 326525.0025 3789204.8225 6856.8824 142.0312 204.2344 3.2512 507.0000 640.0800 152.4000
10942331 326379.0292 3789842.1292 6858.0000 142.0312 204.2344 3.5763 508.0000 640.0800 152.4000
10942331 326379.0292 3789842.1292 6858.0000 142.0312 205.2633 4.5517 509.0000 640.0800 152.4000
10942331 326048.0200 3790112.7726 6873.2400 142.0312 205.2633 5.2019 510.0000 640.0800 152.4000
10942331 325880.3476 3790244.5421 6873.2400 142.0312 205.2633 5.2019 511.0000 640.0800 152.4000
10942331 325880.3476 3790244.5421 6873.2400 142.0312 205.2633 5.8522 512.0000 640.0800 152.4000
10942331 325718.1321 3790118.7678 6879.0922 142.0312 205.2633 5.8522 513.0000 640.0800 152.4000
10942331 325555.9167 3789992.9936 6884.9444 142.0312 205.2633 5.8522 514.0000 640.0800 152.4000
10942331 325393.7012 3789867.2193 6890.7966 142.0312 205.2633 5.8522 515.0000 640.0800 152.4000
10942331 325132.4562 3790850.9647 6903.7200 142.0312 205.2633 5.8522 516.0000 640.0800 152.4000
10942331 325132.4562 3790850.9647 6903.7200 142.0312 205.7778 5.8522 517.0000 640.0800 152.4000
10942331 324969.8341 3790724.8752 6909.5722 142.0312 205.7778 5.8522 518.0000 640.0800 152.4000
10942331 324661.0154 3791238.5516 6918.9600 142.0312 205.7778 5.8522 519.0000 640.0800 152.4000
10942331 324498.3933 3791112.4621 6924.8122 142.0312 205.7778 5.8522 520.0000 640.0800 152.4000
10942331 324335.7713 3790986.3726 6930.6644 142.0312 205.7778 5.8522 521.0000 640.0800 152.4000
10942331 324173.1492 3790860.2831 6936.5166 142.0312 205.7778 5.8522 522.0000 640.0800 152.4000
10942331 324010.5271 3790734.1935 6942.3688 142.0312 205.7778 5.8522 523.0000 640.0800 152.4000
10942331 323835.0479 3791908.3394 6941.8200 142.0312 205.7778 5.8522 524.0000 640.0800 152.4000
10942331 323835.0479 3791908.3394 6941.8200 142.0312 206.8067 4.2266 525.0000 640.0800 152.4000
10942331 323671.6127 3791781.6194 6946.0466 142.0312 206.8067 4.2266 526.0000 640.0800 152.4000
10942331 323835.0479 3791908.3394 6941.8200 142.0312 206.8067 3.2512 527.0000 640.0800 152.4000
10942331 323228.0281 3792405.6309 6949.4400 142.0312 206.8067 3.2512 528.0000 640.0800 152.4000
10942331 323068.0681 3792532.2316 6957.0600 142.0312 206.8067 3.2512 529.0000 640.0800 152.4000
10942331 323068.0681 3792532.2316 6957.0600 142.0312 207.8356 3.2512 530.0000 640.0800 152.4000
10942331 322903.8198 3792404.8812 6960.3112 142.0312 207.8356 3.2512 531.0000 640.0800 152.4000
10942331 322583.6245 3792929.4906 6964.6800 142.0312 207.8356 3.2512 532.0000 640.0800 152.4000
10942331 322419.3762 3792802.1402 6967.9312 142.0312 207.8356 3.2512 533.0000 640.0800 152.4000
10942331 322255.1279 3792674.7898 6971.1824 142.0312 207.8356 3.2512 534.0000 640.0800 152.4000
10942331 322090.8796 3792547.4393 6974.4336 142.0312 207.8356 3.2512 535.0000 640.0800 152.4000
10942331 321926.6313 3792420.0889 6977.6848 142.0312 207.8356 3.2512 536.0000 640.0800 152.4000
10942331 321762.3830 3792292.7385 6980.9360 142.0312 207.8356 3.2512 537.0000 640.0800 152.4000
10942331 321598.1347 3792165.3881 6984.1872 142.0312 207.8356 3.2512 538.0000 640.0800 152.4000
10942331 321433.8863 3792038.0376 6987.4384 142.0312 207.8356 3.2512 539.0000 640.0800 152.4000
10942331 321269.6380 3791910.6872 6990.6896 142.0312 207.8356 3.2512 540.0000 640.0800 152.4000
10942331 321105.3897 3791783.3368 6993.9408 142.0312 207.8356 3.2512 541.0000 640.0800 152.4000
10942331 320941.1414 3791655.9864 6997.1920 142.0312 207.8356 3.2512 542.0000 640.0800 152.4000
10942331 320776.8931 3791528.6359 7000.4432 142.0312 207.8356 3.2512 543.0000 640.0800 152.4000
10942331 320612.6448 3791401.2855 7003.6944 142.0312 207.8356 3.2512 544.0000 640.0800 152.4000
10942331 320448.3965 3791273.9351 7006.9456 142.0312 207.8356 3.2512 545.0000 640.0800 152.4000
10942331 320284.1482 3791146.5847 7010.1968 142.0312 207.8356 3.2512 546.0000 640.0800 152.4000
10942331 320119.8999 3791019.2343 7013.4480 142.0312 207.8356 3.2512 547.0000 640.0800 152.4000
10942331 319955.6516 3790891.8838 7016.6992 142.0312 207.8356 3.2512 548.0000 640.0800 152.4000
10942331 319791.4033 3790764.5334 7019.9504 142.0312 207.8356 3.2512 549.0000 640.0800 152.4000
10942331 319627.1550 3790637.1830 7023.2016 142.0312 207.8356 3.2512 550.0000 640.0800 152.4000
10942331 319462.9067 3790509.8326 7026.4528 142.0312 207.8356 3.2512 551.0000 640.0800 152.4000
10942331 319298.6584 3790382.4821 7029.7040 142.0312 207.8356 3.2512 552.0000 640.0800 152.4000
10942331 319134.4100 3790255.1317 7032.9552 142.0312 207.8356 3.2512 553.0000 640.0800 152.4000
10942331 318970.1617 3790127.7813 7036.2064 142.0312 207.8356 3.2512 554.0000 640.0800 152.4000
10942331 318805.9134 3790000.4309 7039.4576 142.0312 207.8356 3.2512 555.0000 640.0800 152.4000
10942331 318641.6651 3789873.0805 7042.7088 142.0312 207.8356 3.2512 556.0000 640.0800 152.4000
10942331 318477.4168 3789745.7300 7045.9600 142.0312 207.8356 3.2512 557.0000 640.0800 152.4000
10942331 318313.1685 3789618.3796 7049.2112 142.0312 207.8356 3.2512 558.0000 640.0800 152.4000
10942331 318148.9202 3789491.0292 7052.4624 142.0312 207.8356 3.2512 559.0000 640.0800 152.4000
10942331 317984.6719 3789363.6788 7055.7136 142.0312 207.8356 3.2512 560.0000 640.0800 152.4000
10942331 317820.4236 3789236.3283 7058.9648 142.0312 207.8356 3.2512 561.0000 640.0800 152.4000
10942331 317656.1753 3789108.9779 7062.2160 142.0312 207.8356 3.2512 562.0000 640.0800 152.4000
10942331 317491.9270 3788981.6275 7065.4672 142.0312 207.8356 3.2512 563.0000 640.0800 152.4000
10942331 317327.6787 3788854.2771 7068.7184 142.0312 207.8356 3.2512 564.0000 640.0800 152.4000
10942331 317163.4304 3788726.9266 7071.9696 142.0312 207.8356 3.2512 565.0000 640.0800 152.4000
10942331 316999.1821 3788599.5762 7075.2208 142.0312 207.8356 3.2512 566.0000 640.0800 152.4000
10942331 316834.9337 3788472.2258 7078.4720 142.0312 207.8356 3.2512 567.0000 640.0800 152.4000
10942331 316670.6854 3788344.8754 7081.7232 142.0312 207.8356 3.2512 568.0000 640.0800 152.4000
10942331 316506.4371 3788217.5250 7084.9744 142.0312 207.8356 3.2512 569.0000 640.0800 152.4000
10942331 316342.1888 3788090.1745 7088.2256 142.0312 207.8356 3.2512 570.0000 640.0800 152.4000
10942331 316177.9405 3787962.8241 7091.4768 142.0312 207.8356 3.2512 571.0000 640.0800 152.4000
10942331 316013.6922 3787835.4737 7094.7280 142.0312 207.8356 3.2512 572.0000 640.0800 152.4000
10942331 315849.4439 3787708.1233 7097.9792 142.0312 207.8356 3.2512 573.0000 640.0800 152.4000
10942331 315685.1956 3787580.7728 7101.2304 142.0312 207.8356 3.2512 574.0000 640.0800 152.4000
10942331 315520.9473 3787453.4224 7104.4816 142.0312 207.8356 3.2512 575.0000 640.0800 152.4000
10942331 315356.6990 3787326.0720 7107.7328 142.0312 207.8356 3.2512 576.0000 640.0800 152.4000
10942331 315192.4507 3787198.7216 7110.9840 142.0312 207.8356 3.2512 577.0000 640.0800 152.4000
10942331 315028.2024 3787071.3712 7114.2352 142.0312 207.8356 3.2512 578.0000 640.0800 152.4000
10942331 314863.9541 3786944.0207 7117.4864 142.0312 207.8356 3.2512 579.0000 640.0800 152.4000
10942331 314699.7058 3786816.6703 7120.7376 142.0312 207.8356 3.2512 580.0000 640.0800 152.4000
10942331 314535.4574 3786689.3199 7123.9888 142.0312 207.8356 3.2512 581.0000 640.0800 152.4000
10942331 314371.2091 3786561.9695 7127.2400 142.0312 207.8356 3.2512 582.0000 640.0800 152.4000
10942331 314206.9608 3786434.6190 7130.4912 142.0312 207.8356 3.2512 583.0000 640.0800 152.4000
10942331 314042.7125 3786307.2686 7133.7424 142.0312 207.8356 3.2512 584.0000 640.0800 152.4000
10942331 313878.4642 3786179.9182 7136.9936 142.0312 207.8356 3.2512 585.0000 640.0800 152.4000
10942331 313714.2159 3786052.5678 7140.2448 142.0312 207.8356 3.2512 586.0000 640.0800 152.4000
10942331 313549.9676 3785925.2173 7143.4960 142.0312 207.8356 3.2512 587.0000 640.0800 152.4000
10942331 313385.7193 3785797.8669 7146.7472 142.0312 207.8356 3.2512 588.0000 640.0800 152.4000
10942331 313221.4710 3785670.5165 7149.9984 142.0312 207.8356 3.2512 589.0000 640.0800 152.4000
10942331 313057.2227 3785543.1661 7153.2496 142.0312 207.8356 3.2512 590.0000 640.0800 152.4000
10942331 312892.9744 3785415.8157 7156.5008 142.0312 207.8356 3.2512 591.0000 640.0800 152.4000
10942331 313190.6975 3800571.1066 7299.9600 142.0312 211.4367 2.9261 592.0000 640.0800 152.4000
10942331 313190.6975 3800571.1066 7299.9600 142.0312 211.9511 2.2758 593.0000 640.0800 152.4000
10942331 313023.1968 3800441.2344 7302.2358 142.0312 211.9511 2.2758 594.0000 640.0800 152.4000
10942331 312855.6961 3800311.3622 7304.5116 142.0312 211.9511 2.2758 595.0000 640.0800 152.4000
10942331 312022.9252 3801518.5044 7315.2000 142.0312 211.9511 2.2758 596.0000 640.0800 152.4000
10942331 312022.9252 3801518.5044 7315.2000 142.0312 212.4656 1.6256 597.0000 640.0800 152.4000
10942331 311855.0179 3801388.3170 7316.8256 142.0312 212.4656 1.6256 598.0000 640.0800 152.4000
10942331 312022.9252 3801518.5044 7315.2000 142.0312 213.4944 1.3005 599.0000 640.0800 152.4000
10942331 312022.9252 3801518.5044 7315.2000 142.0312 213.4944 1.3005 600.0000 640.0800 152.4000
10942331 311854.2049 3801387.6866 7316.5005 142.0312 213.4944 1.3005 601.0000 640.0800 152.4000
10942331 312022.9252 3801518.5044 7315.2000 142.0312 214.0089 0.6502 602.0000 640.0800 152.4000
10942331 310853.3256 3802468.2176 7315.2000 142.0312 214.0089 0.6502 603.0000 640.0800 152.4000
10942331 310684.1987 3802337.0845 7315.8502 142.0312 214.0089 0.6502 604.0000 640.0800 152.4000
10942331 310853.3256 3802468.2176 7315.2000 142.0312 215.0378 0.3251 605.0000 640.0800 152.4000
10942331 310536.9946 3802726.8969 7315.2000 142.0312 215.0378 0.3251 606.0000 640.0800 152.4000
10942331 310363.4986 3802861.6316 7315.2000 142.0312 215.5522 0.3251 607.0000 640.0800 152.4000
10942331 310175.6997 3803017.8240 7315.2000 142.0312 215.5522 0.3251 608.0000 640.0800 152.4000
10942331 310014.0846 3803149.3615 7315.2000 142.0312 215.5522 0.3251 609.0000 640.0800 152.4000
10942331 309843.7380 3803017.2828 7315.5251 142.0312 215.5522 0.3251 610.0000 640.0800 152.4000
10942331 310014.0846 3803149.3615 7315.2000 142.0312 216.0667 0.3251 611.0000 640.0800 152.4000
10942331 309843.3314 3803016.9675 7315.5251 142.0312 216.0667 0.3251 612.0000 640.0800 152.4000
10942331 309200.4545 3803806.7858 7315.2000 142.0312 216.0667 0.3251 613.0000 640.0800 152.4000
