10947687 411549 3.68258e+06 2758.44 149.062 125.01 0 3066.0000 640.0800 152.4000
10947687 411549.2492 3682580.0865 2758.4400 149.0625 125.0100 0.0000 3067.0000 640.0800 152.4000
10947687 411442.5921 3682650.0023 2758.4400 149.0625 125.0100 0.0000 3068.0000 640.0800 152.4000
10947687 411327.3876 3682717.4594 2758.4400 149.0625 124.4956 -1331.3664 3069.0000 640.0800 152.4000
10947687 411225.6413 3682780.1424 2758.4400 149.0625 124.4956 -1331.0413 3070.0000 640.0800 152.4000
10947687 411102.7134 3682857.4012 2758.4400 149.0625 124.4956 -1330.7162 3071.0000 640.0800 152.4000
10947687 410949.3921 3682951.8591 2758.4400 149.0625 124.4956 -1330.3910 3072.0000 640.0800 152.4000
10947687 410854.0216 3683011.9498 2758.4400 149.0625 124.4956 -1330.3910 3073.0000 640.0800 152.4000
10947687 410810.1939 3683036.4615 2758.4400 149.0625 124.4956 -1330.0659 3074.0000 640.0800 152.4000
10947687 410649.1020 3683135.2254 2750.8200 149.0625 123.4667 -1330.0659 3075.0000 640.0800 152.4000
10947687 410550.1634 3683193.2371 2750.8200 149.0625 123.4667 -1329.7408 3076.0000 640.0800 152.4000
10947687 410337.5028 3683323.7813 2743.2000 149.0625 123.4667 -1329.0906 3078.0000 640.0800 152.4000
10947687 410228.0206 3683393.7371 2743.2000 149.0625 123.4667 -1328.7654 3079.0000 640.0800 152.4000
10947687 410081.0865 3683485.6124 2735.5800 149.0625 123.4667 -1328.4403 3080.0000 640.0800 152.4000
10947687 410019.6078 3683521.7114 2735.5800 149.0625 123.4667 -1328.4403 3081.0000 640.0800 152.4000
10947687 409906.5779 3683591.7038 2727.9600 149.0625 123.4667 -1328.1152 3082.0000 640.0800 152.4000
10947687 409801.3015 3683654.8580 2727.9600 149.0625 123.4667 -1328.1152 3083.0000 640.0800 152.4000
10947687 409699.5746 3683717.5574 2720.3400 149.0625 122.9522 -1327.7901 3084.0000 640.0800 152.4000
10947687 409586.5257 3683785.0160 2720.3400 149.0625 122.9522 -1327.4650 3085.0000 640.0800 152.4000
10947687 409474.9267 3683855.4233 2712.7200 149.0625 122.9522 -1327.4650 3086.0000 640.0800 152.4000
10947687 409335.7302 3683937.5098 2705.1000 149.0625 122.9522 -1326.4896 3087.0000 640.0800 152.4000
10947687 409288.3781 3683964.1763 2705.1000 149.0625 122.9522 -1326.4896 3089.0000 640.0800 152.4000
10947687 409107.5839 3684080.0699 2697.4800 149.0625 122.9522 -1326.1645 3090.0000 640.0800 152.4000
10947687 409017.8315 3684130.8214 2689.8600 149.0625 122.9522 -1325.8394 3091.0000 640.0800 152.4000
10947687 408911.1656 3684196.1135 2682.2400 149.0625 122.4378 -1325.1891 3092.0000 640.0800 152.4000
10947687 408853.2475 3684232.1869 2682.2400 149.0625 122.4378 -1324.8640 3093.0000 640.0800 152.4000
10947687 408692.1988 3684331.4071 2667.0000 149.0625 122.4378 -1324.5389 3094.0000 640.0800 152.4000
10947687 408636.4134 3684367.4618 2667.0000 149.0625 122.4378 -1324.5389 3095.0000 640.0800 152.4000
10947687 408636.4134 3684367.4618 2667.0000 149.0625 122.4378 -1324.5389 3096.0000 640.0800 152.4000
10947687 408193.4605 3684630.9239 2636.5200 149.0625 122.4378 -1324.5389 3098.0000 640.0800 152.4000
10947687 408193.4605 3684630.9239 2636.5200 149.0625 122.4378 -1324.8640 3101.0000 640.0800 152.4000
10947687 407841.7150 3684846.1675 2613.6600 149.0625 122.4378 -1324.8640 3102.0000 640.0800 152.4000
10947687 407627.6572 3684971.7110 2606.0400 149.0625 122.4378 -1325.1891 3104.0000 640.0800 152.4000
10947687 407486.4091 3685058.9204 2598.4200 149.0625 122.4378 -1325.1891 3105.0000 640.0800 152.4000
10947687 407385.4460 3685124.1757 2590.8000 149.0625 122.4378 -1325.5142 3106.0000 640.0800 152.4000
10947687 407268.1672 3685191.7027 2583.1800 149.0625 121.9233 -1325.5142 3107.0000 640.0800 152.4000
10947687 407166.4723 3685254.4295 2575.5600 149.0625 121.9233 -1325.5142 3108.0000 640.0800 152.4000
10947687 407063.3621 3685317.5939 2575.5600 149.0625 121.9233 -1325.5142 3109.0000 640.0800 152.4000
10947687 406958.1183 3685380.3569 2567.9400 149.0625 121.9233 -1325.5142 3110.0000 640.0800 152.4000
10947687 406856.4070 3685440.9722 2560.3200 149.0625 121.4089 -1325.1891 3111.0000 640.0800 152.4000
10947687 406745.5079 3685506.3298 2552.7000 149.0625 121.4089 -1325.1891 3112.0000 640.0800 152.4000
10947687 406648.1260 3685573.6736 2545.0800 149.0625 121.4089 -1325.1891 3113.0000 640.0800 152.4000
10947687 406532.9437 3685636.5369 2537.4600 149.0625 121.4089 -1324.8640 3114.0000 640.0800 152.4000
10947687 406433.3685 3685697.1364 2537.4600 149.0625 121.4089 -1324.5389 3115.0000 640.0800 152.4000
10947687 406316.1519 3685769.7506 2522.2200 149.0625 121.4089 -1324.2138 3116.0000 640.0800 152.4000
10947687 406133.9809 3685883.1773 2514.6000 149.0625 121.4089 -1323.8886 3118.0000 640.0800 152.4000
10947687 405972.9867 3685982.4441 2499.3600 149.0625 121.4089 -1324.2138 3120.0000 640.0800 152.4000
10947687 405921.4370 3686013.8213 2499.3600 149.0625 121.4089 -1324.2138 3121.0000 640.0800 152.4000
10947687 405760.4675 3686115.2064 2491.7400 149.0625 121.9233 -1324.2138 3122.0000 640.0800 152.4000
10947687 405650.9791 3686178.0254 2484.1200 149.0625 121.9233 -1324.5389 3123.0000 640.0800 152.4000
10947687 405542.2517 3686245.9140 2476.5000 149.0625 121.9233 -1324.5389 3124.0000 640.0800 152.4000
10947687 405446.1905 3686301.4140 2468.8800 149.0625 121.9233 -1324.5389 3125.0000 640.0800 152.4000
10947687 405339.5718 3686366.7466 2461.2600 149.0625 121.9233 -1324.5389 3126.0000 640.0800 152.4000
10947687 405192.0381 3686460.8199 2453.6400 149.0625 121.9233 -1324.5389 3127.0000 640.0800 152.4000
10947687 405142.6241 3686492.1805 2446.0200 149.0625 121.9233 -1324.2138 3128.0000 640.0800 152.4000
10947687 404990.1020 3686584.1908 2438.4000 149.0625 121.9233 -1323.8886 3129.0000 640.0800 152.4000
10947687 404787.4607 3686707.5730 2423.1600 149.0625 121.4089 -1323.5635 3131.0000 640.0800 152.4000
10947687 404787.4607 3686707.5730 2423.1600 149.0625 121.4089 -1323.5635 3132.0000 640.0800 152.4000
10947687 404384.3449 3686956.4442 2392.6800 149.0625 121.4089 -1323.5635 3135.0000 640.0800 152.4000
10947687 404271.3987 3687026.9272 2385.0600 149.0625 121.4089 -1323.5635 3136.0000 640.0800 152.4000
10947687 404171.8264 3687085.0129 2377.4400 149.0625 121.4089 -1323.5635 3137.0000 640.0800 152.4000
10947687 404068.7505 3687147.7872 2369.8200 149.0625 121.4089 -1323.8886 3138.0000 640.0800 152.4000
10947687 403963.5704 3687213.1213 2362.2000 149.0625 120.8944 -1323.8886 3139.0000 640.0800 152.4000
10947687 403856.2110 3687273.4024 2354.5800 149.0625 120.8944 -1323.8886 3140.0000 640.0800 152.4000
10947687 403744.6883 3687343.4547 2346.9600 149.0625 120.8944 -1323.8886 3141.0000 640.0800 152.4000
10947687 403639.5377 3687411.3302 2339.3400 149.0625 120.8944 -1323.8886 3142.0000 640.0800 152.4000
10947687 403520.2065 3687481.4627 2331.7200 149.0625 120.8944 -1323.8886 3143.0000 640.0800 152.4000
10947687 403409.3777 3687549.3973 2324.1000 149.0625 120.8944 -1324.2138 3144.0000 640.0800 152.4000
10947687 403302.0717 3687614.3371 2316.4800 149.0625 120.8944 -1324.2138 3146.0000 640.0800 152.4000
10947687 403191.2712 3687684.8119 2308.8600 149.0625 120.8944 -1324.5389 3147.0000 640.0800 152.4000
10947687 403089.6027 3687745.0450 2301.2400 149.0625 120.8944 -1324.5389 3148.0000 640.0800 152.4000
10947687 402976.6495 3687813.0059 2293.6200 149.0625 120.8944 -1324.8640 3149.0000 640.0800 152.4000
10947687 402920.9047 3687849.0945 2293.6200 149.0625 120.8944 -1324.8640 3150.0000 640.0800 152.4000
10947687 402757.8192 3687945.9000 2286.0000 149.0625 120.8944 -1325.1891 3151.0000 640.0800 152.4000
10947687 402659.0220 3688008.6470 2278.3800 149.0625 120.8944 -1325.1891 3152.0000 640.0800 152.4000
10947687 402555.9696 3688071.8608 2270.7600 149.0625 120.8944 -1325.5142 3153.0000 640.0800 152.4000
10947687 402398.5466 3688166.0778 2263.1400 149.0625 120.8944 -1325.5142 3154.0000 640.0800 152.4000
10947687 402341.3645 3688200.0694 2263.1400 149.0625 120.3800 -1325.8394 3155.0000 640.0800 152.4000
10947687 402243.9671 3688260.2688 2255.5200 149.0625 120.3800 -1326.1645 3156.0000 640.0800 152.4000
10947687 402102.8353 3688349.6738 2247.9000 149.0625 120.3800 -1326.1645 3157.0000 640.0800 152.4000
10947687 401995.5295 3688412.9368 2240.2800 149.0625 120.3800 -1326.4896 3158.0000 640.0800 152.4000
10947687 401910.1607 3688468.3653 2240.2800 149.0625 120.3800 -1326.1645 3159.0000 640.0800 152.4000
10947687 401809.2224 3688529.0281 2232.6600 149.0625 120.3800 -1326.1645 3160.0000 640.0800 152.4000
10947687 401660.2876 3688618.5188 2225.0400 149.0625 119.8656 -1326.1645 3161.0000 640.0800 152.4000
10947687 401559.3525 3688679.1843 2217.4200 149.0625 119.8656 -1325.8394 3162.0000 640.0800 152.4000
10947687 401459.8816 3688744.0659 2217.4200 149.0625 119.8656 -1325.8394 3163.0000 640.0800 152.4000
10947687 401350.4756 3688809.4726 2209.8000 149.0625 119.8656 -1325.8394 3164.0000 640.0800 152.4000
10947687 401289.0663 3688846.0516 2209.8000 149.0625 119.8656 -1325.8394 3165.0000 640.0800 152.4000
10947687 401126.0134 3688942.8854 2194.5600 149.0625 119.8656 -1325.8394 3166.0000 640.0800 152.4000
10947687 401034.9996 3689000.9175 2194.5600 149.0625 119.8656 -1325.8394 3167.0000 640.0800 152.4000
10947687 400939.7482 3689061.1088 2186.9400 149.0625 119.3511 -1325.5142 3168.0000 640.0800 152.4000
10947687 400822.5387 3689126.6014 2179.3200 149.0625 119.3511 -1325.5142 3169.0000 640.0800 152.4000
10947687 400731.5284 3689184.6364 2171.7000 150.4688 119.3511 -1325.5142 3171.0000 640.0800 152.4000
10947687 400590.3022 3689262.2216 2164.0800 150.4688 119.3511 -1325.1891 3172.0000 640.0800 152.4000
10947687 400487.2242 3689320.3827 2156.4600 151.8750 118.8367 -1324.8640 3173.0000 640.0800 152.4000
10947687 400387.6018 3689369.2036 2156.4600 153.2812 119.3511 -1324.5389 3174.0000 640.0800 152.4000
10947687 400268.9275 3689429.6423 2148.8400 154.6875 118.8367 -1324.2138 3175.0000 640.0800 152.4000
10947687 400220.8205 3689447.0568 2141.2200 154.6875 118.8367 -1324.2138 3176.0000 640.0800 152.4000
10947687 400034.1834 3689527.2326 2125.9800 157.5000 118.8367 -1323.5635 3177.0000 640.0800 152.4000
10947687 399920.2911 3689569.0146 2118.3600 158.9062 118.8367 -1323.2384 3178.0000 640.0800 152.4000
10947687 399809.2398 3689610.7686 2110.7400 161.7187 118.3222 -1322.9133 3179.0000 640.0800 152.4000
10947687 399695.9806 3689644.9328 2103.1200 163.1250 118.8367 -1322.9133 3180.0000 640.0800 152.4000
10947687 399589.7259 3689669.7200 2095.5000 164.5313 118.8367 -1322.9133 3181.0000 640.0800 152.4000
10947687 399472.1380 3689697.1638 2087.8800 167.3437 118.3222 -1322.9133 3182.0000 640.0800 152.4000
10947687 399406.9675 3689712.2213 2080.2600 168.7500 118.3222 -1322.9133 3183.0000 640.0800 152.4000
10947687 399253.1972 3689742.5811 2072.6400 170.1562 118.3222 -1322.9133 3184.0000 640.0800 152.4000
10947687 399014.1761 3689768.7546 2057.4000 174.3750 118.3222 -1323.2384 3186.0000 640.0800 152.4000
10947687 398902.0723 3689777.1134 2049.7800 175.7812 118.8367 -1323.5635 3187.0000 640.0800 152.4000
10947687 398768.6425 3689783.1581 2042.1600 177.1875 118.3222 -1323.8886 3188.0000 640.0800 152.4000
10947687 398646.5505 3689786.9711 2034.5400 177.1875 118.3222 -1323.8886 3189.0000 640.0800 152.4000
10947687 398513.0943 3689790.4816 2026.9200 178.5938 118.8367 -1324.5389 3190.0000 640.0800 152.4000
10947687 398341.2765 3689792.2810 2019.3000 180.0000 118.8367 -1324.5389 3191.0000 640.0800 152.4000
10947687 398227.6557 3689791.3575 2011.6800 180.0000 118.8367 -1324.8640 3192.0000 640.0800 152.4000
10947687 398227.6557 3689791.3575 2011.6800 180.0000 118.3222 -1324.8640 3193.0000 640.0800 152.4000
10947687 397987.6029 3689786.6884 1996.4400 -178.5938 118.3222 -1324.8640 3194.0000 640.0800 152.4000
10947687 397865.4843 3689787.9736 1996.4400 -178.5938 118.3222 -1325.1891 3195.0000 640.0800 152.4000
10947687 397621.8809 3689783.3509 1981.2000 -178.5938 118.3222 -1325.5142 3197.0000 640.0800 152.4000
10947687 397557.9815 3689784.0256 1981.2000 -178.5938 118.3222 -1325.8394 3198.0000 640.0800 152.4000
10947687 397424.4760 3689782.8986 1973.5800 -178.5938 118.3222 -1325.8394 3199.0000 640.0800 152.4000
10947687 397302.2809 3689777.0006 1965.9600 -178.5938 118.3222 -1325.8394 3200.0000 640.0800 152.4000
10947687 397146.7922 3689778.6483 1958.3400 -178.5938 118.3222 -1326.1645 3201.0000 640.0800 152.4000
10947687 397031.0407 3689777.7614 1958.3400 -178.5938 117.8078 -1326.1645 3202.0000 640.0800 152.4000
10947687 396805.2084 3689775.0855 1943.1000 -178.5938 117.8078 -1325.8394 3205.0000 640.0800 152.4000
10947687 396697.2665 3689774.1196 1943.1000 -178.5938 117.8078 -1325.8394 3206.0000 640.0800 152.4000
10947687 396569.4403 3689772.9439 1935.4800 -178.5938 117.8078 -1325.8394 3207.0000 640.0800 152.4000
10947687 396503.4107 3689773.6482 1927.8600 -178.5938 117.8078 -1325.8394 3208.0000 640.0800 152.4000
10947687 395399.2385 3689773.6492 1882.1400 -178.5938 117.8078 -1325.8394 3216.0000 640.0800 152.4000
10947687 395399.2385 3689773.6492 1882.1400 180.0000 117.2933 -1327.4650 3217.0000 640.0800 152.4000
10947687 395189.8165 3689778.4480 1874.5200 180.0000 116.7789 -1327.7901 3218.0000 640.0800 152.4000
10947687 395094.0171 3689784.1368 1874.5200 180.0000 116.7789 -1328.1152 3219.0000 640.0800 152.4000
10947687 394976.1071 3689780.7598 1866.9000 180.0000 116.7789 -1328.1152 3220.0000 640.0800 152.4000
10947687 394841.9679 3689786.8662 1866.9000 180.0000 116.7789 -1328.1152 3221.0000 640.0800 152.4000
10947687 394841.9679 3689786.8662 1866.9000 180.0000 115.7500 -1328.1152 3222.0000 640.0800 152.4000
10947687 394606.2486 3689789.4247 1859.2800 180.0000 115.7500 -1328.1152 3223.0000 640.0800 152.4000
10947687 394366.9791 3689792.0276 1851.6600 180.0000 115.2356 -1327.7901 3225.0000 640.0800 152.4000
10947687 394247.0171 3689795.8729 1844.0400 180.0000 115.2356 -1327.7901 3226.0000 640.0800 152.4000
10947687 394131.3104 3689799.2502 1844.0400 180.0000 114.7211 -1327.4650 3227.0000 640.0800 152.4000
10947687 394027.6275 3689798.2675 1836.4200 180.0000 114.7211 -1327.4650 3228.0000 640.0800 152.4000
10947687 393907.6886 3689804.2317 1836.4200 180.0000 114.7211 -1327.1398 3229.0000 640.0800 152.4000
10947687 393799.7411 3689802.8751 1828.8000 180.0000 114.2067 -1327.1398 3230.0000 640.0800 152.4000
10947687 393688.2713 3689804.0962 1828.8000 180.0000 114.2067 -1327.1398 3231.0000 640.0800 152.4000
10947687 393568.3093 3689807.9499 1821.1800 180.0000 114.2067 -1327.1398 3232.0000 640.0800 152.4000
10947687 393462.5427 3689811.2261 1813.5600 180.0000 113.6922 -1326.8147 3233.0000 640.0800 152.4000
10947687 393358.8597 3689810.2505 1813.5600 180.0000 113.6922 -1326.8147 3235.0000 640.0800 152.4000
10947687 393236.7631 3689813.7088 1805.9400 180.0000 113.6922 -1326.8147 3236.0000 640.0800 152.4000
10947687 393118.8800 3689812.8921 1798.3200 180.0000 113.6922 -1326.4896 3237.0000 640.0800 152.4000
10947687 392953.4501 3689814.7165 1798.3200 180.0000 113.1778 -1326.4896 3238.0000 640.0800 152.4000
10947687 392839.1636 3689818.0935 1790.7000 180.0000 113.1778 -1326.1645 3239.0000 640.0800 152.4000
10947687 392727.7217 3689821.8635 1783.0800 180.0000 113.1778 -1325.8394 3240.0000 640.0800 152.4000
10947687 392558.0038 3689821.2040 1775.4600 180.0000 113.1778 -1325.8394 3242.0000 640.0800 152.4000
10947687 392442.3020 3689825.0244 1767.8400 180.0000 113.1778 -1325.8394 3243.0000 640.0800 152.4000
10947687 392268.3520 3689826.9550 1760.2200 180.0000 113.1778 -1325.8394 3244.0000 640.0800 152.4000
10947687 392204.4803 3689830.2027 1760.2200 180.0000 113.1778 -1325.5142 3245.0000 640.0800 152.4000
10947687 391986.4821 3689830.0899 1744.9800 180.0000 112.6633 -1325.1891 3246.0000 640.0800 152.4000
10947687 391877.1703 3689833.8460 1737.3600 180.0000 112.6633 -1325.1891 3247.0000 640.0800 152.4000
10947687 391762.8320 3689832.5832 1729.7400 180.0000 112.6633 -1324.8640 3248.0000 640.0800 152.4000
10947687 391597.4539 3689839.0833 1722.1200 180.0000 112.6633 -1323.8886 3249.0000 640.0800 152.4000
10947687 391533.5539 3689839.7977 1722.1200 180.0000 112.6633 -1323.8886 3250.0000 640.0800 152.4000
10947687 391417.8002 3689838.9778 1714.5000 180.0000 112.6633 -1323.8886 3251.0000 640.0800 152.4000
10947687 391351.7938 3689841.8320 1706.8800 180.0000 112.6633 -1325.8394 3252.0000 640.0800 152.4000
10947687 391037.9498 3689843.2377 1699.2600 180.0000 112.1489 -1327.1398 3255.0000 640.0800 152.4000
10947687 390924.3734 3689846.6294 1691.6400 180.0000 112.1489 -1327.1398 3256.0000 640.0800 152.4000
10947687 390870.3895 3689845.1216 1691.6400 180.0000 111.6344 -1326.8147 3257.0000 640.0800 152.4000
10947687 390758.9193 3689846.3764 1684.0200 180.0000 111.6344 -1326.8147 3258.0000 640.0800 152.4000
10947687 389439.0257 3689861.3324 1615.4400 180.0000 111.6344 -1326.8147 3269.0000 640.0800 152.4000
10947687 389316.9052 3689862.7252 1607.8200 180.0000 111.6344 -1326.8147 3270.0000 640.0800 152.4000
10947687 389203.3048 3689864.0223 1600.2000 180.0000 111.6344 -1326.8147 3271.0000 640.0800 152.4000
10947687 389203.3048 3689864.0223 1600.2000 180.0000 109.0622 -1325.1891 3272.0000 640.0800 152.4000
10947687 389081.1843 3689865.4181 1592.5800 180.0000 109.0622 -1325.5142 3273.0000 640.0800 152.4000
10947687 388967.5547 3689864.1801 1592.5800 180.0000 108.5478 -1325.8394 3274.0000 640.0800 152.4000
10947687 388863.8942 3689865.3674 1584.9600 180.0000 108.5478 -1326.4896 3275.0000 640.0800 152.4000
10947687 388514.5724 3689869.3764 1569.7200 180.0000 108.0333 -1327.4650 3278.0000 640.0800 152.4000
10947687 388350.5907 3689873.8007 1569.7200 180.0000 107.5189 -1328.1152 3279.0000 640.0800 152.4000
10947687 388242.6408 3689872.5059 1569.7200 180.0000 107.5189 -1328.4403 3280.0000 640.0800 152.4000
10947687 388134.7495 3689876.2878 1562.1000 180.0000 107.0044 -1328.7654 3281.0000 640.0800 152.4000
10947687 387913.1988 3689876.3075 1562.1000 180.0000 107.0044 -1329.4157 3283.0000 640.0800 152.4000
10947687 387815.2182 3689877.4404 1562.1000 180.0000 107.0044 -1329.7408 3284.0000 640.0800 152.4000
10947687 387663.3310 3689883.8515 1554.4800 180.0000 107.0044 -1330.0659 3285.0000 640.0800 152.4000
10947687 387611.5007 3689884.4520 1554.4800 180.0000 107.0044 -1330.0659 3286.0000 640.0800 152.4000
10947687 387507.8695 3689888.1915 1554.4800 177.1875 107.5189 -1330.0659 3287.0000 640.0800 152.4000
10947687 387360.2720 3689897.0958 1554.4800 177.1875 107.5189 -1330.0659 3288.0000 640.0800 152.4000
10947687 387256.6950 3689905.4905 1554.4800 174.3750 108.0333 -1330.3910 3289.0000 640.0800 152.4000
10947687 387098.6694 3689933.5557 1546.8600 172.9687 108.0333 -1330.7162 3290.0000 640.0800 152.4000
10947687 386997.3017 3689948.6958 1546.8600 170.1562 108.5478 -1330.7162 3292.0000 640.0800 152.4000
10947687 386879.7474 3689976.2932 1546.8600 168.7500 108.5478 -1331.0413 3293.0000 640.0800 152.4000
10947687 386768.6380 3690008.4700 1546.8600 165.9375 108.5478 -1331.3664 3294.0000 640.0800 152.4000
10947687 386654.6893 3690040.6812 1546.8600 163.1250 108.5478 -1331.3664 3295.0000 640.0800 152.4000
10947687 386559.2605 3690077.7534 1546.8600 161.7187 109.0622 -1331.3664 3296.0000 640.0800 152.4000
10947687 386461.6974 3690114.4286 1546.8600 158.9062 109.5767 -1331.3664 3297.0000 640.0800 152.4000
10947687 386352.9190 3690163.5036 1546.8600 157.5000 109.0622 -1331.3664 3298.0000 640.0800 152.4000
10947687 386257.6264 3690211.9988 1546.8600 154.6875 109.5767 -1331.3664 3299.0000 640.0800 152.4000
10947687 386128.5388 3690285.0037 1546.8600 153.2812 110.0911 0.0000 3300.0000 640.0800 152.4000
10947687 385952.3027 3690394.0983 1546.8600 147.6562 110.0911 0.0000 3302.0000 640.0800 152.4000
10947687 385853.0383 3690466.7564 1546.8600 146.2500 110.6056 0.0000 3303.0000 640.0800 152.4000
10947687 385765.8148 3690536.7356 1546.8600 143.4375 110.6056 0.0000 3304.0000 640.0800 152.4000
10947687 385668.8226 3690621.2134 1546.8600 139.2187 111.1200 0.0000 3305.0000 640.0800 152.4000
10947687 385592.3359 3690698.2590 1546.8600 139.2187 111.1200 0.0000 3306.0000 640.0800 152.4000
10947687 385548.7933 3690738.9597 1546.8600 135.0000 111.1200 0.0000 3307.0000 640.0800 152.4000
10947687 385442.2908 3690859.5090 1546.8600 135.0000 111.1200 0.0000 3308.0000 640.0800 152.4000
10947687 385300.1149 3691025.3215 1546.8600 127.9687 110.0911 0.0000 3310.0000 640.0800 152.4000
10947687 385241.5526 3691116.5408 1546.8600 127.9687 110.0911 0.0000 3311.0000 640.0800 152.4000
10947687 385161.3748 3691241.0121 1546.8600 123.7500 109.0622 0.0000 3312.0000 640.0800 152.4000
10947687 385102.1905 3691339.4311 1546.8600 123.7500 109.0622 0.0000 3313.0000 640.0800 152.4000
10947687 385072.9111 3691385.0414 1546.8600 120.9375 109.0622 0.0000 3314.0000 640.0800 152.4000
10947687 385072.9111 3691385.0414 1546.8600 116.7187 108.0333 0.0000 3315.0000 640.0800 152.4000
10947687 384960.1891 3691638.4988 1546.8600 113.9063 107.5189 0.0000 3317.0000 640.0800 152.4000
10947687 384936.6757 3691691.2325 1546.8600 112.5000 107.5189 0.3251 3318.0000 640.0800 152.4000
10947687 384896.1742 3691808.0441 1546.8600 109.6875 107.5189 0.3251 3319.0000 640.0800 152.4000
10947687 384853.9160 3691956.1805 1546.8600 106.8750 107.0044 0.0000 3320.0000 640.0800 152.4000
10947687 384827.4177 3692056.3283 1546.8600 105.4687 107.0044 -1331.3664 3321.0000 640.0800 152.4000
10947687 384804.6703 3692173.3526 1546.8600 102.6563 106.4900 -1330.7162 3322.0000 640.0800 152.4000
10947687 384790.2103 3692270.8194 1546.8600 101.2500 107.0044 -1330.3910 3323.0000 640.0800 152.4000
10947687 384777.2607 3692375.8828 1546.8600 98.4375 106.4900 -1330.3910 3324.0000 640.0800 152.4000
10947687 384760.9284 3692494.9461 1539.2400 97.0312 106.4900 -1330.0659 3325.0000 640.0800 152.4000
10947687 384752.8019 3692647.3306 1539.2400 95.6250 105.9756 -1330.3910 3326.0000 640.0800 152.4000
10947687 384749.9869 3692768.7713 1539.2400 94.2188 105.4611 -1330.3910 3327.0000 640.0800 152.4000
10947687 384745.5814 3692875.8483 1539.2400 92.8125 105.4611 -1330.3910 3328.0000 640.0800 152.4000
10947687 384742.4296 3692968.9506 1531.6200 91.4063 104.9467 -1329.7408 3329.0000 640.0800 152.4000
10947687 384773.4418 3694203.3842 1485.9000 91.4063 104.9467 -1329.7408 3341.0000 640.0800 152.4000
10947687 384779.6222 3694424.5517 1478.2800 91.4063 104.9467 -1329.7408 3343.0000 640.0800 152.4000
10947687 384780.6136 3694507.8754 1470.6600 88.5937 102.3744 -1325.5142 3344.0000 640.0800 152.4000
10947687 384785.9184 3694595.8011 1463.0400 88.5937 102.3744 -1325.5142 3345.0000 640.0800 152.4000
10947687 384789.1545 3694688.8276 1463.0400 88.5937 102.3744 -1325.5142 3346.0000 640.0800 152.4000
10947687 384793.7747 3694778.8766 1455.4200 88.5937 102.3744 -1325.5142 3347.0000 640.0800 152.4000
10947687 384801.9178 3694926.4148 1447.8000 88.5937 102.3744 -1325.1891 3348.0000 640.0800 152.4000
10947687 384803.3068 3695043.1527 1440.1800 88.5937 102.3744 -1324.5389 3349.0000 640.0800 152.4000
10947687 384807.9872 3695138.2772 1432.5600 88.5937 102.3744 -1324.5389 3350.0000 640.0800 152.4000
