60:a
11259136:(337.465,13.5238,337.736)
11259136:(379.335,25.4093,380.185)
11259136:(349.76,3.91003,349.782)
11259136:(490.228,0.527787,490.228)
11259136:(423.32,13.8682,423.547)

60: a b
11259136:(322.537,28.7622,323.817)
11259137:(314.373,13.2911,314.654)

11259136:(328.982,8.09605,329.082)
11259137:(387.538,45.6907,390.222)

11259136:(260.634,11.2576,260.877)
11259137:(242.467,10.1802,242.681)

11259136:(377.788,16.0928,378.131)
11259137:(360.248,13.6952,360.508)

11259136:(359.012,5.38222,359.052)
11259137:(444.19,4.21476,444.21)

11259136:(311.453,10.8899,311.643)
11259137:(399.528,11.5576,399.695)

11259136:(333.26,19.956,333.857)
11259137:(455.715,32.8043,456.894)

11259136:(344.201,16.5851,344.601)
11259137:(403.031,15.7021,403.337)

11259136:(312.126,64.7362,318.769)
11259137:(377.856,44.8491,380.508)

11259136:(277.685,9.62259,277.852)
11259137:(408.427,6.81489,408.484)

11259136:(319.115,6.01565,319.172)
11259137:(328.838,6.72588,328.907)

80:a 60:b
11259136:(314.008,0.982851,314.009)
11259137:(382.759,0.90117,382.76)

11259136:(262.993,81.646,275.375)
11259137:(275.291,78.6477,286.305)

11259136:(394.205,1.00627,394.206)
11259137:(382.749,1.53579,382.752)

11259136:(349.474,1.68221,349.478)
11259137:(404.252,1.83417,404.257)

11259136:(238.696,0.747698,238.698)
11259137:(311.021,1.07729,311.023)

80:a 80:b
11259136:(672.292,10.2829,672.371)
11259137:(676.755,10.5123,676.837)

11259136:(389.734,0.912979,389.736)
11259137:(379.153,1.23469,379.155)

11259136:(302.352,3.51113,302.372)
11259137:(313.26,3.51113,313.28)

11259136:(393.174,3.62256,393.191)
11259137:(419.038,0.816095,419.039)

11259136:(387.437,3.16085,387.45)
11259137:(484.217,3.72709,484.232)

random 1: simu
11259137:(262.82,46.2724,266.863) 220
11259136:(364.025,6.12952,364.076) 280
11259136:(408.757,1.15495,408.758) 260
11259136:(366.645,1.56304,366.648) 260
11259137:(348.608,66.4818,354.891) 60
11259137:(369.596,2.30011,369.603) 160
11259138:(416.241,0.567618,416.241) 80
11259137:(288.311,38.1857,290.829) 200
11259137:(221.122,58.0427,228.613) 200
11259136:(7.37815,50.4613,50.9979) 220
11259138:(423.456,3.77911,423.473) 60

random 2: simu
11259136:(263.738,70.51,273.001) 300
11259138:(355.408,0.871948,355.409) 240

11259137:(368.074,2.39559,368.082) 220 
11259138:(359.978,0.992242,359.98) 300

11259137:(193.236,1.45033,193.242)
11259138:(283.076,37.033,285.488)

11259137:(243.704,0.660163,243.705)
11259138:(381.406,0.888992,381.407)

11259137:(232.328,2.23454,232.339)
11259138:(368.299,1.19244,368.301)

11259137:(320.129,0.0946333,320.129) 
11259138:(570.931,0.283577,570.931)

11259137:(168.433,0.743426,168.435)
11259138:(345.008,3.74817,345.028)

11259137:(249.188,1.02179,249.19) 60
11259138:(245.656,0.295934,245.656) 80

11259136:(356.151,8.1312,356.243) 60
11259137:(709.162,9.49324,709.226) 120

11259136:(421.197,1.23531,421.199) 180
11259138:(391.952,2.46202,391.96) 200

11259136:(371.951,8.61046,372.051) 200
11259137:(364.302,3.55492,364.319) 120

11259136:(339.381,6.40872,339.442) 240
11259137:(998.705,6.23092,998.724) 280

11259136:(317.635,2.34498,317.643) 260
11259138:(424.931,6.85725,424.987) 200

11259137:(390.438,0.890597,390.439) 160
11259138:(76.2837,38.8494,85.6065) 220

11259136:(443.416,0.273141,443.416) 140
11259138:(456.754,2.77384,456.763) 100

random 3: simu
11259136:(301.432,7.30386,301.52) 80
11259137:(839.384,1.57202,839.386) 260
11259138:(300.458,0.357343,300.459) 180

11259136:(974.161,6.57334,974.184) 200
11259137:(393.381,3.27896,393.395) 120
11259138:(461.392,0.392626,461.392) 100

11259136:(1033.37,1.79015,1033.37) 280
11259137:(572.71,1.45175,572.712) 260
11259138:(421.912,8.68115,422.001) 240

11259136:(63.2687,18.6366,65.9564) 240
11259137:(322.164,33.0937,323.859) 160
11259138:(424.842,66.5353,430.021) 300

11259136:(58.4565,76.8915,96.5892) 240
11259137:(61.7671,1.06496,61.7763) 160 
11259138:(378.438,2.88763,378.449) 60

11259136:(795.673,2.79818,795.678)
11259137:(824.2,1.66262,824.202)
11259138:(385.774,2.20223,385.781)

11259136:(146.84,10.7508,147.233) 60
11259137:(407.245,0.793324,407.246) 160
11259138:(338.856,9.57772,338.991) 100

11259136:(199.914,14.5467,200.443)
11259137:(406.069,0.15598,406.069)
11259138:(336.048,13.1408,336.305)

11259136:(296.87,16.4954,297.328)
11259137:(719.501,7.50768,719.54)
11259138:(330.824,8.10435,330.924)

11259136:(379.679,0.92611,379.68) 140
11259137:(372.242,0.429835,372.242) 60
11259138:(386.217,3.69058,386.234) 280

11259136:(117.911,7.27371,118.135) 140
11259137:(254.461,0.0819114,254.461) 60
11259138:(398.196,7.20726,398.261) 280

11259136:(55.5268,3.61954,55.6447) 240
11259137:(214.811,2.10111,214.821) 180
11259138:(238.738,1.1622,238.741) 160

11259136:(518.27,5.34758,518.298) 240
11259137:(366.316,2.35463,366.324) 180
11259138:(420.765,1.9541,420.77) 160

11259136:(346.614,1.02395,346.616) 160
11259137:(554.603,1.45901,554.605) 300
11259138:(480.782,2.68062,480.79) 160

11259136:(606.859,1.49677,606.861) 280
11259137:(80.2132,2.15492,80.2422) 80
11259138:(381.666,0.933449,381.668) 80

11259136:(279.632,3.15688,279.65) 80
11259137:(374.292,2.23837,374.299) 60
11259138:(229.729,1.22544,229.732) 260

11259136:(382.384,0.57219,382.385) 280
11259137:(630.574,1.79084,630.577) 280
11259138:(492.976,0.236801,492.976) 280

11259136:(175.458,1.31186,175.463) 160
11259137:(457.964,24.7117,458.63) 200
11259138:(255.369,28.7775,256.985) 180

11259136:(461.462,26.5591,462.226) 160
11259137:(527.795,1.67187,527.798) 200
11259138:(315.642,18.9001,316.207) 180

adsb:
single
10734770:(336.247,6.9784,336.319) 60 (2)

10734770:(168.073,19.7177,169.225) 80
10734770:(269.666,52.6336,274.754)
10734770:(282.029,27.0339,283.322)
10734770:(400.264,5.00221,400.295)
10734770:(211.504,4.86133,211.56)
10734770:(300.232,26.1596,301.369) (4)
10734770:(349.514,4.7583,349.547)
10734770:(353.504,21.4867,354.156)
10734770:(184.102,71.8314,197.619)
10734770:(23.0081,105.602,108.079)

10734770:(319.255,68.0196,326.421) (4) 100
10734770:(143.844,64.8082,157.769) 120
10734770:(234.86,78.1322,247.515) 140
10734770:(343.637,64.347,349.61) 160
10734770:(334.719,19.4012,335.281) 180
10734770:(486.302,62.7756,490.337) 200
10734770:(16.6444,0.341166,16.6479) 220
10734770:(317.642,17.4623,318.122) 240
10734770:(236.239,24.2026,237.476) 260
10734770:(214.08,56.6892,221.459) 280
10734770:(267.16,53.7919,272.522) 300

random:
10942331:(474.409,7.75703,474.472) 140
10934723:(323.608,26.1789,324.665) 60
10734770:(83.4882,33.4119,89.9257) 220
10934723:(349.392,29.615,350.645) 60
10734770:(318.013,30.2176,319.445) 240
10934723:(58.0859,127.554,140.157) 60
10942331:(502.28,13.2629,502.455) 120
10942331:(409.961,9.72147,410.076) 100
10942331:(359.17,4.11217,359.194) 140
10934723:(120.603,28.3599,123.893) 100
10934723:(120.603,28.3599,123.893) 140

10734770 1
10934723 2
10942331 3

double:
10734770:(311.805,71.8584,319.978) 120
10934723:(285.253,85.3261,297.741) 80

10734770:(222.97,31.7723,225.222) 180
10942331:(518.573,15.5256,518.805) 140

10734770:(388.514,65.2956,393.962)
10942331:(451.229,2.21417,451.235)

10734770:(278.972,22.5986,279.885) 140
10934723:(210.64,65.7879,220.674) 100

10734770:(375.687,25.1012,376.525)
10934723:(148.159,47.8785,155.703)

10734770:(217.902,55.2341,224.794) 180 
10942331:(143.428,9.97309,143.774) 260

10734770:(399.552,42.9281,401.852)
10942331:(457.28,12.3743,457.447)

10734770:(144.984,2.50757,145.006) 220
10942331:(477.816,16.0018,478.084) 280

10734770:(124.962,14.83,125.839)
10942331:(62.7071,4.31492,62.8554)

10734770:(23.9994,3.65242,24.2757) 180
10942331:(199.339,93.3993,220.136) 220

10734770:(130.424,3.88684,130.482)
10942331:(242.971,6.95478,243.071)

10934723:(222.829,67.6218,232.864) 100
10942331:(187.793,5.87484,187.884) 260

10734770:(350.586,96.634,363.66) 100
10942331:(466.769,20.3393,467.212) 80

10934723:(260.289,65.7988,268.477) 100
10942331:(308.852,17.0517,309.323) 200

10734770:(369.21,45.0623,371.95) 200
10934723:(410.333,136.143,432.329) 80

10934723:(422.863,13.8472,423.089) 60
10942331:(362.565,10.1076,362.706) 240

10734770:(55.4661,44.9511,71.3939) 120
10942331:(174.858,0.49678,174.858) 240

10734770:(341.241,76.4332,349.696) 200
10934723:(436.82,5.59477,436.856) 80

three random:
10734770:(355.1,75.7126,363.082) 80
10934723:(220.155,38.1714,223.439) 100
10942331:(490.88,26.2468,491.582) 60

10734770:(36.8799,101.301,107.805) 80
10934723:(296.762,65.7271,303.953) 120
10942331:(364.2,11.931,364.395) 220

10734770:(843.251,21.9765,843.538) 180
10934723:(289.913,32.1903,291.695) 60
10942331:(479.606,22.3037,480.124) 80

k
10734770:(517.327,0.558939,517.327) 200
10934723:(242.24,56.8743,248.827) 100
10942331:(425.083,17.999,425.464) 200

10734770:(1102.38,24.43,1102.65) 200
10934723:(110.304,47.0505,119.92) 100
10942331:(853.533,27.6075,853.979) 180

10734770:(86.9109,31.7884,92.5419) 160
10934723:(203.269,50.5437,209.459) 80
10942331:(269.335,12.122,269.608) 240

160,120,260
10734770:(367.712,93.1038,379.316)
10934723:(281.77,57.2251,287.522)
10942331:(371.249,4.97733,371.282)

240,80,100	
10734770:(495.057,29.7257,495.949)
10934723:(116.798,115.127,164)
10942331:(372.313,17.0687,372.704)

280,120,60 k
10734770:(503.761,24.3631,504.35)
10934723:(293.675,55.5332,298.879)
10942331:(487.045,21.9085,487.537)

220,60,100
10734770:(521.91,11.9454,522.046)
10934723:(10.3616,83.2351,83.8776)
10942331:(467.775,7.9793,467.843)


