10942331 368663.000000 3755000.000000 4914.900000 136.406000 46.042750 2.357120 228.000000 160.020000 38.100000
10942331 368645.490200 3755017.800100 4915.177500 136.406000 46.042750 2.316475 229.000000 160.020000 38.100000
10942331 368627.980400 3755035.600225 4916.130000 136.406200 46.042775 2.275850 230.000000 160.020000 38.100000
10942331 368599.445925 3755063.391100 4918.035000 136.406200 46.171400 2.275850 231.000000 160.020000 38.100000
10942331 368543.259050 3755118.855975 4921.845000 136.406200 46.171400 2.275850 232.000000 160.020000 38.100000
10942331 368523.929300 3755137.873600 4923.035625 136.406200 46.187475 2.265700 233.000000 160.020000 38.100000
10942331 368504.599525 3755156.891225 4924.226250 136.406200 46.203550 2.255525 234.000000 160.020000 38.100000
10942331 368465.940000 3755194.926475 4926.607500 136.406200 46.235700 2.235200 235.000000 160.020000 38.100000
10942331 368427.280500 3755232.961750 4928.988750 136.406200 46.267850 2.214875 236.000000 160.020000 38.100000
10942331 368388.620975 3755270.997000 4931.370000 136.406200 46.300000 2.194550 237.000000 160.020000 38.100000
10942331 368352.443400 3755306.619400 4933.275000 136.406200 46.300000 2.194550 238.000000 160.020000 38.100000
10942331 368320.614850 3755337.950550 4935.180000 136.406200 46.428600 2.032000 239.000000 160.020000 38.100000
10942331 368308.706950 3755348.910250 4935.815000 136.757800 46.460750 1.930400 240.000000 160.020000 38.100000
10942331 368296.799075 3755359.869950 4936.450000 137.109400 46.492925 1.828800 241.000000 160.020000 38.100000
10942331 368284.891175 3755370.829650 4937.085000 137.460900 46.525075 1.727200 242.000000 160.020000 38.100000
10942331 368272.983300 3755381.789350 4937.720000 137.812500 46.557225 1.625600 243.000000 160.020000 38.100000
10942331 368225.351725 3755425.628150 4940.260000 137.812500 46.557225 1.625600 244.000000 160.020000 38.100000
10942331 368177.720175 3755469.466950 4942.800000 137.812500 46.557225 1.625600 245.000000 160.020000 38.100000
10942331 368130.088625 3755513.305750 4945.340000 137.812500 46.557225 1.625600 246.000000 160.020000 38.100000
10942331 368082.457050 3755557.144575 4947.880000 137.812500 46.557225 1.625600 247.000000 160.020000 38.100000
10942331 368034.825500 3755600.983375 4950.420000 137.812500 46.557225 1.625600 248.000000 160.020000 38.100000
10942331 367987.193950 3755644.822175 4952.960000 137.812500 46.557225 1.625600 249.000000 160.020000 38.100000
10942331 367939.562375 3755688.660975 4955.500000 137.812500 46.557225 1.625600 250.000000 160.020000 38.100000
10942331 367891.930825 3755732.499775 4958.040000 137.812500 46.557225 1.625600 251.000000 160.020000 38.100000
10942331 367854.743500 3755763.316975 4960.156675 138.281200 46.600100 1.670750 252.000000 160.020000 38.100000
10942331 367817.556175 3755794.134150 4962.273325 138.750000 46.642975 1.715900 253.000000 160.020000 38.100000
10942331 367780.368850 3755824.951350 4964.390000 139.218700 46.685825 1.761075 254.000000 160.020000 38.100000
10942331 367743.181525 3755855.768550 4966.506675 139.687500 46.728700 1.806225 255.000000 160.020000 38.100000
10942331 367705.994175 3755886.585725 4968.623325 140.156200 46.771575 1.851375 256.000000 160.020000 38.100000
10942331 367668.806850 3755917.402925 4970.740000 140.625000 46.814450 1.896525 257.000000 160.020000 38.100000
10942331 367631.619525 3755948.220125 4972.856675 141.093700 46.857300 1.941700 258.000000 160.020000 38.100000
10942331 367594.432200 3755979.037300 4974.973325 141.562500 46.900175 1.986850 259.000000 160.020000 38.100000
10942331 367557.244875 3756009.854500 4977.090000 142.031200 46.943050 2.032000 260.000000 160.020000 38.100000
10942331 367547.662500 3756017.713500 4977.090000 142.031200 46.943050 2.032000 261.000000 160.020000 38.100000
10942331 367538.080125 3756025.572475 4977.090000 142.031200 46.943050 2.032000 262.000000 160.020000 38.100000
10942331 367491.911125 3756063.257975 4980.423750 142.031200 46.910900 2.214875 263.000000 160.020000 38.100000
10942331 367445.742150 3756100.943475 4983.757500 142.031200 46.878750 2.397750 264.000000 160.020000 38.100000
10942331 367399.573175 3756138.628975 4987.091250 142.031200 46.846600 2.580650 265.000000 160.020000 38.100000
10942331 367353.404175 3756176.314475 4990.425000 142.031200 46.814450 2.763525 266.000000 160.020000 38.100000
10942331 367327.354750 3756197.211000 4992.330000 142.031200 46.814450 2.885450 267.000000 160.020000 38.100000
10942331 367301.305300 3756218.107550 4994.235000 142.031200 46.814450 3.007350 268.000000 160.020000 38.100000
10942331 367257.100850 3756254.024200 4997.568750 142.031200 46.750150 2.946400 269.000000 160.020000 38.100000
10942331 367212.896400 3756289.940850 5000.902500 142.031200 46.685850 2.885450 270.000000 160.020000 38.100000
10942331 367168.691925 3756325.857525 5004.236250 142.031200 46.621525 2.824475 271.000000 160.020000 38.100000
10942331 367124.487475 3756361.774175 5007.570000 142.031200 46.557225 2.763525 272.000000 160.020000 38.100000
10942331 367106.368925 3756376.317300 5009.475000 142.031200 46.557225 2.763525 273.000000 160.020000 38.100000
10942331 367088.250350 3756390.860425 5011.380000 142.031200 46.557225 2.763525 274.000000 160.020000 38.100000
10942331 367053.926225 3756418.121200 5013.285000 142.031200 46.557225 2.682250 275.000000 160.020000 38.100000
10942331 366991.756750 3756469.588150 5017.095000 142.031200 46.557225 2.682250 276.000000 160.020000 38.100000
10942331 366953.937075 3756498.699675 5019.000000 142.031200 46.685825 2.519675 277.000000 160.020000 38.100000
10942331 366918.240425 3756528.309725 5020.905000 142.031200 46.685825 2.438400 278.000000 160.020000 38.100000
10942331 366883.938800 3756556.842175 5022.810000 142.031200 46.685825 2.438400 279.000000 160.020000 38.100000
10942331 366849.284075 3756585.274550 5024.715000 142.031200 46.685825 2.275850 280.000000 160.020000 38.100000
10942331 366812.789875 3756614.369425 5026.620000 142.031200 46.685825 2.275850 281.000000 160.020000 38.100000
10942331 366776.295650 3756643.464300 5028.525000 142.031200 46.685825 2.275850 282.000000 160.020000 38.100000
10942331 366742.244200 3756670.779125 5030.430000 142.031200 46.685825 2.275850 283.000000 160.020000 38.100000
10942331 366708.192775 3756698.093950 5032.335000 142.031200 46.685825 2.275850 284.000000 160.020000 38.100000
10942331 366670.759475 3756728.968300 5034.875000 142.031200 46.685825 2.275850 285.000000 160.020000 38.100000
10942331 366633.326150 3756759.842675 5037.415000 142.031200 46.685825 2.275850 286.000000 160.020000 38.100000
10942331 366595.892850 3756790.717025 5039.955000 142.031200 46.685825 2.275850 287.000000 160.020000 38.100000
10942331 366558.676575 3756821.018725 5041.621875 142.031200 46.685825 2.275850 288.000000 160.020000 38.100000
10942331 366521.460300 3756851.320400 5043.288750 142.031200 46.685825 2.275850 289.000000 160.020000 38.100000
10942331 366484.244025 3756881.622100 5044.955625 142.031200 46.685825 2.275850 290.000000 160.020000 38.100000
10942331 366447.027775 3756911.923800 5046.622500 142.031200 46.685825 2.275850 291.000000 160.020000 38.100000
10942331 366409.811500 3756942.225475 5048.289375 142.031200 46.685825 2.275850 292.000000 160.020000 38.100000
10942331 366372.595225 3756972.527175 5049.956250 142.031200 46.685825 2.275850 293.000000 160.020000 38.100000
10942331 366335.378950 3757002.828850 5051.623125 142.031200 46.685825 2.275850 294.000000 160.020000 38.100000
10942331 366298.162675 3757033.130550 5053.290000 142.031200 46.685825 2.275850 295.000000 160.020000 38.100000
10942331 366258.106575 3757064.720325 5055.195000 142.031200 46.685825 2.275850 296.000000 160.020000 38.100000
10942331 366221.768675 3757094.405150 5056.147500 142.031200 46.685825 2.275850 297.000000 160.020000 38.100000
10942331 366185.430775 3757124.089950 5057.100000 142.031200 46.685825 2.275850 298.000000 160.020000 38.100000
10942331 366149.092850 3757153.774775 5058.052500 142.031200 46.685825 2.275850 299.000000 160.020000 38.100000
10942331 366112.754950 3757183.459600 5059.005000 142.031200 46.685825 2.275850 300.000000 160.020000 38.100000
10942331 366076.283700 3757212.883775 5060.910000 142.031200 47.007350 1.828800 301.000000 160.020000 38.100000
10942331 366039.812450 3757242.307975 5062.815000 142.031200 47.328900 1.381750 302.000000 160.020000 38.100000
10942331 366016.793500 3757261.020150 5063.767500 142.031200 47.393200 1.422400 303.000000 160.020000 38.100000
10942331 365993.774525 3757279.732325 5064.720000 142.031200 47.457500 1.463025 304.000000 160.020000 38.100000
10942331 365970.755575 3757298.444500 5065.672500 142.031200 47.521800 1.503675 305.000000 160.020000 38.100000
10942331 365947.736600 3757317.156675 5066.625000 142.031200 47.586100 1.544325 306.000000 160.020000 38.100000
10942331 365855.660775 3757392.005375 5070.435000 142.031200 47.586100 1.544325 307.000000 160.020000 38.100000
10942331 365819.728300 3757421.690175 5071.387500 142.031200 47.586100 1.625600 308.000000 160.020000 38.100000
10942331 365783.795850 3757451.374975 5072.340000 142.031200 47.586100 1.706875 309.000000 160.020000 38.100000
10942331 365764.650600 3757466.843900 5073.292500 142.031200 47.714725 1.747525 310.000000 160.020000 38.100000
10942331 365745.505325 3757482.312825 5074.245000 142.031200 47.843325 1.788150 311.000000 160.020000 38.100000
10942331 365706.518175 3757513.650450 5076.150000 142.031200 47.843325 1.788150 312.000000 160.020000 38.100000
10942331 365667.531050 3757544.988050 5078.055000 142.031200 47.843325 1.788150 313.000000 160.020000 38.100000
10942331 365628.543900 3757576.325675 5079.960000 142.031200 47.843325 1.788150 314.000000 160.020000 38.100000
10942331 365591.832900 3757606.607575 5081.865000 142.031200 47.843325 1.788150 315.000000 160.020000 38.100000
10942331 365561.558900 3757631.503125 5081.865000 142.031200 47.971950 1.706875 316.000000 160.020000 38.100000
10942331 365495.948900 3757684.228725 5085.675000 142.031200 47.971950 1.706875 317.000000 160.020000 38.100000
10942331 365453.383175 3757719.186850 5087.580000 142.031200 48.014825 1.733975 318.000000 160.020000 38.100000
10942331 365410.817475 3757754.144975 5089.485000 142.031200 48.057675 1.761050 319.000000 160.020000 38.100000
10942331 365368.251750 3757789.103100 5091.390000 142.031200 48.100550 1.788150 320.000000 160.020000 38.100000
10942331 365332.067575 3757818.852400 5093.295000 142.031200 48.100550 1.788150 321.000000 160.020000 38.100000
10942331 365292.908350 3757849.811525 5095.200000 142.031200 48.229175 1.869450 322.000000 160.020000 38.100000
10942331 365274.042600 3757865.862275 5096.152500 142.031200 48.229175 1.869450 323.000000 160.020000 38.100000
10942331 365255.176825 3757881.913025 5097.105000 142.031200 48.229175 1.869450 324.000000 160.020000 38.100000
10942331 365214.972750 3757913.524250 5099.010000 142.031200 48.229175 1.869450 325.000000 160.020000 38.100000
10942331 365193.048900 3757931.103550 5099.010000 142.031200 48.229175 1.869450 326.000000 160.020000 38.100000
10942331 365154.791700 3757963.214900 5100.915000 142.031200 48.229175 1.869450 327.000000 160.020000 38.100000
10942331 365113.391450 3757996.962850 5102.820000 142.031200 48.272050 1.869450 328.000000 160.020000 38.100000
10942331 365071.991200 3758030.710775 5104.725000 142.031200 48.314900 1.869450 329.000000 160.020000 38.100000
10942331 365030.590950 3758064.458725 5106.630000 142.031200 48.357775 1.869450 330.000000 160.020000 38.100000
10942331 364974.914075 3758108.795700 5108.535000 142.031200 48.357775 1.869450 331.000000 160.020000 38.100000
10942331 364936.662725 3758140.910800 5110.440000 142.031200 48.357775 1.950725 332.000000 160.020000 38.100000
10942331 364902.916800 3758168.196525 5112.345000 142.031200 48.357775 1.869450 333.000000 160.020000 38.100000
10942331 364844.305575 3758216.073125 5116.155000 142.031200 48.357775 1.869450 334.000000 160.020000 38.100000
10942331 364823.611575 3758233.108150 5116.155000 142.031200 48.357775 1.950725 335.000000 160.020000 38.100000
10942331 364772.824950 3758274.306650 5119.965000 142.031200 48.357775 1.950725 336.000000 160.020000 38.100000
10942331 364733.180275 3758307.081725 5121.870000 142.031200 48.357775 2.032000 337.000000 160.020000 38.100000
10942331 364697.530300 3758336.198600 5123.775000 142.031200 48.357775 2.113275 338.000000 160.020000 38.100000
10942331 364658.402425 3758368.068175 5125.680000 142.031200 48.422100 2.153900 339.000000 160.020000 38.100000
10942331 364619.274550 3758399.937750 5127.585000 142.031200 48.486400 2.194550 340.000000 160.020000 38.100000
10942331 364582.060975 3758430.244575 5129.490000 142.031200 48.486400 2.194550 341.000000 160.020000 38.100000
10942331 364541.541250 3758463.036825 5131.395000 142.031200 48.486400 2.113275 342.000000 160.020000 38.100000
10942331 364522.676350 3758478.512325 5132.347500 142.031200 48.486400 2.032000 343.000000 160.020000 38.100000
10942331 364503.811425 3758493.987800 5133.300000 142.031200 48.486400 1.950725 344.000000 160.020000 38.100000
10942331 364467.657150 3758524.280000 5135.205000 142.031200 48.486400 1.788150 345.000000 160.020000 38.100000
10942331 364415.308400 3758566.146075 5137.110000 142.031200 48.486400 1.625600 346.000000 160.020000 38.100000
10942331 364393.220450 3758583.736025 5137.110000 142.031200 48.615000 1.463050 347.000000 160.020000 38.100000
10942331 364338.114125 3758629.244000 5139.015000 142.031200 48.615000 1.381750 348.000000 160.020000 38.100000
10942331 364308.727700 3758652.926750 5139.967500 142.031200 48.679300 1.381750 349.000000 160.020000 38.100000
10942331 364279.341300 3758676.609525 5140.920000 142.031200 48.743600 1.381750 350.000000 160.020000 38.100000
10942331 364218.329050 3758726.974000 5142.825000 142.031200 48.872225 1.463050 351.000000 160.020000 38.100000
10942331 364181.653850 3758757.279200 5144.730000 142.031200 48.872225 1.625600 352.000000 160.020000 38.100000
10942331 364146.879200 3758785.227675 5146.635000 142.031200 48.872225 1.706875 353.000000 160.020000 38.100000
10942331 364112.641850 3758813.697125 5148.540000 142.031200 48.872225 1.706875 354.000000 160.020000 38.100000
10942331 364074.053100 3758845.303900 5150.445000 142.031200 48.872225 1.706875 355.000000 160.020000 38.100000
10942331 364033.017700 3758878.008075 5152.350000 142.031200 48.872225 1.706875 356.000000 160.020000 38.100000
10942331 364000.182900 3758905.928100 5152.350000 142.031200 49.000825 1.625600 357.000000 160.020000 38.100000
10942331 363941.061525 3758952.673650 5154.255000 142.031200 49.000825 1.625600 358.000000 160.020000 38.100000
10942331 363902.837800 3758984.806600 5156.160000 142.031200 49.000825 1.544325 359.000000 160.020000 38.100000
10942331 363880.415600 3759003.041825 5158.065000 142.031200 49.000825 1.544325 360.000000 160.020000 38.100000
10942331 363837.813250 3759036.515175 5158.065000 142.031200 49.129450 1.544325 361.000000 160.020000 38.100000
10942331 363798.368600 3759069.198400 5159.970000 142.031200 49.129450 1.544325 362.000000 160.020000 38.100000
10942331 363756.853450 3759104.454350 5161.875000 142.031200 49.129450 1.544325 363.000000 160.020000 38.100000
10942331 363700.001175 3759149.371800 5163.780000 142.031200 49.129450 1.544325 364.000000 160.020000 38.100000
10942331 363661.421700 3759180.880000 5165.685000 142.031200 49.258050 1.381750 365.000000 160.020000 38.100000
10942331 363639.531225 3759199.109200 5165.685000 142.031200 49.386675 1.300475 366.000000 160.020000 38.100000
10942331 363583.211475 3759244.021175 5167.590000 142.031200 49.515275 1.219200 367.000000 160.020000 38.100000
10942331 363562.451925 3759261.333875 5168.542500 142.031200 49.515275 1.219200 368.000000 160.020000 38.100000
10942331 363541.692375 3759278.646600 5169.495000 142.031200 49.515275 1.219200 369.000000 160.020000 38.100000
10942331 363502.609550 3759311.435200 5169.495000 142.031200 49.515275 1.137925 370.000000 160.020000 38.100000
10942331 363480.183300 3759329.039925 5171.400000 142.031200 49.515275 1.137925 371.000000 160.020000 38.100000
10942331 363436.230550 3759365.399200 5171.400000 142.031200 49.643900 1.219200 372.000000 160.020000 38.100000
10942331 363396.094650 3759398.206725 5173.305000 142.031200 49.643900 1.381750 373.000000 160.020000 38.100000
10942331 363358.032400 3759428.548325 5175.210000 142.031200 49.772500 1.544325 374.000000 160.020000 38.100000
10942331 363315.453625 3759462.560525 5177.115000 142.031200 49.772500 1.625600 375.000000 160.020000 38.100000
10942331 363277.238050 3759494.175500 5177.115000 142.031200 49.772500 1.625600 376.000000 160.020000 38.100000
10942331 363235.374125 3759528.706625 5179.020000 142.031200 49.772500 1.706875 377.000000 160.020000 38.100000
10942331 363193.835900 3759561.540675 5180.925000 142.031200 49.772500 1.706875 378.000000 160.020000 38.100000
10942331 363160.140575 3759589.487475 5182.830000 142.031200 49.772500 1.788150 379.000000 160.020000 38.100000
10942331 363120.892200 3759622.285675 5184.735000 142.031200 49.772500 1.869450 380.000000 160.020000 38.100000
10942331 363080.930650 3759654.461500 5186.640000 142.031200 49.772500 1.950725 381.000000 160.020000 38.100000
10942331 363059.390650 3759672.056150 5188.545000 142.031200 49.772500 2.032000 382.000000 160.020000 38.100000
10942331 363019.441125 3759704.867650 5190.450000 142.031200 49.772500 2.113275 383.000000 160.020000 38.100000
10942331 362982.786050 3759734.558175 5192.355000 142.031200 49.772500 2.032000 384.000000 160.020000 38.100000
10942331 362909.989200 3759792.874800 5194.260000 142.031200 49.901100 2.032000 385.000000 160.020000 38.100000
10942331 362870.737250 3759825.042875 5196.165000 142.031200 49.901100 1.869450 386.000000 160.020000 38.100000
10942331 362834.596425 3759853.669600 5198.070000 142.031200 49.901100 1.788150 387.000000 160.020000 38.100000
10942331 362798.993050 3759882.817050 5199.975000 142.031200 49.901100 1.706875 388.000000 160.020000 38.100000
10942331 362781.992200 3759897.906775 5199.975000 142.031200 49.901100 1.706875 389.000000 160.020000 38.100000
10942331 362723.271475 3759944.679050 5203.785000 142.031200 50.029725 1.788150 390.000000 160.020000 38.100000
10942331 362666.127925 3759990.897975 5205.690000 142.031200 50.029725 1.788150 391.000000 160.020000 38.100000
10942331 362621.146025 3760027.396625 5207.595000 142.031200 50.029725 1.788150 392.000000 160.020000 38.100000
10942331 362602.222375 3760043.154250 5207.595000 142.031200 50.029725 1.869450 393.000000 160.020000 38.100000
10942331 362543.528050 3760091.094675 5211.405000 142.031200 50.029725 1.950725 394.000000 160.020000 38.100000
10942331 362523.550775 3760106.923400 5212.357500 142.031200 50.029725 1.991375 395.000000 160.020000 38.100000
10942331 362503.573500 3760122.752125 5213.310000 142.031200 50.029725 2.032000 396.000000 160.020000 38.100000
10942331 362465.886200 3760153.103275 5215.215000 142.031200 50.029725 2.032000 397.000000 160.020000 38.100000
10942331 362429.255525 3760183.437550 5217.120000 142.031200 50.029725 2.113275 398.000000 160.020000 38.100000
10942331 362390.173200 3760214.447875 5219.025000 142.031200 50.029725 2.113275 399.000000 160.020000 38.100000
10942331 362337.917825 3760257.526450 5220.930000 142.031200 50.029725 2.113275 400.000000 160.020000 38.100000
10942331 362298.340050 3760290.345125 5222.835000 142.031200 50.029725 2.032000 401.000000 160.020000 38.100000
10942331 362259.778425 3760320.714425 5224.740000 142.031200 50.029725 2.032000 402.000000 160.020000 38.100000
10942331 362223.163550 3760351.686700 5226.645000 142.031200 50.029725 1.950725 403.000000 160.020000 38.100000
10942331 362201.284425 3760369.295575 5228.550000 142.031200 50.158325 1.788150 404.000000 160.020000 38.100000
10942331 362137.731725 3760420.396075 5230.455000 142.031200 50.158325 1.706875 405.000000 160.020000 38.100000
10942331 362097.288725 3760453.761875 5232.360000 142.031200 50.158325 1.706875 406.000000 160.020000 38.100000
10942331 362076.612775 3760469.553450 5232.360000 142.031200 50.158325 1.463050 407.000000 160.020000 38.100000
10942331 362021.586025 3760514.590350 5234.265000 142.031200 50.286950 1.463050 408.000000 160.020000 38.100000
10942331 361962.925800 3760563.180775 5236.170000 142.031200 50.286950 1.381750 409.000000 160.020000 38.100000
10942331 361929.855650 3760589.920525 5237.598750 142.031200 50.286950 1.422400 410.000000 160.020000 38.100000
10942331 361896.785475 3760616.660250 5239.027500 142.031200 50.286950 1.463025 411.000000 160.020000 38.100000
10942331 361863.715300 3760643.400000 5240.456250 142.031200 50.286950 1.503675 412.000000 160.020000 38.100000
10942331 361830.645150 3760670.139750 5241.885000 142.031200 50.286950 1.544325 413.000000 160.020000 38.100000
10942331 361801.303750 3760693.538525 5242.837500 142.031200 50.351250 1.584975 414.000000 160.020000 38.100000
10942331 361771.962375 3760716.937325 5243.790000 142.031200 50.415550 1.625600 415.000000 160.020000 38.100000
10942331 361710.528325 3760767.379925 5245.695000 142.031200 50.415550 1.625600 416.000000 160.020000 38.100000
10942331 361667.314025 3760802.599575 5247.600000 142.031200 50.415550 1.666225 417.000000 160.020000 38.100000
10942331 361624.099700 3760837.819225 5249.505000 142.031200 50.415550 1.706875 418.000000 160.020000 38.100000
10942331 361572.379975 3760879.743625 5251.410000 142.031200 50.415550 1.706875 419.000000 160.020000 38.100000
10942331 361548.938350 3760898.020425 5253.315000 142.031200 50.415550 1.788150 420.000000 160.020000 38.100000
10942331 361488.030625 3760947.825700 5255.220000 142.031200 50.415550 1.706875 421.000000 160.020000 38.100000
10942331 361449.325000 3760978.846725 5257.125000 142.031200 50.544175 1.706875 422.000000 160.020000 38.100000
10942331 361429.636250 3760995.262550 5258.077500 142.031200 50.608475 1.666225 423.000000 160.020000 38.100000
10942331 361409.947525 3761011.678375 5259.030000 142.031200 50.672775 1.625600 424.000000 160.020000 38.100000
10942331 361366.380725 3761046.380700 5260.935000 142.031200 50.672775 1.625600 425.000000 160.020000 38.100000
10942331 361328.887775 3761076.113700 5260.935000 142.031200 50.672775 1.625600 426.000000 160.020000 38.100000
10942331 361285.002350 3761112.621575 5262.840000 142.031200 50.672775 1.706875 427.000000 160.020000 38.100000
10942331 361264.016575 3761130.224725 5264.745000 142.031200 50.672775 1.706875 428.000000 160.020000 38.100000
10942331 361208.844025 3761175.179850 5266.650000 142.031200 50.737100 1.666225 429.000000 160.020000 38.100000
10942331 361153.671475 3761220.135000 5268.555000 142.031200 50.801400 1.625600 430.000000 160.020000 38.100000
10942331 361131.623375 3761237.228700 5270.460000 142.031200 50.801400 1.625600 431.000000 160.020000 38.100000
10942331 361061.887975 3761294.391600 5272.365000 142.031200 50.801400 1.706875 432.000000 160.020000 38.100000
10942331 361030.921350 3761319.574450 5274.270000 142.031200 50.737100 2.032000 433.000000 160.020000 38.100000
10942331 360999.954700 3761344.757325 5276.175000 142.031200 50.672775 2.357125 434.000000 160.020000 38.100000
10942331 360958.490225 3761378.268000 5278.080000 142.031200 50.672775 2.438400 435.000000 160.020000 38.100000
10942331 360938.720300 3761394.689750 5279.985000 142.031200 50.672775 2.438400 436.000000 160.020000 38.100000
10942331 360918.950375 3761411.111475 5281.890000 142.031200 50.672775 2.438400 437.000000 160.020000 38.100000
10942331 360819.389350 3761492.495100 5285.700000 142.031200 50.672775 2.438400 438.000000 160.020000 38.100000
10942331 360798.747900 3761509.233375 5286.970000 142.031200 50.608475 2.370675 439.000000 160.020000 38.100000
10942331 360778.106450 3761525.971650 5288.240000 142.031200 50.544175 2.302925 440.000000 160.020000 38.100000
10942331 360736.823525 3761559.448175 5290.780000 142.031200 50.544175 2.248750 441.000000 160.020000 38.100000
10942331 360695.540625 3761592.924725 5293.320000 142.031200 50.544175 2.194550 442.000000 160.020000 38.100000
10942331 360657.548300 3761623.312875 5295.225000 142.031200 50.544175 2.194550 443.000000 160.020000 38.100000
10942331 360625.296925 3761650.004850 5297.130000 142.031200 50.544175 2.194550 444.000000 160.020000 38.100000
10942331 360592.696475 3761676.809175 5299.035000 142.031200 50.544175 2.194550 445.000000 160.020000 38.100000
10942331 360522.809375 3761733.886450 5302.845000 142.031200 50.544175 2.194550 446.000000 160.020000 38.100000
10942331 360493.197650 3761757.916575 5303.797500 142.031200 50.576325 2.092950 447.000000 160.020000 38.100000
10942331 360463.585900 3761781.946675 5304.750000 142.031200 50.608475 1.991375 448.000000 160.020000 38.100000
10942331 360404.362425 3761830.006925 5306.655000 142.031200 50.672775 1.950725 449.000000 160.020000 38.100000
10942331 360362.387475 3761863.538050 5308.560000 142.031200 50.672775 1.869450 450.000000 160.020000 38.100000
10942331 360321.983075 3761896.301900 5310.465000 142.031200 50.672775 1.869450 451.000000 160.020000 38.100000
10942331 360280.537925 3761929.825350 5312.370000 142.031200 50.672775 1.869450 452.000000 160.020000 38.100000
10942331 360259.039625 3761947.447475 5313.322500 142.031200 50.672775 1.910075 453.000000 160.020000 38.100000
10942331 360237.541325 3761965.069575 5314.275000 142.031200 50.672775 1.950725 454.000000 160.020000 38.100000
10942331 360196.624125 3761998.479575 5316.180000 142.031200 50.672775 1.950725 455.000000 160.020000 38.100000
10942331 360161.076250 3762027.140850 5318.085000 142.031200 50.672775 1.950725 456.000000 160.020000 38.100000
10942331 360121.547175 3762059.364100 5319.990000 142.031200 50.672775 1.788150 457.000000 160.020000 38.100000
10942331 360083.984600 3762089.967125 5321.895000 142.031200 50.672775 1.815250 458.000000 160.020000 38.100000
10942331 360046.422050 3762120.570150 5323.800000 142.031200 50.672775 1.842350 459.000000 160.020000 38.100000
10942331 360008.859475 3762151.173175 5325.705000 142.031200 50.672775 1.869450 460.000000 160.020000 38.100000
10942331 359949.402300 3762199.832850 5327.610000 142.031200 50.544175 2.194550 461.000000 160.020000 38.100000
10942331 359903.750225 3762236.753975 5330.150000 142.031200 50.544175 2.275825 462.000000 160.020000 38.100000
10942331 359858.098175 3762273.675075 5332.690000 142.031200 50.544175 2.357125 463.000000 160.020000 38.100000
10942331 359812.446100 3762310.596200 5335.230000 142.031200 50.544175 2.438400 464.000000 160.020000 38.100000
10942331 359774.828200 3762340.993400 5339.040000 142.031200 50.415550 2.600950 465.000000 160.020000 38.100000
10942331 359734.453300 3762374.508425 5340.945000 142.031200 50.415550 2.600950 466.000000 160.020000 38.100000
10942331 359695.782750 3762404.925725 5342.850000 142.031200 50.415550 2.519675 467.000000 160.020000 38.100000
10942331 359655.408175 3762438.336425 5344.755000 142.031200 50.415550 2.519675 468.000000 160.020000 38.100000
10942331 359615.196000 3762470.899000 5347.612500 142.031200 50.415550 2.479050 469.000000 160.020000 38.100000
10942331 359574.983800 3762503.461575 5350.470000 142.031200 50.415550 2.438400 470.000000 160.020000 38.100000
10942331 359537.020500 3762533.869100 5352.375000 142.031200 50.415550 2.357125 471.000000 160.020000 38.100000
10942331 359493.530050 3762569.771950 5354.280000 142.031200 50.415550 2.275850 472.000000 160.020000 38.100000
10942331 359475.516175 3762584.959100 5355.232500 142.031200 50.415550 2.235200 473.000000 160.020000 38.100000
10942331 359457.502300 3762600.146275 5356.185000 142.031200 50.415550 2.194550 474.000000 160.020000 38.100000
10942331 359418.499375 3762631.209700 5358.090000 142.031200 50.415550 2.153900 475.000000 160.020000 38.100000
10942331 359379.496425 3762662.273100 5359.995000 142.031200 50.415550 2.113275 476.000000 160.020000 38.100000
10942331 359344.495725 3762690.938125 5361.900000 142.031200 50.415550 2.194550 477.000000 160.020000 38.100000
10942331 359264.965400 3762755.953100 5365.710000 142.031200 50.415550 2.194550 478.000000 160.020000 38.100000
10942331 359243.054250 3762774.227675 5366.662500 142.031200 50.415550 2.153900 479.000000 160.020000 38.100000
10942331 359221.143125 3762792.502275 5367.615000 142.031200 50.415550 2.113275 480.000000 160.020000 38.100000
10942331 359147.148150 3762852.131950 5371.425000 142.031200 50.286950 2.113275 481.000000 160.020000 38.100000
10942331 359111.986875 3762881.332700 5373.330000 142.031200 50.415550 2.032000 482.000000 160.020000 38.100000
10942331 359071.959200 3762913.584400 5375.235000 142.031200 50.415550 2.032000 483.000000 160.020000 38.100000
10942331 359030.022400 3762947.141000 5377.140000 142.031200 50.415550 1.788150 484.000000 160.020000 38.100000
10942331 358995.039750 3762976.340450 5379.045000 142.031200 50.415550 1.706875 485.000000 160.020000 38.100000
10942331 358952.597125 3763010.965750 5379.045000 142.031200 50.415550 1.544325 486.000000 160.020000 38.100000
10942331 358921.935400 3763035.936050 5380.473750 142.031200 50.415550 1.524000 487.000000 160.020000 38.100000
10942331 358891.273700 3763060.906325 5381.902500 142.031200 50.415550 1.503675 488.000000 160.020000 38.100000
10942331 358860.612000 3763085.876625 5383.331250 142.031200 50.415550 1.483375 489.000000 160.020000 38.100000
10942331 358829.950275 3763110.846925 5384.760000 142.031200 50.415550 1.463050 490.000000 160.020000 38.100000
10942331 358788.557225 3763144.927400 5384.760000 142.031200 50.415550 1.463050 491.000000 160.020000 38.100000
10942331 358744.189625 3763179.697700 5386.665000 142.031200 50.415550 1.381750 492.000000 160.020000 38.100000
10942331 358703.148550 3763213.667625 5388.570000 142.031200 50.415550 1.381750 493.000000 160.020000 38.100000
10942331 358667.625500 3763241.718500 5388.570000 142.031200 50.544175 1.219200 494.000000 160.020000 38.100000
10942331 358624.327400 3763277.106550 5390.475000 142.031200 50.544175 1.056650 495.000000 160.020000 38.100000
10942331 358584.142750 3763309.635175 5391.427500 142.031200 50.672775 0.934725 496.000000 160.020000 38.100000
10942331 358543.958100 3763342.163800 5392.380000 142.031200 50.801400 0.812800 497.000000 160.020000 38.100000
10942331 358501.015125 3763377.547875 5392.380000 142.031200 50.801400 0.731525 498.000000 160.020000 38.100000
10942331 358461.179900 3763409.807525 5392.380000 142.031200 50.801400 0.731525 499.000000 160.020000 38.100000
10942331 358415.271825 3763446.305750 5394.285000 142.031200 50.801400 0.650250 500.000000 160.020000 38.100000
10942331 358374.935175 3763479.845850 5394.285000 142.031200 50.930000 0.650250 501.000000 160.020000 38.100000
10942331 358336.497325 3763511.447325 5396.190000 142.031200 50.930000 0.650250 502.000000 160.020000 38.100000
10942331 358294.065475 3763545.557400 5396.825000 142.031200 50.972875 0.704425 503.000000 160.020000 38.100000
10942331 358251.633650 3763579.667450 5397.460000 142.031200 51.015725 0.758625 504.000000 160.020000 38.100000
10942331 358209.201800 3763613.777525 5398.095000 142.031200 51.058600 0.812800 505.000000 160.020000 38.100000
10942331 358170.136975 3763646.029125 5398.730000 142.031200 51.058600 0.839900 506.000000 160.020000 38.100000
10942331 358131.072125 3763678.280700 5399.365000 142.031200 51.058600 0.866975 507.000000 160.020000 38.100000
10942331 358092.007300 3763710.532300 5400.000000 142.031200 51.058600 0.894075 508.000000 160.020000 38.100000
10942331 358050.631150 3763744.362725 5401.905000 142.031200 51.187225 1.097275 509.000000 160.020000 38.100000
10942331 358009.255000 3763778.193150 5403.810000 142.031200 51.315825 1.300475 510.000000 160.020000 38.100000
10942331 357967.336900 3763811.135525 5403.810000 142.031200 51.315825 1.300475 511.000000 160.020000 38.100000
10942331 357943.965300 3763830.086225 5404.762500 142.031200 51.315825 1.381775 512.000000 160.020000 38.100000
10942331 357920.593675 3763849.036950 5405.715000 142.031200 51.315825 1.463050 513.000000 160.020000 38.100000
10942331 357873.850475 3763886.938350 5407.620000 142.031200 51.315825 1.463050 514.000000 160.020000 38.100000
10942331 357827.107275 3763924.839775 5409.525000 142.031200 51.315825 1.463050 515.000000 160.020000 38.100000
10942331 357780.364050 3763962.741175 5411.430000 142.031200 51.315825 1.463050 516.000000 160.020000 38.100000
10942331 357750.899000 3763986.965350 5412.382500 142.031200 51.380150 1.463050 517.000000 160.020000 38.100000
10942331 357721.433950 3764011.189550 5413.335000 142.031200 51.444450 1.463050 518.000000 160.020000 38.100000
10942331 357662.503850 3764059.637900 5415.240000 142.031200 51.444450 1.463050 519.000000 160.020000 38.100000
10942331 357621.205475 3764093.127300 5416.383000 142.031200 51.444450 1.463050 520.000000 160.020000 38.100000
10942331 357579.907100 3764126.616675 5417.526000 142.031200 51.444450 1.463050 521.000000 160.020000 38.100000
10942331 357538.608725 3764160.106075 5418.669000 142.031200 51.444450 1.463050 522.000000 160.020000 38.100000
10942331 357497.310350 3764193.595450 5419.812000 142.031200 51.444450 1.463050 523.000000 160.020000 38.100000
10942331 357456.011975 3764227.084850 5420.955000 142.031200 51.444450 1.463050 524.000000 160.020000 38.100000
10942331 357418.073250 3764258.165575 5421.431250 142.031200 51.508750 1.300500 525.000000 160.020000 38.100000
10942331 357380.134500 3764289.246300 5421.907500 142.031200 51.573075 1.137925 526.000000 160.020000 38.100000
10942331 357342.195750 3764320.327000 5422.383750 142.031200 51.637375 0.975350 527.000000 160.020000 38.100000
10942331 357304.257025 3764351.407725 5422.860000 142.031200 51.701675 0.812800 528.000000 160.020000 38.100000
10942331 357264.267025 3764383.057900 5424.765000 142.031200 51.701675 0.812800 529.000000 160.020000 38.100000
10942331 357233.989300 3764407.886600 5425.241250 142.031200 51.830275 0.812800 530.000000 160.020000 38.100000
10942331 357203.711575 3764432.715275 5425.717500 142.031200 51.958900 0.812800 531.000000 160.020000 38.100000
10942331 357143.156125 3764482.372650 5426.670000 142.031200 51.958900 0.812800 532.000000 160.020000 38.100000
10942331 357104.018925 3764514.212725 5428.067000 142.031200 51.973900 0.811450 533.000000 160.020000 38.100000
10942331 357064.881725 3764546.052775 5429.464000 142.031200 51.988900 0.810100 534.000000 160.020000 38.100000
10942331 357025.744525 3764577.892850 5430.861000 142.031200 52.003925 0.808725 535.000000 160.020000 38.100000
10942331 356986.607350 3764609.732925 5432.258000 142.031200 52.018925 0.807375 536.000000 160.020000 38.100000
10942331 356947.470150 3764641.572975 5433.655000 142.031200 52.033925 0.806025 537.000000 160.020000 38.100000
10942331 356908.332950 3764673.413050 5435.052000 142.031200 52.048925 0.804675 538.000000 160.020000 38.100000
10942331 356869.195750 3764705.253125 5436.449000 142.031200 52.063925 0.803325 539.000000 160.020000 38.100000
10942331 356830.058550 3764737.093175 5437.846000 142.031200 52.078925 0.801975 540.000000 160.020000 38.100000
10942331 356790.921350 3764768.933250 5439.243000 142.031200 52.093950 0.800600 541.000000 160.020000 38.100000
10942331 356751.784175 3764800.773325 5440.640000 142.031200 52.108950 0.799250 542.000000 160.020000 38.100000
10942331 356712.646975 3764832.613375 5442.037000 142.031200 52.123950 0.797900 543.000000 160.020000 38.100000
10942331 356673.509775 3764864.453450 5443.434000 142.031200 52.138950 0.796550 544.000000 160.020000 38.100000
10942331 356634.372575 3764896.293525 5444.831000 142.031200 52.153950 0.795200 545.000000 160.020000 38.100000
10942331 356595.235375 3764928.133575 5446.228000 142.031200 52.168975 0.793825 546.000000 160.020000 38.100000
10942331 356556.098175 3764959.973650 5447.625000 142.031200 52.183975 0.792475 547.000000 160.020000 38.100000
10942331 356516.961000 3764991.813725 5449.022000 142.031200 52.198975 0.791125 548.000000 160.020000 38.100000
10942331 356477.823800 3765023.653775 5450.419000 142.031200 52.213975 0.789775 549.000000 160.020000 38.100000
10942331 356438.686600 3765055.493850 5451.816000 142.031200 52.228975 0.788425 550.000000 160.020000 38.100000
10942331 356399.549400 3765087.333925 5453.213000 142.031200 52.243975 0.787075 551.000000 160.020000 38.100000
10942331 356360.412200 3765119.173975 5454.610000 142.031200 52.259000 0.785700 552.000000 160.020000 38.100000
10942331 356321.275025 3765151.014050 5456.007000 142.031200 52.274000 0.784350 553.000000 160.020000 38.100000
10942331 356282.137825 3765182.854125 5457.404000 142.031200 52.289000 0.783000 554.000000 160.020000 38.100000
10942331 356243.000625 3765214.694175 5458.801000 142.031200 52.304000 0.781650 555.000000 160.020000 38.100000
10942331 356203.863425 3765246.534250 5460.198000 142.031200 52.319000 0.780300 556.000000 160.020000 38.100000
10942331 356164.726225 3765278.374325 5461.595000 142.031200 52.334025 0.778925 557.000000 160.020000 38.100000
10942331 356125.589025 3765310.214375 5462.992000 142.031200 52.349025 0.777575 558.000000 160.020000 38.100000
10942331 356086.451850 3765342.054450 5464.389000 142.031200 52.364025 0.776225 559.000000 160.020000 38.100000
10942331 356047.314650 3765373.894525 5465.786000 142.031200 52.379025 0.774875 560.000000 160.020000 38.100000
10942331 356008.177450 3765405.734575 5467.183000 142.031200 52.394025 0.773525 561.000000 160.020000 38.100000
10942331 355969.040250 3765437.574650 5468.580000 142.031200 52.409025 0.772150 562.000000 160.020000 38.100000
10942331 355929.903050 3765469.414725 5469.977000 142.031200 52.424050 0.770800 563.000000 160.020000 38.100000
10942331 355890.765850 3765501.254775 5471.374000 142.031200 52.439050 0.769450 564.000000 160.020000 38.100000
10942331 355851.628650 3765533.094850 5472.771000 142.031200 52.454050 0.768100 565.000000 160.020000 38.100000
10942331 355812.491475 3765564.934925 5474.168000 142.031200 52.469050 0.766750 566.000000 160.020000 38.100000
10942331 355773.354275 3765596.774975 5475.565000 142.031200 52.484050 0.765400 567.000000 160.020000 38.100000
10942331 355734.217075 3765628.615050 5476.962000 142.031200 52.499075 0.764025 568.000000 160.020000 38.100000
10942331 355695.079875 3765660.455125 5478.359000 142.031200 52.514075 0.762675 569.000000 160.020000 38.100000
10942331 355655.942675 3765692.295175 5479.756000 142.031200 52.529075 0.761325 570.000000 160.020000 38.100000
10942331 355616.805475 3765724.135250 5481.153000 142.031200 52.544075 0.759975 571.000000 160.020000 38.100000
10942331 355577.668300 3765755.975325 5482.550000 142.031200 52.559075 0.758625 572.000000 160.020000 38.100000
10942331 355538.531100 3765787.815375 5483.947000 142.031200 52.574100 0.757250 573.000000 160.020000 38.100000
10942331 355499.393900 3765819.655450 5485.344000 142.031200 52.589100 0.755900 574.000000 160.020000 38.100000
10942331 355460.256700 3765851.495525 5486.741000 142.031200 52.604100 0.754550 575.000000 160.020000 38.100000
10942331 355421.119500 3765883.335575 5488.138000 142.031200 52.619100 0.753200 576.000000 160.020000 38.100000
10942331 355381.982300 3765915.175650 5489.535000 142.031200 52.634100 0.751850 577.000000 160.020000 38.100000
10942331 355342.845125 3765947.015725 5490.932000 142.031200 52.649100 0.750500 578.000000 160.020000 38.100000
10942331 355303.707925 3765978.855775 5492.329000 142.031200 52.664125 0.749125 579.000000 160.020000 38.100000
10942331 355264.570725 3766010.695850 5493.726000 142.031200 52.679125 0.747775 580.000000 160.020000 38.100000
10942331 355225.433525 3766042.535925 5495.123000 142.031200 52.694125 0.746425 581.000000 160.020000 38.100000
10942331 355186.296325 3766074.375975 5496.520000 142.031200 52.709125 0.745075 582.000000 160.020000 38.100000
10942331 355147.159125 3766106.216050 5497.917000 142.031200 52.724125 0.743725 583.000000 160.020000 38.100000
10942331 355108.021950 3766138.056125 5499.314000 142.031200 52.739150 0.742350 584.000000 160.020000 38.100000
10942331 355068.884750 3766169.896175 5500.711000 142.031200 52.754150 0.741000 585.000000 160.020000 38.100000
10942331 355029.747550 3766201.736250 5502.108000 142.031200 52.769150 0.739650 586.000000 160.020000 38.100000
10942331 354990.610350 3766233.576325 5503.505000 142.031200 52.784150 0.738300 587.000000 160.020000 38.100000
10942331 354951.473150 3766265.416375 5504.902000 142.031200 52.799150 0.736950 588.000000 160.020000 38.100000
10942331 354912.335975 3766297.256450 5506.299000 142.031200 52.814150 0.735600 589.000000 160.020000 38.100000
10942331 354873.198775 3766329.096525 5507.696000 142.031200 52.829175 0.734225 590.000000 160.020000 38.100000
10942331 354834.061575 3766360.936575 5509.093000 142.031200 52.844175 0.732875 591.000000 160.020000 38.100000
10942331 354794.924375 3766392.776650 5510.490000 142.031200 52.859175 0.731525 592.000000 160.020000 38.100000
10942331 354746.267200 3766432.251550 5511.125000 142.031200 52.923475 0.650250 593.000000 160.020000 38.100000
10942331 354697.610025 3766471.726475 5511.760000 142.031200 52.987775 0.568950 594.000000 160.020000 38.100000
10942331 354600.295650 3766550.676275 5513.030000 142.031200 52.987775 0.568950 595.000000 160.020000 38.100000
10942331 354502.981300 3766629.626100 5514.300000 142.031200 52.987775 0.568950 596.000000 160.020000 38.100000
10942331 354461.209875 3766663.544425 5514.300000 142.031200 53.061275 0.510900 597.000000 160.020000 38.100000
10942331 354419.438475 3766697.462750 5514.300000 142.031200 53.134750 0.452825 598.000000 160.020000 38.100000
10942331 354377.667050 3766731.381075 5514.300000 142.031200 53.208250 0.394775 599.000000 160.020000 38.100000
10942331 354335.895650 3766765.299425 5514.300000 142.031200 53.281750 0.336725 600.000000 160.020000 38.100000
10942331 354294.124225 3766799.217750 5514.300000 142.031200 53.355250 0.278675 601.000000 160.020000 38.100000
10942331 354252.352825 3766833.136075 5514.300000 142.031200 53.428725 0.220600 602.000000 160.020000 38.100000
10942331 354210.581400 3766867.054400 5514.300000 142.031200 53.502225 0.162550 603.000000 160.020000 38.100000
10942331 354184.220475 3766888.611000 5514.300000 142.031200 53.587975 0.135450 604.000000 160.020000 38.100000
10942331 354157.859575 3766910.167625 5514.300000 142.031200 53.673700 0.108375 605.000000 160.020000 38.100000
10942331 354131.498650 3766931.724225 5514.300000 142.031200 53.759450 0.081275 606.000000 160.020000 38.100000
10942331 354088.124650 3766965.407900 5514.300000 142.031200 53.888050 0.081275 607.000000 160.020000 38.100000
10942331 354041.174925 3767004.456000 5514.300000 142.031200 53.888050 0.081275 608.000000 160.020000 38.100000
10942331 354000.771150 3767037.340375 5514.300000 142.031200 53.888050 0.081275 609.000000 160.020000 38.100000
10942331 353966.869900 3767064.733050 5514.300000 142.031200 53.930925 0.081275 610.000000 160.020000 38.100000
10942331 353932.968650 3767092.125725 5514.300000 142.031200 53.973800 0.081275 611.000000 160.020000 38.100000
10942331 353899.067375 3767119.518425 5514.300000 142.031200 54.016675 0.081275 612.000000 160.020000 38.100000
10942331 353797.363625 3767201.696450 5514.300000 142.031200 54.016675 0.081275 613.000000 160.020000 38.100000
10942331 364946.590906 3758050.424113 5064.075000 142.031200 13.504169 0.020319 613.000000 40.005000 9.525000
